{
	"COSTINGID": -123,
	"COSTINGNUMBER": "L&T WET IC DIVISION",
	"COSTINGTYPE": 0,
	"Selection": "IOCL Barauni",
	"Allocation": 0,
	"COSTINGDATE": "/Date(1711929600000)/",
	"COSTANALYSISTYPE": 0,
	"REMARKS": "Commercial Offer",
	"REFERENCENUMBER": "171072",
	"REFERENCEDATE": "/Date(1710720000000)/",
	"CostingDetailArray": [
		{
			"SNo": 1,
			"COSTINGDETAILID": -100,
			"COSTINGID": -123,
			"ITEMID": -145,
			"ItemName": "Basement ventilation panel-1",
			"ItemCode": "Base Vent",
			"SKUID": -154,
			"SKUName": "KSRUFTT",
			"SKUCode": "KSR",
			"QUANTITY": 100,
			"UOMID": -151,
			"UOMName": "Nos",
			"UOMCode": "NOS",
			"TOTALVALUE": 1000,
			"COSTINGMATERIALArray": [
				{
					"COSTINGMATERIALId": -150,
					"COSTINGDETAILID": -100,
					"SLNO": 1,
					"STAGECODE": "",
					"ITEMID": -123,
					"ItemName": "Ducting",
					"ItemCode": "",
					"SKUID": -123,
					"SKUName": "",
					"SKUCode": "",
					"QUANTITY": 1,
					"Level": 1,
					"UOMID": -151,
					"UOMNAME": "sq.m",
					"UOMCODE": "sq.m",
					"MakeorBuy": 0,
					"ValueType": 0,
					"SectionType": 0,
					"CALCULATEDQUANTITY": "",
					"WASTEPERCENTAGE": "",
					"NETQUANTITY": "",
					"ADJUSTQUANTITY": "",
					"FINALQUANTITY": 1000,
					"AVAILABLERATE": "",
					"RATEFC": 1150,
					"CURRENCYID": -134,
					"CURRENCYNAME": "Indian Rupee",
					"CURRENCYCODE": "INR",
					"CURRENCYCONVERSION": 1,
					"PROJECTEDRATE": 1150,
					"PROJECTEDValue": 1150,
					"TotalValue": 1150000,
					"MATERIALCHARGESCOST": 425.5,
					"MATERIALCHARGESVALUE": 425500,
					"COSTINGCHARGESArray": [],
					"MATERIALPROCESSCOST": 540,
					"MATERIALPROCESSVALUE": 540000,
					"COSTINGPROCESSArray": [],
					"MATERIALEXPENSECOST": 0,
					"MATERIALEXPENSEVALUE": 0,
					"COSTINGEXPENSEArray": [],
					"TOTALCOST": 1576,
					"TOTALVALUE": 1576000,
					"REMARKS": "",
					"Detail": ""
				},
				{
					"COSTINGMATERIALId": -150,
					"COSTINGDETAILID": -100,
					"SLNO": 1,
					"STAGECODE": "",
					"ITEMID": -123,
					"ItemName": "Duct Support",
					"ItemCode": "",
					"SKUID": -123,
					"SKUName": "",
					"SKUCode": "",
					"QUANTITY": 1,
					"Level": 1,
					"UOMID": -151,
					"UOMNAME": "Kg",
					"UOMCODE": "Kg",
					"MakeorBuy": 0,
					"ValueType": 0,
					"SectionType": 0,
					"CALCULATEDQUANTITY": 1,
					"WASTEPERCENTAGE": 0,
					"NETQUANTITY": 1,
					"ADJUSTQUANTITY": 0,
					"FINALQUANTITY": 200,
					"AVAILABLERATE": "",
					"RATEFC": 120,
					"CURRENCYID": -134,
					"CURRENCYNAME": "Indian Rupee",
					"CURRENCYCODE": "INR",
					"CURRENCYCONVERSION": 1,
					"PROJECTEDRATE": 120,
					"PROJECTEDValue": 120,
					"TotalValue": 24000,
					"MATERIALCHARGESCOST": 44.4,
					"MATERIALCHARGESVALUE": 8880,
					"COSTINGCHARGESArray": [],
					"MATERIALPROCESSCOST": 90,
					"MATERIALPROCESSVALUE": 18000,
					"COSTINGPROCESSArray": [],
					"MATERIALEXPENSECOST": 0,
					"MATERIALEXPENSEVALUE": 0,
					"COSTINGEXPENSEArray": [],
					"TOTALCOST": 165,
					"TOTALVALUE": 33000,
					"REMARKS": "Test Remarks",
					"Detail": "Test Detail"
				},
				{
					"COSTINGMATERIALId": -150,
					"COSTINGDETAILID": -100,
					"SLNO": 1,
					"STAGECODE": "",
					"ITEMID": -123,
					"ItemName": "Angle",
					"ItemCode": "",
					"SKUID": -123,
					"SKUName": "",
					"SKUCode": "",
					"QUANTITY": 1,
					"Level": 2,
					"UOMID": -151,
					"UOMNAME": "Kg",
					"UOMCODE": "Kg",
					"MakeorBuy": 0,
					"ValueType": 0,
					"SectionType": 0,
					"CALCULATEDQUANTITY": 1,
					"WASTEPERCENTAGE": 0,
					"NETQUANTITY": 1,
					"ADJUSTQUANTITY": 0,
					"FINALQUANTITY": 60,
					"AVAILABLERATE": 500,
					"RATEFC": 60,
					"CURRENCYID": -134,
					"CURRENCYNAME": "Indian Rupee",
					"CURRENCYCODE": "INR",
					"CURRENCYCONVERSION": 1,
					"PROJECTEDRATE": 60,
					"PROJECTEDValue": 60,
					"TotalValue":3600,
					"MATERIALCHARGESCOST": 150,
					"MATERIALCHARGESVALUE": 150,
					"COSTINGCHARGESArray": [],
					"MATERIALPROCESSCOST": 240,
					"MATERIALPROCESSVALUE": 240,
					"COSTINGPROCESSArray": [],
					"MATERIALEXPENSECOST": 0,
					"MATERIALEXPENSEVALUE": 0,
					"COSTINGEXPENSEArray": [],
					"TOTALCOST": 1195,
					"TOTALVALUE": 1195,
					"REMARKS": "Test Remarks",
					"Detail": "Test Detail"
				},
				{
					"COSTINGMATERIALId": -150,
					"COSTINGDETAILID": -100,
					"SLNO": 1,
					"STAGECODE": "",
					"ITEMID": -123,
					"ItemName": "Channel",
					"ItemCode": "",
					"SKUID": -123,
					"SKUName": "",
					"SKUCode": "",
					"QUANTITY": 1,
					"Level": 2,
					"UOMID": -151,
					"UOMNAME": "Kg",
					"UOMCODE": "Kg",
					"MakeorBuy": 0,
					"ValueType": 0,
					"SectionType": 0,
					"CALCULATEDQUANTITY": 1,
					"WASTEPERCENTAGE": 0,
					"NETQUANTITY": 1,
					"ADJUSTQUANTITY": 0,
					"FINALQUANTITY": 100,
					"AVAILABLERATE": 500,
					"RATEFC": 40,
					"CURRENCYID": -134,
					"CURRENCYNAME": "Indian Rupee",
					"CURRENCYCODE": "INR",
					"CURRENCYCONVERSION": 1,
					"PROJECTEDRATE": 40,
					"PROJECTEDValue": 40,
					"TotalValue":4000,
					"MATERIALCHARGESCOST": 150,
					"MATERIALCHARGESVALUE": 150,
					"COSTINGCHARGESArray": [],
					"MATERIALPROCESSCOST": 240,
					"MATERIALPROCESSVALUE": 240,
					"COSTINGPROCESSArray": [],
					"MATERIALEXPENSECOST": 0,
					"MATERIALEXPENSEVALUE": 0,
					"COSTINGEXPENSEArray": [],
					"TOTALCOST": 1195,
					"TOTALVALUE": 1195,
					"REMARKS": "Test Remarks",
					"Detail": "Test Detail"
				},
				{
					"COSTINGMATERIALId": -150,
					"COSTINGDETAILID": -100,
					"SLNO": 1,
					"STAGECODE": "",
					"ITEMID": -123,
					"ItemName": "Thread Rod",
					"ItemCode": "",
					"SKUID": -123,
					"SKUName": "",
					"SKUCode": "",
					"QUANTITY": 1,
					"Level": 2,
					"UOMID": -151,
					"UOMNAME": "Kg",
					"UOMCODE": "Kg",
					"MakeorBuy": 0,
					"ValueType": 0,
					"SectionType": 0,
					"CALCULATEDQUANTITY": 1,
					"WASTEPERCENTAGE": 0,
					"NETQUANTITY": 1,
					"ADJUSTQUANTITY": 0,
					"FINALQUANTITY": 40,
					"AVAILABLERATE": 500,
					"RATEFC": 20,
					"CURRENCYID": -134,
					"CURRENCYNAME": "Indian Rupee",
					"CURRENCYCODE": "INR",
					"CURRENCYCONVERSION": 1,
					"PROJECTEDRATE": 20,
					"PROJECTEDValue": 20,
					"TotalValue":1600,
					"MATERIALCHARGESCOST": 150,
					"MATERIALCHARGESVALUE": 150,
					"COSTINGCHARGESArray": [],
					"MATERIALPROCESSCOST": 240,
					"MATERIALPROCESSVALUE": 240,
					"COSTINGPROCESSArray": [],
					"MATERIALEXPENSECOST": 0,
					"MATERIALEXPENSEVALUE": 0,
					"COSTINGEXPENSEArray": [],
					"TOTALCOST": 1195,
					"TOTALVALUE": 1195,
					"REMARKS": "Test Remarks",
					"Detail": "Test Detail"
				},
				{
					"COSTINGMATERIALId": -150,
					"COSTINGDETAILID": -100,
					"SLNO": 1,
					"STAGECODE": "",
					"ITEMID": -123,
					"ItemName": "Volume Control Damper",
					"ItemCode": "",
					"SKUID": -123,
					"SKUName": "",
					"SKUCode": "",
					"QUANTITY": 1,
					"Level": 1,
					"UOMID": -151,
					"UOMNAME": "Nos",
					"UOMCODE": "NOS",
					"MakeorBuy": 0,
					"ValueType": 0,
					"SectionType": 0,
					"CALCULATEDQUANTITY": "",
					"WASTEPERCENTAGE": "",
					"NETQUANTITY": "",
					"ADJUSTQUANTITY": "",
					"FINALQUANTITY": 10,
					"AVAILABLERATE": "",
					"RATEFC": 4000,
					"CURRENCYID": -134,
					"CURRENCYNAME": "Indian Rupee",
					"CURRENCYCODE": "INR",
					"CURRENCYCONVERSION": 1,
					"PROJECTEDRATE": 4000,
					"PROJECTEDValue": 4000,
					"TotalValue":40000,
					"MATERIALCHARGESCOST": 1480,
					"MATERIALCHARGESVALUE": 14800,
					"COSTINGCHARGESArray": [],
					"MATERIALPROCESSCOST": 1200,
					"MATERIALPROCESSVALUE": 12000,
					"COSTINGPROCESSArray": [],
					"MATERIALEXPENSECOST": 0,
					"MATERIALEXPENSEVALUE": 0,
					"COSTINGEXPENSEArray": [],
					"TOTALCOST": 5480,
					"TOTALVALUE": 54800,
					"REMARKS": "",
					"Detail": ""
				},
				{
					"COSTINGMATERIALId": -150,
					"COSTINGDETAILID": -100,
					"SLNO": 1,
					"STAGECODE": "",
					"ITEMID": -123,
					"ItemName": "Motorised Fire Damper",
					"ItemCode": "",
					"SKUID": -123,
					"SKUName": "",
					"SKUCode": "",
					"QUANTITY": 1,
					"Level": 1,
					"UOMID": -151,
					"UOMNAME": "Nos",
					"UOMCODE": "NOS",
					"MakeorBuy": 0,
					"ValueType": 0,
					"SectionType": 0,
					"CALCULATEDQUANTITY": 1,
					"WASTEPERCENTAGE": 0,
					"NETQUANTITY": 1,
					"ADJUSTQUANTITY": 0,
					"FINALQUANTITY": 5,
					"AVAILABLERATE": 500,
					"RATEFC": 23500,
					"CURRENCYID": -134,
					"CURRENCYNAME": "Indian Rupee",
					"CURRENCYCODE": "INR",
					"CURRENCYCONVERSION": 1,
					"PROJECTEDRATE": 23500,
					"PROJECTEDValue": 32195,
					"TotalValue":160975,
					"MATERIALCHARGESCOST": 8695,
					"MATERIALCHARGESVALUE": 43473,
					"COSTINGCHARGESArray": [],
					"MATERIALPROCESSCOST": 2400,
					"MATERIALPROCESSVALUE": 12000,
					"COSTINGPROCESSArray": [],
					"MATERIALEXPENSECOST": 0,
					"MATERIALEXPENSEVALUE": 0,
					"COSTINGEXPENSEArray": [],
					"TOTALCOST": 32195,
					"TOTALVALUE": 160975,
					"REMARKS": "Test Remarks",
					"Detail": "Test Detail"
				},
				{
					"COSTINGMATERIALId": -150,
					"COSTINGDETAILID": -100,
					"SLNO": 1,
					"STAGECODE": "",
					"ITEMID": -123,
					"ItemName": "Thermal Insulation for Duct",
					"ItemCode": "",
					"SKUID": -123,
					"SKUName": "",
					"SKUCode": "",
					"QUANTITY": 1,
					"Level": 1,
					"UOMID": -151,
					"UOMNAME": "Sq.m",
					"UOMCODE": "Sq.m",
					"MakeorBuy": 0,
					"ValueType": 0,
					"SectionType": 0,
					"CALCULATEDQUANTITY": 1,
					"WASTEPERCENTAGE": 0,
					"NETQUANTITY": 1,
					"ADJUSTQUANTITY": 0,
					"FINALQUANTITY": 1000,
					"AVAILABLERATE": 500,
					"RATEFC": 520,
					"CURRENCYID": -134,
					"CURRENCYNAME": "Indian Rupee",
					"CURRENCYCODE": "INR",
					"CURRENCYCONVERSION": 1,
					"PROJECTEDRATE": 520,
					"PROJECTEDValue": 520,
					"TotalValue":520000,
					"MATERIALCHARGESCOST": 192.4,
					"MATERIALCHARGESVALUE": 192400,
					"COSTINGCHARGESArray": [],
					"MATERIALPROCESSCOST": 420,
					"MATERIALPROCESSVALUE": 420000,
					"COSTINGPROCESSArray": [],
					"MATERIALEXPENSECOST": 0,
					"MATERIALEXPENSEVALUE": 0,
					"COSTINGEXPENSEArray": [],
					"TOTALCOST": 713,
					"TOTALVALUE": 713000,
					"REMARKS": "Test Remarks",
					"Detail": "Test Detail"
				},
				{
					"COSTINGMATERIALId": -150,
					"COSTINGDETAILID": -100,
					"SLNO": 1,
					"STAGECODE": "",
					"ITEMID": -123,
					"ItemName": "Acoustic Insulation for Duct",
					"ItemCode": "",
					"SKUID": -123,
					"SKUName": "",
					"SKUCode": "",
					"QUANTITY": 1,
					"Level": 1,
					"UOMID": -151,
					"UOMNAME": "Sq.m",
					"UOMCODE": "Sq.m",
					"MakeorBuy": 0,
					"ValueType": 0,
					"SectionType": 0,
					"CALCULATEDQUANTITY": 1,
					"WASTEPERCENTAGE": 0,
					"NETQUANTITY": 1,
					"ADJUSTQUANTITY": 0,
					"FINALQUANTITY": 200,
					"AVAILABLERATE": 500,
					"RATEFC": 920,
					"CURRENCYID": -134,
					"CURRENCYNAME": "Indian Rupee",
					"CURRENCYCODE": "INR",
					"CURRENCYCONVERSION": 1,
					"PROJECTEDRATE": 920,
					"PROJECTEDValue": 920,
					"TotalValue": 184000,
					"MATERIALCHARGESCOST": 340.4,
					"MATERIALCHARGESVALUE": 68080,
					"COSTINGCHARGESArray": [],
					"MATERIALPROCESSCOST": 240,
					"MATERIALPROCESSVALUE": 240,
					"COSTINGPROCESSArray": [],
					"MATERIALEXPENSECOST": 0,
					"MATERIALEXPENSEVALUE": 0,
					"COSTINGEXPENSEArray": [],
					"TOTALCOST": 1261,
					"TOTALVALUE": 252200,
					"REMARKS": "Test Remarks",
					"Detail": "Test Detail"
				},
				{
					"COSTINGMATERIALId": -150,
					"COSTINGDETAILID": -100,
					"SLNO": 1,
					"STAGECODE": "",
					"ITEMID": -123,
					"ItemName": "Centrifugal Fan",
					"ItemCode": "",
					"SKUID": -123,
					"SKUName": "",
					"SKUCode": "",
					"QUANTITY": 1,
					"Level": 1,
					"UOMID": -151,
					"UOMNAME": "Nos",
					"UOMCODE": "NOS",
					"MakeorBuy": 0,
					"ValueType": 0,
					"SectionType": 0,
					"CALCULATEDQUANTITY": 1,
					"WASTEPERCENTAGE": 0,
					"NETQUANTITY": 1,
					"ADJUSTQUANTITY": 0,
					"FINALQUANTITY": 10,
					"AVAILABLERATE": 500,
					"RATEFC": 126160,
					"CURRENCYID": -134,
					"CURRENCYNAME": "Indian Rupee",
					"CURRENCYCODE": "INR",
					"CURRENCYCONVERSION": 1,
					"PROJECTEDRATE": 126160,
					"PROJECTEDValue": 126160,
					"TotalValue":1261600,
					"MATERIALCHARGESCOST": 150,
					"MATERIALCHARGESVALUE": 150,
					"COSTINGCHARGESArray": [],
					"MATERIALPROCESSCOST": 6300,
					"MATERIALPROCESSVALUE": 63000,
					"COSTINGPROCESSArray": [],
					"MATERIALEXPENSECOST": 0,
					"MATERIALEXPENSEVALUE": 0,
					"COSTINGEXPENSEArray": [],
					"TOTALCOST": 126160,
					"TOTALVALUE": 1261600,
					"REMARKS": "Test Remarks",
					"Detail": "Test Detail"
				},
				{
					"COSTINGMATERIALId": -150,
					"COSTINGDETAILID": -100,
					"SLNO": 1,
					"STAGECODE": "",
					"ITEMID": -123,
					"ItemName": "Bare Fan",
					"ItemCode": "",
					"SKUID": -123,
					"SKUName": "",
					"SKUCode": "",
					"QUANTITY": 1,
					"Level": 2,
					"UOMID": -151,
					"UOMNAME": "Nos",
					"UOMCODE": "NOS",
					"MakeorBuy": 0,
					"ValueType": 0,
					"SectionType": 0,
					"CALCULATEDQUANTITY": "",
					"WASTEPERCENTAGE": "",
					"NETQUANTITY": "",
					"ADJUSTQUANTITY": "",
					"FINALQUANTITY": 1,
					"AVAILABLERATE": "",
					"RATEFC": 50000,
					"CURRENCYID": -134,
					"CURRENCYNAME": "Indian Rupee",
					"CURRENCYCODE": "INR",
					"CURRENCYCONVERSION": 1,
					"PROJECTEDRATE": 50000,
					"PROJECTEDValue": 50000,
					"TotalValue":50000,
					"MATERIALCHARGESCOST": 19500,
					"MATERIALCHARGESVALUE": 19500,
					"COSTINGCHARGESArray": [],
					"MATERIALPROCESSCOST": 2400,
					"MATERIALPROCESSVALUE": 2400,
					"COSTINGPROCESSArray": [],
					"MATERIALEXPENSECOST": 0,
					"MATERIALEXPENSEVALUE": 0,
					"COSTINGEXPENSEArray": [],
					"TOTALCOST": 68500,
					"TOTALVALUE": 68500,
					"REMARKS": "",
					"Detail": ""
				},
				{
					"COSTINGMATERIALId": -150,
					"COSTINGDETAILID": -100,
					"SLNO": 1,
					"STAGECODE": "",
					"ITEMID": -123,
					"ItemName": "Base Frame",
					"ItemCode": "",
					"SKUID": -123,
					"SKUName": "",
					"SKUCode": "",
					"QUANTITY": 1,
					"Level": 2,
					"UOMID": -151,
					"UOMNAME": "Kg",
					"UOMCODE": "Kg",
					"MakeorBuy": 0,
					"ValueType": 0,
					"SectionType": 0,
					"CALCULATEDQUANTITY": 1,
					"WASTEPERCENTAGE": 0,
					"NETQUANTITY": 1,
					"ADJUSTQUANTITY": 0,
					"FINALQUANTITY": 200,
					"AVAILABLERATE": 500,
					"RATEFC": 120,
					"CURRENCYID": -134,
					"CURRENCYNAME": "Indian Rupee",
					"CURRENCYCODE": "INR",
					"CURRENCYCONVERSION": 1,
					"PROJECTEDRATE": 120,
					"PROJECTEDValue": 120,
					"TotalValue":24000,
					"MATERIALCHARGESCOST": 44.4,
					"MATERIALCHARGESVALUE": 8880,
					"COSTINGCHARGESArray": [],
					"MATERIALPROCESSCOST": 12,
					"MATERIALPROCESSVALUE": 2400,
					"COSTINGPROCESSArray": [],
					"MATERIALEXPENSECOST": 0,
					"MATERIALEXPENSEVALUE": 0,
					"COSTINGEXPENSEArray": [],
					"TOTALCOST": 165,
					"TOTALVALUE": 33000,
					"REMARKS": "Test Remarks",
					"Detail": "Test Detail"
				},
				{
					"COSTINGMATERIALId": -150,
					"COSTINGDETAILID": -100,
					"SLNO": 1,
					"STAGECODE": "",
					"ITEMID": -123,
					"ItemName": "V- Belt",
					"ItemCode": "",
					"SKUID": -123,
					"SKUName": "",
					"SKUCode": "",
					"QUANTITY": 1,
					"Level": 2,
					"UOMID": -151,
					"UOMNAME": "m",
					"UOMCODE": "m",
					"MakeorBuy": 0,
					"ValueType": 0,
					"SectionType": 0,
					"CALCULATEDQUANTITY": 1,
					"WASTEPERCENTAGE": 0,
					"NETQUANTITY": 1,
					"ADJUSTQUANTITY": 0,
					"FINALQUANTITY": 10,
					"AVAILABLERATE": 500,
					"RATEFC": 200,
					"CURRENCYID": -134,
					"CURRENCYNAME": "Indian Rupee",
					"CURRENCYCODE": "INR",
					"CURRENCYCONVERSION": 1,
					"PROJECTEDRATE": 200,
					"PROJECTEDValue": 200,
					"TotalValue":2000,
					"MATERIALCHARGESCOST": 74,
					"MATERIALCHARGESVALUE": 740,
					"COSTINGCHARGESArray": [],
					"MATERIALPROCESSCOST": 6,
					"MATERIALPROCESSVALUE": 60,
					"COSTINGPROCESSArray": [],
					"MATERIALEXPENSECOST": 0,
					"MATERIALEXPENSEVALUE": 0,
					"COSTINGEXPENSEArray": [],
					"TOTALCOST": 713,
					"TOTALVALUE": 713000,
					"REMARKS": "Test Remarks",
					"Detail": "Test Detail"
				},
				{
					"COSTINGMATERIALId": -150,
					"COSTINGDETAILID": -100,
					"SLNO": 1,
					"STAGECODE": "",
					"ITEMID": -123,
					"ItemName": "V-Pulley",
					"ItemCode": "",
					"SKUID": -123,
					"SKUName": "",
					"SKUCode": "",
					"QUANTITY": 1,
					"Level": 2,
					"UOMID": -151,
					"UOMNAME": "Nos",
					"UOMCODE": "Nos",
					"MakeorBuy": 0,
					"ValueType": 0,
					"SectionType": 0,
					"CALCULATEDQUANTITY": 1,
					"WASTEPERCENTAGE": 0,
					"NETQUANTITY": 1,
					"ADJUSTQUANTITY": 0,
					"FINALQUANTITY": 2,
					"AVAILABLERATE": 500,
					"RATEFC": 500,
					"CURRENCYID": -134,
					"CURRENCYNAME": "Indian Rupee",
					"CURRENCYCODE": "INR",
					"CURRENCYCONVERSION": 1,
					"PROJECTEDRATE": 500,
					"PROJECTEDValue": 500,
					"TotalValue": 1000,
					"MATERIALCHARGESCOST": 185,
					"MATERIALCHARGESVALUE": 370,
					"COSTINGCHARGESArray": [],
					"MATERIALPROCESSCOST": 120,
					"MATERIALPROCESSVALUE": 240,
					"COSTINGPROCESSArray": [],
					"MATERIALEXPENSECOST": 0,
					"MATERIALEXPENSEVALUE": 0,
					"COSTINGEXPENSEArray": [],
					"TOTALCOST": 685,
					"TOTALVALUE": 1370,
					"REMARKS": "Test Remarks",
					"Detail": "Test Detail"
				},
				{
					"COSTINGMATERIALId": -150,
					"COSTINGDETAILID": -100,
					"SLNO": 1,
					"STAGECODE": "",
					"ITEMID": -123,
					"ItemName": "Motor",
					"ItemCode": "",
					"SKUID": -123,
					"SKUName": "",
					"SKUCode": "",
					"QUANTITY": 1,
					"Level": 2,
					"UOMID": -151,
					"UOMNAME": "Nos",
					"UOMCODE": "NOS",
					"MakeorBuy": 0,
					"ValueType": 0,
					"SectionType": 0,
					"CALCULATEDQUANTITY": 1,
					"WASTEPERCENTAGE": 0,
					"NETQUANTITY": 1,
					"ADJUSTQUANTITY": 0,
					"FINALQUANTITY": 1,
					"AVAILABLERATE": 500,
					"RATEFC": 15000,
					"CURRENCYID": -134,
					"CURRENCYNAME": "Indian Rupee",
					"CURRENCYCODE": "INR",
					"CURRENCYCONVERSION": 1,
					"PROJECTEDRATE": 15000,
					"PROJECTEDValue": 15000,
					"TotalValue":15000,
					"MATERIALCHARGESCOST": 5550,
					"MATERIALCHARGESVALUE": 5550,
					"COSTINGCHARGESArray": [],
					"MATERIALPROCESSCOST": 1200,
					"MATERIALPROCESSVALUE": 1200,
					"COSTINGPROCESSArray": [],
					"MATERIALEXPENSECOST": 0,
					"MATERIALEXPENSEVALUE": 0,
					"COSTINGEXPENSEArray": [],
					"TOTALCOST": 20550,
					"TOTALVALUE": 20550,
					"REMARKS": "Test Remarks",
					"Detail": "Test Detail"
				},
				{
					"COSTINGMATERIALId": -150,
					"COSTINGDETAILID": -100,
					"SLNO": 1,
					"STAGECODE": "",
					"ITEMID": -123,
					"ItemName": "Refrigerant Pipe with Insulation",
					"ItemCode": "",
					"SKUID": -123,
					"SKUName": "",
					"SKUCode": "",
					"QUANTITY": 1,
					"Level": 1,
					"UOMID": -151,
					"UOMNAME": "m",
					"UOMCODE": "m",
					"MakeorBuy": 0,
					"ValueType": 0,
					"SectionType": 0,
					"CALCULATEDQUANTITY": 1,
					"WASTEPERCENTAGE": 0,
					"NETQUANTITY": 1,
					"ADJUSTQUANTITY": 0,
					"FINALQUANTITY": 200,
					"AVAILABLERATE": 500,
					"RATEFC": 1950,
					"CURRENCYID": -134,
					"CURRENCYNAME": "Indian Rupee",
					"CURRENCYCODE": "INR",
					"CURRENCYCONVERSION": 1,
					"PROJECTEDRATE": 1950,
					"PROJECTEDValue": 1950,
					"TotalValue":390000,
					"MATERIALCHARGESCOST": 721.5,
					"MATERIALCHARGESVALUE": 144300,
					"COSTINGCHARGESArray": [],
					"MATERIALPROCESSCOST": 240,
					"MATERIALPROCESSVALUE": 48000,
					"COSTINGPROCESSArray": [],
					"MATERIALEXPENSECOST": 0,
					"MATERIALEXPENSEVALUE": 0,
					"COSTINGEXPENSEArray": [],
					"TOTALCOST": 2672,
					"TOTALVALUE": 534400,
					"REMARKS": "Test Remarks",
					"Detail": "Test Detail"
				},
				{
					"COSTINGMATERIALId": -150,
					"COSTINGDETAILID": -100,
					"SLNO": 1,
					"STAGECODE": "",
					"ITEMID": -123,
					"ItemName": "Pipe",
					"ItemCode": "",
					"SKUID": -123,
					"SKUName": "",
					"SKUCode": "",
					"QUANTITY": 1,
					"Level": 1,
					"UOMID": -151,
					"UOMNAME": "m",
					"UOMCODE": "m",
					"MakeorBuy": 0,
					"ValueType": 0,
					"SectionType": 0,
					"CALCULATEDQUANTITY": 1,
					"WASTEPERCENTAGE": 0,
					"NETQUANTITY": 1,
					"ADJUSTQUANTITY": 0,
					"FINALQUANTITY": 100,
					"AVAILABLERATE": 500,
					"RATEFC": 600,
					"CURRENCYID": -134,
					"CURRENCYNAME": "Indian Rupee",
					"CURRENCYCODE": "INR",
					"CURRENCYCONVERSION": 1,
					"PROJECTEDRATE": 600,
					"PROJECTEDValue": 600,
					"TotalValue": 60000,
					"MATERIALCHARGESCOST": 222,
					"MATERIALCHARGESVALUE": 22200,
					"COSTINGCHARGESArray": [],
					"MATERIALPROCESSCOST": 240,
					"MATERIALPROCESSVALUE": 24000,
					"COSTINGPROCESSArray": [],
					"MATERIALEXPENSECOST": 0,
					"MATERIALEXPENSEVALUE": 0,
					"COSTINGEXPENSEArray": [],
					"TOTALCOST": 822,
					"TOTALVALUE": 82200,
					"REMARKS": "Test Remarks",
					"Detail": "Test Detail"
				},
				{
					"COSTINGMATERIALId": -150,
					"COSTINGDETAILID": -100,
					"SLNO": 1,
					"STAGECODE": "",
					"ITEMID": -123,
					"ItemName": "Pipe Support",
					"ItemCode": "",
					"SKUID": -123,
					"SKUName": "",
					"SKUCode": "",
					"QUANTITY": 1,
					"Level": 1,
					"UOMID": -151,
					"UOMNAME": "Lot",
					"UOMCODE": "Lot",
					"MakeorBuy": 0,
					"ValueType": 0,
					"SectionType": 0,
					"CALCULATEDQUANTITY": 1,
					"WASTEPERCENTAGE": 0,
					"NETQUANTITY": 1,
					"ADJUSTQUANTITY": 0,
					"FINALQUANTITY": 1,
					"AVAILABLERATE": 500,
					"RATEFC": 0,
					"CURRENCYID": -134,
					"CURRENCYNAME": "Indian Rupee",
					"CURRENCYCODE": "INR",
					"CURRENCYCONVERSION": 1,
					"PROJECTEDRATE": 0,
					"PROJECTEDValue": 0,
					"TotalValue":0,
					"MATERIALCHARGESCOST": 0,
					"MATERIALCHARGESVALUE": 0,
					"COSTINGCHARGESArray": [],
					"MATERIALPROCESSCOST": 13800,
					"MATERIALPROCESSVALUE": 13800,
					"COSTINGPROCESSArray": [],
					"MATERIALEXPENSECOST": 0,
					"MATERIALEXPENSEVALUE": 0,
					"COSTINGEXPENSEArray": [],
					"TOTALCOST": 136720,
					"TOTALVALUE": 136720,
					"REMARKS": "Test Remarks",
					"Detail": "Test Detail"
				},
				{
					"COSTINGMATERIALId": -150,
					"COSTINGDETAILID": -100,
					"SLNO": 1,
					"STAGECODE": "",
					"ITEMID": -123,
					"ItemName": "Angle",
					"ItemCode": "",
					"SKUID": -123,
					"SKUName": "",
					"SKUCode": "",
					"QUANTITY": 1,
					"Level": 2,
					"UOMID": -151,
					"UOMNAME": "m",
					"UOMCODE": "m",
					"MakeorBuy": 0,
					"ValueType": 0,
					"SectionType": 0,
					"CALCULATEDQUANTITY": 1,
					"WASTEPERCENTAGE": 0,
					"NETQUANTITY": 1,
					"ADJUSTQUANTITY": 0,
					"FINALQUANTITY": 50,
					"AVAILABLERATE": 500,
					"RATEFC": 480,
					"CURRENCYID": -134,
					"CURRENCYNAME": "Indian Rupee",
					"CURRENCYCODE": "INR",
					"CURRENCYCONVERSION": 1,
					"PROJECTEDRATE": 480,
					"PROJECTEDValue": 480,
					"TotalValue":24000,
					"MATERIALCHARGESCOST": 177.6,
					"MATERIALCHARGESVALUE": 8880,
					"COSTINGCHARGESArray": [],
					"MATERIALPROCESSCOST": 60,
					"MATERIALPROCESSVALUE": 3000,
					"COSTINGPROCESSArray": [],
					"MATERIALEXPENSECOST": 0,
					"MATERIALEXPENSEVALUE": 0,
					"COSTINGEXPENSEArray": [],
					"TOTALCOST": 658,
					"TOTALVALUE": 32900,
					"REMARKS": "Test Remarks",
					"Detail": "Test Detail"
				},
				{
					"COSTINGMATERIALId": -150,
					"COSTINGDETAILID": -100,
					"SLNO": 1,
					"STAGECODE": "",
					"ITEMID": -123,
					"ItemName": "Channel",
					"ItemCode": "",
					"SKUID": -123,
					"SKUName": "",
					"SKUCode": "",
					"QUANTITY": 1,
					"Level": 2,
					"UOMID": -151,
					"UOMNAME": "m",
					"UOMCODE": "m",
					"MakeorBuy": 0,
					"ValueType": 0,
					"SectionType": 0,
					"CALCULATEDQUANTITY": 1,
					"WASTEPERCENTAGE": 0,
					"NETQUANTITY": 1,
					"ADJUSTQUANTITY": 0,
					"FINALQUANTITY": 70,
					"AVAILABLERATE": 500,
					"RATEFC": 960,
					"CURRENCYID": -134,
					"CURRENCYNAME": "Indian Rupee",
					"CURRENCYCODE": "INR",
					"CURRENCYCONVERSION": 1,
					"PROJECTEDRATE": 960,
					"PROJECTEDValue": 960,
					"TotalValue":67200,
					"MATERIALCHARGESCOST": 355.2,
					"MATERIALCHARGESVALUE": 24864,
					"COSTINGCHARGESArray": [],
					"MATERIALPROCESSCOST": 60,
					"MATERIALPROCESSVALUE": 4200,
					"COSTINGPROCESSArray": [],
					"MATERIALEXPENSECOST": 0,
					"MATERIALEXPENSEVALUE": 0,
					"COSTINGEXPENSEArray": [],
					"TOTALCOST": 1316,
					"TOTALVALUE": 92120,
					"REMARKS": "Test Remarks",
					"Detail": "Test Detail"
				},
				{
					"COSTINGMATERIALId": -150,
					"COSTINGDETAILID": -100,
					"SLNO": 1,
					"STAGECODE": "",
					"ITEMID": -123,
					"ItemName": "Thread Rod",
					"ItemCode": "",
					"SKUID": -123,
					"SKUName": "",
					"SKUCode": "",
					"QUANTITY": 1,
					"Level": 2,
					"UOMID": -151,
					"UOMNAME": "m",
					"UOMCODE": "m",
					"MakeorBuy": 0,
					"ValueType": 0,
					"SectionType": 0,
					"CALCULATEDQUANTITY": 1,
					"WASTEPERCENTAGE": 0,
					"NETQUANTITY": 1,
					"ADJUSTQUANTITY": 0,
					"FINALQUANTITY": 100,
					"AVAILABLERATE": 500,
					"RATEFC": 75,
					"CURRENCYID": -134,
					"CURRENCYNAME": "Indian Rupee",
					"CURRENCYCODE": "INR",
					"CURRENCYCONVERSION": 1,
					"PROJECTEDRATE": 75,
					"PROJECTEDValue": 75,
					"TotalValue": 7500,
					"MATERIALCHARGESCOST": 27.75,
					"MATERIALCHARGESVALUE": 2775,
					"COSTINGCHARGESArray": [],
					"MATERIALPROCESSCOST": 60,
					"MATERIALPROCESSVALUE": 6000,
					"COSTINGPROCESSArray": [],
					"MATERIALEXPENSECOST": 0,
					"MATERIALEXPENSEVALUE": 0,
					"COSTINGEXPENSEArray": [],
					"TOTALCOST": 103,
					"TOTALVALUE": 10300,
					"REMARKS": "Test Remarks",
					"Detail": "Test Detail"
				},
				{
					"COSTINGMATERIALId": -150,
					"COSTINGDETAILID": -100,
					"SLNO": 1,
					"STAGECODE": "",
					"ITEMID": -123,
					"ItemName": "Sleeve Anchor",
					"ItemCode": "",
					"SKUID": -123,
					"SKUName": "",
					"SKUCode": "",
					"QUANTITY": 1,
					"Level": 1,
					"UOMID": -151,
					"UOMNAME": "Nos",
					"UOMCODE": "Nos",
					"MakeorBuy": 0,
					"ValueType": 0,
					"SectionType": 0,
					"CALCULATEDQUANTITY": 1,
					"WASTEPERCENTAGE": 0,
					"NETQUANTITY": 1,
					"ADJUSTQUANTITY": 0,
					"FINALQUANTITY": 50,
					"AVAILABLERATE": 500,
					"RATEFC": 20,
					"CURRENCYID": -134,
					"CURRENCYNAME": "Indian Rupee",
					"CURRENCYCODE": "INR",
					"CURRENCYCONVERSION": 1,
					"PROJECTEDRATE": 20,
					"PROJECTEDValue": 20,
					"TotalValue":1000,
					"MATERIALCHARGESCOST": 7.4,
					"MATERIALCHARGESVALUE": 37,
					"COSTINGCHARGESArray": [],
					"MATERIALPROCESSCOST": 12,
					"MATERIALPROCESSVALUE": 600,
					"COSTINGPROCESSArray": [],
					"MATERIALEXPENSECOST": 0,
					"MATERIALEXPENSEVALUE": 0,
					"COSTINGEXPENSEArray": [],
					"TOTALCOST": 28,
					"TOTALVALUE": 1400,
					"REMARKS": "Test Remarks",
					"Detail": "Test Detail"
				}
			]
		}
	]
}