{
    "ObjectFields": [
{
    "CountryName": {
        "PicklistUrl": "Country",
        "PicklistDisplayText": "Code,Name",
        "PicklistSearchFields": "Name",
        "Multiple": false,
        "PicklistSelection": "Id",
        "PicklistTitle": "Name",
        "LinkId":"CountryId",
        "Label": "Country",
        "Width": 300,
        "LabelWidth":102,
        "AddNew": false,
        "PlaceHolder":"Select Country",
        "Required":false,
        "MaxLength": 20,
        "ColumnWidth": "200,300",
        "ColumnType": "string,string"
    },
    "CityName": {
        "PicklistUrl": "City",
        "PicklistDisplayText": "Code,Name",
        "PicklistSearchFields": "Name",
        "Multiple": false,
        "PicklistSelection": "Id",
        "PicklistTitle": "Name",
        "LinkId":"CityId",
        "Label": "City",
        "Width": 300,
        "AddNew": false,
        "LabelWidth":102,
        "PlaceHolder":"Select City",
        "Required":false,
        "MaxLength": 20,
        "ColumnWidth": "200,300",
        "ColumnType": "string,string",
        "PicklistCriteria": "Citycountry"
    },
    "StateName": {
        "PicklistUrl": "State",
        "PicklistDisplayText": "Code,Name",
        "PicklistSearchFields": "Name",
        "Multiple": false,
        "PicklistSelection": "Id",
        "PicklistTitle": "Name",
        "LinkId":"StateId",
        "Label": "State",
        "Width": 300,
        "LabelWidth":102,
        "AddNew": false,
        "PlaceHolder":"Select State",
        "Required":false,
        "MaxLength": 20,
        "ColumnWidth": "200,300",
        "ColumnType": "string,string",
        "PicklistCriteria": "Statecountry"
    },
    "StandardRegionName":{
        "PicklistUrl": "Region",
        "PicklistDisplayText": "Code,Name",
        "PicklistSearchFields": "Name",
        "Multiple": false,
        "PicklistSelection": "Id",
        "PlaceHolder":"Select Region",
        "PicklistTitle": "Name",
        "Label": "Region",
        "LinkId":"StandardRegionId",
        "Width": 300,
        "AddNew": false,
        "LabelWidth":102,
        "Required":false,
        "MaxLength": 20,
        "ColumnWidth": "200,300",
        "ColumnType": "string,string"
    },
    "LocationName":{
        "PicklistUrl": "AddressLocation",
        "PicklistDisplayText": "Code,Name",
        "PicklistSearchFields": "Name",
        "Multiple": false,
        "PicklistSelection": "Id",
        "PlaceHolder":"Select Location",
        "PicklistTitle": "Name",
        "Label": "Location",
        "LinkId":"LocationId",
        "Width": 300,
        "LabelWidth":102,
        "AddNew": false,
        "Required":false,
        "MaxLength": 20,
        "ColumnWidth": "200,300",
        "ColumnType": "string,string"
    }
},
        {
        "Name": "PartyCode",
        "Type": "string",
        "Label": "",
        "Required": false,
        "ValidRegEx": "",
        "PostData":false,
        "DefaultValue": ""
        },
        {
        "Name": "PartyName",
        "Type": "string",
        "Label": "",
        "Required": false,
        "ValidRegEx": "",
        "PostData":false,
        "DefaultValue": "",
        "Placeholder": ""
        
        },
        {
        "Name": "PartyBranchCode",
        "Type": "string",
        "Label": "",
        "Required": false,
        "PostData":false,
        "ValidRegEx": "",
        "DefaultValue": ""
        
        },
        {
        "Name": "PartyBranchName",
        "Type": "string",
        "Label": "",
        "DefaultValue": "",
        "Placeholder": "",
        "PostData":false,
        "Required": false,
        "ValidRegEx": ""
        },
        {
        "Name": "AddressId",
        "Type": "number",
        "Label": "",   
        "DefaultValue": 0,
        "Placeholder": "",
        "Required": false,
        "ValidRegEx": ""
        },
        {
        "Name": "AddressObjectTypeId",
        "Type": "number",
        "Label": "",
        "Placeholder": "",
        "Required": false,
        "ValidRegEx": "",
        "DefaultValue":-1
        },
        {
        "Name": "AddressObjectId",
        "Type": "number",
        "Label": "",
        "DefaultValue": -1,
        "Placeholder": "",
        "Required": false,
        "ValidRegEx": ""
        }
        ,
        {
        "Name": "ObjectTypeName",
        "Type": "string",
        "Label": "",
        "DefaultValue": "",
        "Placeholder": "Enter Connected Type",
        "PostData":false,
        "Required": false,
        "ValidRegEx": ""
        },
        {
        "Name": "AddressAddressType",
        "Type": "number",
        "Label": "",
        "Required": false,
        "ValidRegEx": "",
        "DefaultValue":0,
        "Width":100,
        "PickLists": [
            {
                "key": 0,
                "value": "Present"
            },
            {
                "key": 1,
                "value": "Permanent"
            },
            {
                "key": 2,
                "value": "Work"
            },
            {
                "key": 3,
                "value": "Main"
            },
            {
                "key": 4,
                "value": "Work Fax"
            },
            {
                "key": 5,
                "value": "Main Fax"
            },
            {
                "key": 6,
                "value": "Others"
            }
        ]
        },
        {
        "Name": "AddressAddressNature",
        "Type": "string",
        "Label": "", 
        "Placeholder": "",
        "Required": false,
        "PostData":false,
        "ValidRegEx": "",
        "DefaultValue":""
        },
        {
        "Name": "AddressLine1",
        "Type": "string",
        "Label": "AddressLine1",
        "Required": false,
        "ValidRegEx": "",
        "LabelWidth":100,
        "Width":300,
        "DefaultValue": "",
        "Placeholder": "Enter AddressLine1"

        },
        {
        "Name": "AddressLine2",
        "Type": "string",
        "Label": "AddressLine2",
        "Required": false,
        "ValidRegEx": "",
        "LabelWidth":100,
        "Width":300,
        "DefaultValue": "",
        "Placeholder": "Enter AddressLine2"
        },
        {
        "Name": "AddressLine3",
        "Type": "string",
        "Label": "AddressLine3",
        "Required": false,
        "ValidRegEx": "",
        "Width":300,
        "LabelWidth":100,
        "DefaultValue": "",
        "Placeholder": "Enter AddressLine3"
        },
        {
        "Name": "AddressLine4",
        "Type": "string",
        "Label": "AddressLine4",
        "Required": false,
        "Width":300,
        "LabelWidth":100,
        "ValidRegEx": "",
        "DefaultValue": "",
        "Placeholder": "Enter AddressLine4"
        },
        {
        "Name": "AddressLine5",
        "Type": "string",
        "Label": "AddressLine5",
        "Required": false,
        "ValidRegEx": "",
        "Width":300,
        "LabelWidth":100,
        "DefaultValue": "",
        "Placeholder": "Enter AddressLine5"
        },
        {
        "Name": "AddressZipCode",
        "Type": "string",
        "Label": "Zip Code",
        "Required": false,
        "ValidRegEx": "",
        "LabelWidth":102,

        "DefaultValue": "",
        "Placeholder": "Enter Zip Code"
        },
        {
        "Name": "CityId",
        "Type": "number",
        "Label": "",
        "Required": false,
        "ValidRegEx": "",
        "DefaultValue": -1
        },
        {
        "Name": "CityCode",
        "Type": "string",
        "Label": "",
        "Required": false,
        "PostData":false,
        "ValidRegEx": "",
        "DefaultValue": ""
        },
        {
        "Name": "CityName",
        "Type": "string",
        "Label": "City*",
        "Required": true,
        "PostData":false,
        "ValidRegEx": "",
        "DefaultValue": ""
        },
        {
        "Name": "CountryId",
        "Type": "number",
        "Label": "",
        "Required": false,
        "ValidRegEx": "",
        "DefaultValue": -1
        },
        {
        "Name": "CountryCode",
        "Type": "string",
        "Label": "",
        "Required": false,
        "PostData":false,
        "ValidRegEx": "",
        "DefaultValue": ""
        },
        {
        "Name": "CountryName",
        "Type": "string",
        "Label": "Country*",
        "Required": true,
        "PostData":false,
        "ValidRegEx": "",
        "DefaultValue": ""
        },
        {
        "Name": "AddressPhone",
        "Type": "string",
        "Label": "Phone Number",
        "Required": false,
        "LabelWidth":140,

        "ValidRegEx": "",
        "DefaultValue": "",
        "Placeholder": "Enter Phone Number"
        }
        ,
        {
        "Name": "AddressMobile",
        "Type": "string",
        "Label": "Mobile Number",
        "LabelWidth":140,

        "Required": false,
        "ValidRegEx": "",
        "DefaultValue":"",
        "Placeholder": "Enter Mobile Numebr" 
        },
        {
        "Name": "AddressFax",
        "Type": "string",
        "Label": "Alternate Mobile No",      
        "Placeholder": "Enter Alternate Mobile Number",
        "Required": false,
        "LabelWidth":138,
        "ValidRegEx": "",
        "DefaultValue":""
        },
        {
        "Name": "AddressWeb",
        "Type": "string",
        "Label": "Web Address",
        "Required": false,
        "LabelWidth":140,

        "ValidRegEx": "",
        "DefaultValue": "",
        "Placeholder": "Enter Web Address"
        },
        {
        "Name": "AddressGeoCode",
        "Type": "string",
        "Label": "GEO Code",
        "Required": false,
        "ValidRegEx": "",
        "DefaultValue": "",
        "Placeholder": "Enter GEO Code"
        },
        {
        "Name": "AddressMail",
        "Type": "string",
        "Label": "Mail ID",
        "Required": false,
        "LabelWidth":140,

        "ValidRegEx": "",
        "DefaultValue": "",
        "Placeholder": "Enter Mail Id"
        },
        {
        "Name": "AddressVATTINNumber",
        "Type": "string",
        "Label": "TIN Number",
        "Required": false,
        "ValidRegEx": "",
        "DefaultValue": "",
        "LabelWidth":142,

        "Placeholder": "Enter TIN Number"
        },
        {
        "Name": "AddressVATCSTNumber",
        "Type": "string",
        "Label": "CST Number",
        "Required": false,
        "ValidRegEx": "",
        "LabelWidth":142,

        "DefaultValue": "",
        "Placeholder": "Enter CST Number"
        },
        {
        "Name": "AddressPAN",
        "Type": "string",
        "Label": "PAN",
        "Required": false,
        "LabelWidth":142,

        "ValidRegEx": "",
        "DefaultValue": "",
        "Placeholder": "Enter PAN"
        },
        {
        "Name": "AddressTAN",
        "Type": "string",
        "Label": "TAN",
        "Required": false,
        "LabelWidth":142,

        "ValidRegEx": "",
        "DefaultValue": "",
        "Placeholder": "Enter TAN"
        },
        {
        "Name": "AddressServiceTaxNumber",
        "Type": "string",
        "Label": "Service Tax Number",
        "Required": false,
        "ValidRegEx": "",
        "LabelWidth":140,

        "DefaultValue": "",
        "Placeholder": "Enter Service Tax Number"
        },
        {
        "Name": "AddressExciseDivision",
        "Type": "string",
        "Label": "",
        "Required": false,
        "ValidRegEx": "",
        "DefaultValue": ""
        },
        {
        "Name": "AddressExciseRange",
        "Type": "string",
        "Label": "",
        "Required": false,
        "ValidRegEx": "",
        "DefaultValue": ""
        },
        {
        "Name": "AddressExciseCodeNumber",
        "Type": "string",
        "Label": "",
        "Required": false,
        "ValidRegEx": "",
        "DefaultValue": ""
        },
        {
        "Name": "AddressExciseNotification",
        "Type": "string",
        "Label": "",
        "Required": false,
        "ValidRegEx": "",
        "DefaultValue": ""
        },
        {
        "Name": "AddressExciseCircle",
        "Type": "string",
        "Label": "",
        "Required": false,
        "ValidRegEx": "",
        "DefaultValue": ""
        }
        ,
        {
        "Name": "AddressExciseCollectrate",
        "Type": "string",
        "Label": "",
        "Required": false,
        "ValidRegEx": "",
        "DefaultValue": ""
        },
        {
        "Name": "AddressExciseRegisterNumber",
        "Type": "string",
        "Label": "",
        "Required": false,
        "ValidRegEx": "",
        "DefaultValue": ""
        },
        {
        "Name": "AddressTDSCircle",
        "Type": "string",
        "Label": "",
        "Required": false,
        "ValidRegEx": "",
        "DefaultValue": ""
        },
        {
        "Name": "StandardRegionId",
        "Type": "number",
        "Label": "",
        "Required": false,
        "ValidRegEx": "",
        "DefaultValue": -1
        }
        ,
        {
        "Name": "StandardRegionCode",
        "Type": "string",
        "Label": "",
        "PostData":false,
        "Required": false,
        "ValidRegEx": "",
        "DefaultValue":0
        },
        {
        "Name": "StandardRegionName",
        "Type": "string",
        "Label": "Region",  
        "Placeholder": "",
        "Required": true,
        "PostData":false,
        "ValidRegEx": "",
        "DefaultValue":""
        },
        {
        "Name": "LocationId",
        "Type": "number",
        "Label": "",
        "Required": false,
        "ValidRegEx": "",
        "DefaultValue": -1
        },
        {
        "Name": "LocationCode",
        "Type": "string",
        "Label": "",
        "Required": false,
        "PostData":false,
        "ValidRegEx": "",
        "DefaultValue": ""
        },
        {
        "Name": "LocationName",
        "Type": "string",
        "Label": "Location",
        "Required": true,
        "PostData":false,
        "ValidRegEx": "",
        "DefaultValue": ""
        },
        {
        "Name": "AddressGSTIn",
        "Type": "string",
        "Label": "GSTIN",
        "Required": false,
        "Placeholder":"Enter GSTIN",
        "ValidRegEx": "",
        "LabelWidth":140,

        "DefaultValue": ""
        },
        {
        "Name": "ObjectName",
        "Type": "string",
        "Label": "",
        "Required": false,
        "PostData":false,
        "ValidRegEx": "",
        "DefaultValue": ""
        },
        {
        "Name": "StateId",
        "Type": "number",
        "Label": "",
        "Required": false,
        "ValidRegEx": "",
        "DefaultValue": -1
        },
        {
        "Name": "StateCode",
        "Type": "string",
        "Label": "",
        "Required": false,
        "PostData":false,
        "ValidRegEx": "",
        "DefaultValue": ""
        },
        {
        "Name": "StateName",
        "Type": "string",
        "Label": "State",
        "Required": true,
        "PostData":false,
        "ValidRegEx": "",
        "DefaultValue": ""
        },
        {
        "Name": "StateGSTStateCode",
        "Type": "string",
        "Label": "",
        "Required": false,
        "PostData":false,
        "ValidRegEx": "",
        "DefaultValue": ""
        },
        {
        "Name": "UpdateShippingAddress",
        "Type": "string",
        "Label": "",
        "Required": false,
        "PostData":false,
        "ValidRegEx": "",
        "DefaultValue": ""
        },
        {
        "Name": "TempPartyId",
        "Type": "number",
        "Label": "",
        "Required": false,
        "PostData":false,
        "ValidRegEx": "",
        "DefaultValue": -1
        },
        {
        "Name": "TempPartyProductId",
        "Type": "number",
        "Label": "",
        "Required": false,
        "PostData":false,
        "ValidRegEx": "",
        "DefaultValue": -1
        },
        {
        "Name": "AddressCreatedById",
        "Type": "number",
        "Label": "",
        "Required": false,
        "PostData":false,
        "ValidRegEx": "",
        "DefaultValue": -1
        }
        ,
        {
        "Name": "AddressCreatedOn",
        "Type": "string",
        "Label": "",
        "Required": false,
        "PostData":false,
        "ValidRegEx": "",
        "DefaultValue": "/Date(1404130078000)/"
        },
        {
        "Name": "AddressModifiedById",
        "Type": "number",
        "Label": "",
        "Required": false,
        "PostData":false,
        "ValidRegEx": "",
        "DefaultValue": -1
        },
        {
        "Name": "AddressModifiedOn",
        "Type": "string",
        "Label": "",
        "Required": false,
        "PostData":false,
        "ValidRegEx": "",
        "DefaultValue": "/Date(1428306806000)/"
        },
        {
        "Name": "AddressSortOrder",
        "Type": "string",
        "Label": "",
        "Required": false,
        "PostData":false,
        "ValidRegEx": "",
        "DefaultValue": ""
        }
        ,
        {
        "Name": "AddressVersion",
        "Type": "number",
        "Label": "",
        "PostData":true,
        "Required": false,
        "ValidRegEx": "",
        "DefaultValue":1
        },
        {
        "Name": "AddressSourceType",
        "Type": "string",
        "Label": "",
        "Required": false,
        "PostData":false,
        "ValidRegEx": "",
        "DefaultValue": ""
        },
        {
        "Name": "AddressStatus",
        "Type": "string",
        "Label": "",
        "Required": false,
        "PostData":false,
        "ValidRegEx": "",
        "DefaultValue": ""
        },
        {
        "Name": "AddressGeolocation",
        "Type": "string",
        "Label": "",
        "Required": false,
        "PostData":false,
        "ValidRegEx": "",
        "LabelWidth":102,
        "DefaultValue": ""
        },
        {
        "Name": "AddressBorder",
        "Type": "string",
        "Label": "",
        "Required": false,
        "PostData":false,
        "ValidRegEx": "",
        "DefaultValue": ""
        }
        
    
    ]
    }