{
    "ObjectFields": [
        {
            "AllocationTypeName": {
                "PicklistUrl": "Allocation",
                "PicklistDisplayText": "Code,Name",
                "PicklistSearchFields": "Code,Name",
                "Multiple": false,
                "PicklistSelection": "Id",
                "PicklistTitle": "Name",
                "Label": "Allocation Type*",
                "Width": 360,
                "LabelWidth":116,
                "SLno":1,
                "PlaceHolder":"Select Allocation Type",
                "AddNew": false,
                "ColumnWidth": "200,300",
                "ColumnType": "string,string",
                "LinkId": "AllocationTypeId"
            },
            "MAllocationName": {
                "PicklistUrl": "Allocationserve",
                "PicklistDisplayText": "Name",
                "PicklistSearchFields": "Name",
                "Multiple": false,
                "PicklistSelection": "Id",
                "PicklistTitle": "Name",
                "PlaceHolder":"Enter Name",
                "Label": "Name*",
                "Width": 160,
                "AddNew": true,
                "isKeyField":true,
                "MaxLength": 30,
                "ColumnWidth": "300",
                "ColumnType": "string,string",
                "PicklistCriteria": "PrintedLabel"
            },
            "MAllocationShortName": {
                "PicklistUrl": "Allocationserve",
                "PicklistDisplayText": "Name",
                "PicklistSearchFields": "Name",
                "Multiple": false,
                "PicklistSelection": "Id",
                "PicklistTitle": "Name",
                "Label": "Short Name*",
                "PlaceHolder":"Enter Short Name",
                "Width": 360,
                "AddNew": true,
                "isKeyField":true,
                "MaxLength": 10,
                "ColumnWidth": "300",
                "ColumnType": "string,string"
            },
            "InchargeName": {
                "PicklistUrl": "CounterSuperVisor",
                "PicklistDisplayText": "Name",
                "PicklistSearchFields": "Name",
                "Multiple": false,
                "PicklistSelection": "Id",
                "PicklistTitle": "Name",
                "Label": "Project I/C*",
                "Width": 360,
                "LabelWidth":90,
                "PlaceHolder":"Select Incharge",
                "AddNew": false,
                "ColumnWidth": "300",
                "ColumnType": "string,string",
                "LinkId": "InchargeId"
            },
            "OrganizationUnitName": {
                "PicklistUrl": "OrgUnit",
                "PicklistDisplayText": "Code,Name",
                "PicklistSearchFields": "Code,Name",
                "Multiple": false,
                "PicklistSelection": "Id",
                "PicklistTitle": "Name",
                "Label": "Division*",
                "LabelWidth":90,
                "Width": 360,
                "PlaceHolder":"Select Organization Unit",
                "AddNew": false,
                "ColumnWidth": "200,300",
                "ColumnType": "string,string",
                "LinkId": "OrganizationUnitId"
            },
            "MAllocationPartyName": {
                "PicklistUrl": "Party",
                "PicklistDisplayText": "Code,Name",
                "PicklistSearchFields": "Code,Name",
                "Multiple": false,
                "PicklistSelection": "Id",
                "PicklistTitle": "Name",
                "Label": "Customer*",
                "LabelWidth":90,
                "Width": 360,
                "PlaceHolder":"Select Party",
                "AddNew": false,
                "ColumnWidth": "300",
                "ColumnType": "string,string",
                "LinkId": "MAllocationPartyId"
            },
            "CurrencyName": {
                "PicklistUrl": "Currency",
                "PicklistDisplayText": "Code,Name",
                "PicklistSearchFields": "Code,Name",
                "Multiple": false,
                "PicklistSelection": "Id",
                "PicklistTitle": "Name",
                "Label": "Currency",
                "Width": 360,
                "LabelWidth":132,
                "PlaceHolder":"Select Currency",
                "AddNew": false,
                "ColumnWidth": "300",
                "ColumnType": "string,string",
                "LinkId": "CurrencyId"
            },
            "ParentAllocationName": {
                "PicklistUrl": "Allocationserve",
                "PicklistDisplayText": "Name",
                "PicklistSearchFields": "Name",
                "Multiple": false,
                "PicklistSelection": "Id",
                "PicklistTitle": "Name",
                "Label": "Scope*",
                "LabelWidth":90,
                "PlaceHolder":"Select Under",
                "Width": 360,
                "AddNew": false,
                "ColumnWidth": "300",
                "ColumnType": "string,string",
                "LinkId": "ParentAllocationId"
            }
        },
     
        {
            "Name": "MAllocationId",
            "Type": "number",
            "Required": true,
            "ValidRegEx": "",
            "PostData": true,
            "DefaultValue": 0
        },
        {
            "Name": "AllocationTypeName",
            "Type": "string",
            "Required": true,
            "ValidRegEx": "",
            "DefaultValue": "",
            "PostData": true,
            "width": "400px",
            "Label": "Allocation Type*"
        },
        {
            "Name": "MAllocationName",
            "Type": "string",
            "Required": true,
            "ValidRegEx": "",
            "DefaultValue": "",
            "PostData": true,
            "width": "400px",
            "Label": "Name*"
        },
        {
            "Name": "MAllocationShortName",
            "Type": "string",
            "Required": true,
            "ValidRegEx": "",
            "DefaultValue": "",
            "PostData": true,
            "width": "400px",
            "Label": "Short Name*"
        },
        {
            "Name": "MAllocationDescription",
            "Type": "string",
            "Required": true,
            "ValidRegEx": "",
            "DefaultValue": "",
            "LabelWidth":94,
            "PostData": true,
           "Width":360,
            "MaxLength": 1000,
            "Label": "Description*",
            "Placeholder": "Enter Description"
        },
        {
            "Name": "MAllocationIsCapital",
            "Type": "number",
            "Required": false, 
            "ValidRegEx": "",
            "DefaultValue": 0,
            "PostData": true,
            "width": "400px",
            "LabelWidth":132,
            "Label": "Is Capital Project",
            "Placeholder": ""
        },
        {
            "Name": "MAllocationIsArchive",
            "Type": "number",
            "Required": false,
            "ValidRegEx": "",
            "DefaultValue": 0,
            "LabelWidth":17,
            "PostData": false,
        "Width":160,
            "Label": "Show Archive",
            "Placeholder": ""
        },
        {
            "Name": "MAllocationDateApplicable",
            "Type": "number",
            "Required": false,
            "ValidRegEx": "",
            "DefaultValue": 0,
            "PostData": true,
            "width": "400px",
            "LabelWidth":132,
            "Label": "Date Range Applicable?",
            "Placeholder": ""
        },
        {
            "Name": "ParentAllocationName",
            "Type": "string",
            "Required": true,
            "ValidRegEx": "",
            "DefaultValue": "",
            "PostData": true,
            "width": "400px",
            "Label": "Scope*"
        },
        {
            "Name": "MAllocationPartyName",
            "Type": "string",
            "Required": true,
            "ValidRegEx": "",
            "DefaultValue": "",
            "PostData": true,
            "width": "400px",
            "Label": "Customer*"
        },
        {
            "Name": "InchargeName",
            "Type": "string",
            "Required": true,
            "ValidRegEx": "",
            "DefaultValue": "",
            "PostData": true,
            "width": "400px",
            "Label": "Project I/C*"
        },
        {
            "Name": "OrganizationUnitName",
            "Type": "string",
            "Required": true,
            "ValidRegEx": "",
            "DefaultValue": "",
            "PostData": false,
            "width": "400px",
            "Label": "Division*"
        },
        {
            "Name": "CurrencyName",
            "Type": "string",
            "Required": false,
            "ValidRegEx": "",
            "DefaultValue": "",
            "PostData": false,
            "width": "400px",
            "Label": "Currency"
        },
        {
            "Name": "MAllocationStatus",
            "Type": "number",
            "Required": false,
            "ValidRegEx": "",
            "DefaultValue": 0,
            "Width":160,
            "LabelWidth":90,
            "Label": "Status",
            "PickLists": [
                {
                    "key": 0,
                    "value": "Pending"
                },
                {
                    "key": 1,
                    "value": "Active"
                },
                {
                    "key": 2,
                    "value": "Deleted"
                },
                {
                    "key": 3,
                    "value": "Amended"
                },
                {
                    "key": 4,
                    "value": "Inactive"
                },
                {
                    "key": 5,
                    "value": "Archieved"
                }
            ]
        },
        {
            "Name": "MAllocationRate",
            "Type": "number",
            "Required": false,
            "ValidRegEx": "",
            "DefaultValue": 0,
            "PostData": true,
       "Width":160,
            "Label": "Rate",
            "Placeholder": "",
            "LabelWidth":132,
            "MaxLength": 17,
            "Mask": "0000000000000.000"
        },
        {
            "Name": "MAllocationRateperUOM",
            "Type": "number",
            "Required": false,
            "ValidRegEx": "",
            "DefaultValue": 0,
           "Width":160,
           "LabelWidth":132,
            "Label": "Rate Per UOM ",
            "PickLists": [
                {
                    "key": 0,
                    "value": "Seconds"
                },
                {
                    "key": 1,
                    "value": "Minutes"
                },
                {
                    "key": 2,
                    "value": "Hours"
                },
                {
                    "key": 3,
                    "value": "Days"
                },
                {
                    "key": 4,
                    "value": "Weeks"
                },
                {
                    "key": 5,
                    "value": "Months"
                },
                {
                    "key": 7,
                    "value": "Fixed"
                }
            ]
        },
        {
            "Name": "MAllocationNumberOfData",
            "Type": "number",
            "Required": false,
            "ValidRegEx": "",
            "DefaultValue": 0,
            "PostData": true,
            "width": "400px",
            "LabelWidth":132,
            "Width":160,
            "Label": "Required Number*",
            "Placeholder": "Enter Required Number",
            "MaxLength": 9
        },
        {
            "Name": "MAllocationExpectedPerHour",
            "Type": "number",
            "Required": false,
            "ValidRegEx": "",
            "DefaultValue": 0,
            "PostData": true,
            "Width":160,
            "LabelWidth":132,
            "width": "400px",
            "Label": "Number Of Hours*",
            "Placeholder": "Enter Number Of Hours",
            "MaxLength": 9
        },
        {
            "Name": "MAllocationFromDate",
            "Type": "string",
            "Required": false,
            "ValidRegEx": "",
            "DefaultValue": "",
            "PostData": true,
            "LabelWidth":94,
            "Width":160,
            "Label": "From Date"
        },
        {
            "Name": "MAllocationToDate",
            "Type": "string",
            "Required": false,
            "ValidRegEx": "",
            "DefaultValue": "",
            "PostData": true,
         "Width":160,
         "LabelWidth":66,
            "Label": "To Date"
        },
        {
            "Name": "MAllocationObjectId",
            "Type": "number",
            "Required": false,
            "ValidRegEx": "",
            "PostData": true,
            "DefaultValue": -1
        },
        {
            "Name": "ParentAllocationId",
            "Type": "number",
            "Required": false,
            "ValidRegEx": "",
            "PostData": true,
            "DefaultValue": -1
        },
        {
            "Name": "MAllocationCostCenterId",
            "Type": "number",
            "Required": false,
            "ValidRegEx": "",
            "PostData": true,
            "DefaultValue": -1
        },
        {
            "Name": "MAllocationPartyId",
            "Type": "number",
            "Required": false,
            "ValidRegEx": "",
            "PostData": true,
            "DefaultValue": -1
        },
        {
            "Name": "ObjectTypeId",
            "Type": "number",
            "Required": false,
            "ValidRegEx": "",
            "PostData": true,
            "DefaultValue": -1
        },
        {
            "Name": "InchargeId",
            "Type": "number",
            "Required": false,
            "ValidRegEx": "",
            "PostData": true,
            "DefaultValue": -1
        },
        {
            "Name": "OrganizationUnitId",
            "Type": "number",
            "Required": false,
            "ValidRegEx": "",
            "PostData": true,
            "DefaultValue": -1
        },
        {
            "Name": "AllocationTypeId",
            "Type": "number",
            "Required": false,
            "ValidRegEx": "",
            "PostData": true,
            "DefaultValue": -1
        },
        {
            "Name": "MAllocationVersion",
            "Type": "number",
            "Required": false,
            "ValidRegEx": "",
            "PostData": true,
            "DefaultValue": 1
        },
        {
            "Name": "MAllocationCreatedOn",
            "Type": "string",
            "Required": false,
            "ValidRegEx": "",
            "PostData": true,
            "DefaultValue": "/Date(1711012380000)/"
        },
        {
            "Name": "MAllocationModifiedOn",
            "Type": "string",
            "Required": false,
            "ValidRegEx": "",
            "PostData": true,
            "DefaultValue": "/Date(1711012380000)/"
        },
        {
            "Name": "MAllocationCreatedByName",
            "Type": "string",
            "Required": false,
            "ValidRegEx": "",
            "PostData": true,
            "DefaultValue": "ADMIN"
        },
        {
            "Name": "MAllocationModifiedByName",
            "Type": "string",
            "Required": false,
            "ValidRegEx": "",
            "PostData": true,
            "DefaultValue": "ADMIN"
        },
        {
            "Name": "CurrencyId",
            "Type": "number",
            "Required": false,
            "ValidRegEx": "",
            "PostData": true,
            "DefaultValue": -1
        }
    ]
}