{
    "ObjectFields": [
        {
            "BIZTransactionSubClassCode": {
                "PicklistUrl": "BiztransactionSubclass",
                "PicklistDisplayText": "Code,Name",
                "PicklistSearchFields": "Code,Name",
                "Multiple": false,
                "PicklistSelection": "Id",
                "PicklistTitle": "Code",
                "Label": "Code*",
                "Width": 300,
                "AddNew": true,
                "PlaceHolder":"Enter Code",
                "SLno":1,
                "MaxLength": 20,
                "LabelWidth":180,
                "ColumnWidth": "200,300",
                "ColumnType": "string,string",
                "isKeyField": true
            },
            "BIZTransactionSubClassName": {
                "PicklistUrl": "BiztransactionSubclass",
                "PicklistDisplayText": "Code,Name",
                "PicklistSearchFields": "Code,Name",
                "Multiple": false,
                "PicklistSelection": "Id",
                "PicklistTitle": "Name",
                "Label": "Name*",
                "Width": 360,
                "AddNew": true,
                "MaxLength": 35,
                "PlaceHolder":"Enter Name",
                "ColumnWidth": "200,300",
                "ColumnType": "string,string",
                "isKeyField": true
            },
            "BIZTransactionClassName": {
                "PicklistUrl": "BIZTransactionClass",
                "PicklistDisplayText": "Code,Name",
                "PicklistSearchFields": "Code,Name",
                "Multiple": false,
                "PicklistSelection": "Id",
                "PicklistTitle": "Name",
                "Label": "Class*",
                "Width": 360,
                "AddNew": false,
                "LabelWidth":56,
                "PlaceHolder":"Select BIZTransaction Class",
                "MaxLength": 35,
                "ColumnWidth": "200,300",
                "ColumnType": "string,string",
                "LinkId": "BIZTransactionClassId"
            }
        },
        {
            "Name": "BIZTransactionSubClassId",
            "Type": "number",
            "Required": true,
            "ValidRegEx": "",
            "PostData": true,
            "DefaultValue": 0
        },
        {
            "Name": "BIZTransactionSubClassCode",
            "Type": "string",
            "Label": "Code*",
            "Required": true,
            "ValidRegEx": "",
            "PostData": true,
            "DefaultValue": ""
        },
        {
            "Name": "BIZTransactionSubClassName",
            "Type": "string",
            "Label": "Name*",
            "Required": true,
            "ValidRegEx": "",
            "PostData": true,
            "DefaultValue": ""
        },
        {
            "Name": "BIZTransactionClassName",
            "Type": "string",
            "Label": "BIZTransaction Class*",
            "Required": true,
            "ValidRegEx": "",
            "PostData": true,
            "DefaultValue": ""
        },
        {
            "Name": "BIZTransactionClassId",
            "Type": "number",
            "Required": false,
            "PostData": true,
            "ValidRegEx": "",
            "Label": "",
            "DefaultValue": -1
        },
        {
            "Name": "BIZTransactionSubClassCreatedOn",
            "Type": "string",
            "Required": false,
            "ValidRegEx": "",
            "PostData": true,
            "DefaultValue": "/Date(1709915640000)/",
            "width": 100
        },
        {
            "Name": "BIZTransactionSubClassModifiedOn",
            "Type": "string",
            "Required": false,
            "ValidRegEx": "",
            "PostData": true,
            "DefaultValue": "/Date(1709915640000)/",
            "width": 100
        },
        {
            "Name": "BIZTransactionSubClassModifiedByName",
            "Type": "string",
            "Required": false,
            "ValidRegEx": "",
            "PostData": true,
            "DefaultValue": "ADMIN",
            "width": 100
        },
        {
            "Name": "BIZTransactionSubClassCreatedByName",
            "Type": "string",
            "Required": false,
            "ValidRegEx": "",
            "PostData": true,
            "DefaultValue": "ADMIN",
            "width": 100
        },
        {
            "Name": "BIZTransactionSubClassStatus",
            "Type": "number",
            "Required": false,
            "PostData": true,
            "ValidRegEx": "",
            "DefaultValue": 1,
            "width": 100
        },
        {
            "Name": "BIZTransactionSubClassVersion",
            "Type": "number",
            "Required": false,
            "PostData": true,
            "ValidRegEx": "",
            "DefaultValue": 1,
            "width": 100
        }
    ]
}