{
    "ObjectFields": [
        {
            "ItemBrandCode": {
                "PicklistUrl": "Brand",
                "PicklistDisplayText": "Code,Name",
                "PicklistSearchFields": "Code,Name",
                "Multiple": false,
                "PicklistSelection": "Id",
                "PicklistTitle": "Code",
                "Label": "Code*",
                "Width": 160,
                "AddNew": true,
                "PlaceHolder":"Enter Code",
                "MaxLength": 10,
                "ColumnWidth": "200,300",
                "ColumnType": "string,string",
                "isKeyField": true
            },
            "ItemBrandName": {
                "PicklistUrl": "Brand",
                "PicklistDisplayText": "Code,Name",
                "PicklistSearchFields": "Code,Name",
                "Multiple": false,
                "PicklistSelection": "Id",
                "PlaceHolder":"Enter Name",
                "PicklistTitle": "Name",
                "Label": "Name*",
                "Width": 360,
                "AddNew": true,
                "MaxLength": 35,
                "ColumnWidth": "200,300",
                "ColumnType": "string,string",
                "isKeyField": true
            }
        },
        {
            "Name": "ItemBrandId",
            "Type": "number",
            "Required": true,
            "PostData": true,
            "ValidRegEx": "",
            "DefaultValue": 0,
            "Width": 100
        },
        {
            "Name": "ItemBrandCode",
            "Type": "string",
            "Label": "Code*",
            "PostData": true,
            "Required":true,
            "ValidRegEx": "",
            "DefaultValue": "",
            "Width": 200
        },
        {
            "Name": "ItemBrandName",
            "Type": "string",
            "Label": "Name*",
            "Required":true,
            "PostData": true,
            "ValidRegEx": "",
            "DefaultValue": "",
            "Width": 200
        },
        {
            "Name": "ItemBrandIsSelected",
            "Type": "number",
            "Required": false,
            "ValidRegEx": "",
            "LabelWidth":73,
            "DefaultValue": 1,
            "width": 100,
            "Label": "Selected Brand",
            "Placeholder": ""
        },
        {
            "Name": "ItemBrandRemarks",
            "Type": "string",
            "Required": false,
            "ValidRegEx": "",
            "DefaultValue": "",
            "LabelWidth":73,
            "MaxLength": 500,
            "Width": 360,
            "Label": "Remarks",
            "Placeholder": "Enter the Remarks"
        },
        {
            "Name": "ItemBrandIsAsset",
            "Type": "number",
            "Required": false,
            "ValidRegEx": "",
            "LabelWidth":73,
            "DefaultValue": 1,
            "width": 100,
            "Label": "Is Asset",
            "Placeholder": ""
        },
        {
            "Name": "ItemBrandIsItem",
            "Type": "number",
            "Required": false,
            "ValidRegEx": "",
            "DefaultValue": 1,
            "LabelWidth":73,
            "width": 100,
            "Label": "Is Item",
            "Placeholder": ""
        },
        {
            "Name": "ItemBrandCreatedOn",
            "Type": "string",
            "Required": false,
            "ValidRegEx": "",
            "DefaultValue": "/Date(1704475560000)/",
            "width": 100
        },
        {
            "Name": "ItemBrandCreatedByName",
            "Type": "string",
            "Required": false,
            "ValidRegEx": "",
            "DefaultValue": "ADMIN",
            "width": 100
        },
        {
            "Name": "ItemBrandModifiedOn",
            "Type": "string",
            "Required": false,
            "ValidRegEx": "",
            "DefaultValue": "/Date(1704475560000)/",
            "width": 100
        },
        {
            "Name": "ItemBrandModifiedByName",
            "Type": "string",
            "Required": false,
            "ValidRegEx": "",
            "DefaultValue": "ADMIN",
            "width": 100
        },
        {
            "Name": "ItemBrandSortOrder",
            "Type": "number",
            "Required": false,
            "ValidRegEx": "",
            "DefaultValue": 9999
        },
        {
            "Name": "ItemBrandSourceType",
            "Type": "number",
            "Required": false,
            "ValidRegEx": "",
            "DefaultValue": 1
        },
        {
            "Name": "ItemBrandStatus",
            "Type": "number",
            "Required": false,
            "ValidRegEx": "",
            "DefaultValue": 1
        },
        {
            "Name": "ItemBrandVersion",
            "Type": "number",
            "Required": false,
            "ValidRegEx": "",
            "DefaultValue": 1
        }
    ]
}