{
    "CostingCharges": [
        {
            "Label": "OH %",
            "value": "COSTINGDETAILID",
            "width": 70,
            "Type": "CalculatedInput",
            "Required":true,
            "IsVisible": false,
            "DefaultValue":"",
            "SNo": 1
        },
        {
            "Label": "OH Value",
            "value": "COSTINGMATERIALId",
            "width": 100,
            "Type": "CalculatedValue",
            "Required":true,
            "IsVisible": false,
            "DefaultValue":"",
            "SNo": 2
        },
        {
            "Label": "Margin %",
            "value": "ChargesSLNO",
            "width": 100,
            "Type": "DirectValue",
            "Required":true,
            "IsVisible": false,
            "DefaultValue":"",
            "SNo": 3
        },
        {
            "Label": "Margin Value",
            "value": "ChargesSLNO",
            "width": 120,
            "Type": "DirectValue",
            "Required":true,
            "IsVisible": false,
            "DefaultValue":"",
            "SNo": 4
        },
        {
            "Label": "Freight %",
            "value": "Title",
            "width": 100,
            "Type": "CalculatedInput",
            "Required":true,
            "IsVisible": false,
            "DefaultValue":"",
            "SNo": 5
        },
        {
            "Label": "Freight Value",
            "value": "CalcValue",
            "width": 120,
            "Type": "CalculatedValue",
            "Required":true,
            "IsVisible": false,
            "DefaultValue":"",
            "SNo": 6
        },
        {
            "Label": "P&F %",
            "value": "COSTINGDETAILID",
            "width": 70,
            "Type": "CalculatedInput",
            "Required":true,
            "IsVisible": false,
            "DefaultValue":"",
            "SNo": 7
        },
        {
            "Label": "P&F Value",
            "value": "COSTINGMATERIALId",
            "width": 100,
            "Type": "CalculatedValue",
            "Required":true,
            "IsVisible": false,
            "DefaultValue":"",
            "SNo": 8
        },
        {
            "Label": "Expense On Site %",
            "value": "ChargesSLNO",
            "width": 180,
            "Type": "DirectValue",
            "Required":true,
            "IsVisible": false,
            "DefaultValue":"",
            "SNo": 9
        },
        {
            "Label": "Expense On Site Value",
            "value": "ChargesSLNO",
            "width": 180,
            "Type": "DirectValue",
            "Required":true,
            "IsVisible": false,
            "DefaultValue":"",
            "SNo": 10
        },
        {
            "Label": "Miscellanous %",
            "value": "Title",
            "width": 120,
            "Type": "CalculatedInput",
            "Required":true,
            "IsVisible": false,
            "DefaultValue":"",
            "SNo": 11
        },
        {
            "Label": "Miscellanous Value",
            "value": "CalcValue",
            "width": 150,
            "Type": "CalculatedValue",
            "Required":true,
            "IsVisible": false,
            "DefaultValue":"",
            "SNo": 12
        },
        {
            "Label": "Discount %",
            "value": "Title",
            "width": 100,
            "Type": "CalculatedInput",
            "Required":true,
            "IsVisible": false,
            "DefaultValue":"",
            "SNo": 13
        },
        {
            "Label": "Discount Value",
            "value": "CalcValue",
            "width": 130,
            "Type": "CalculatedValue",
            "Required":true,
            "IsVisible": false,
            "DefaultValue":"",
            "SNo": 14
        }
    ]
}