{
    "ObjectFields": [
        {
            "EmployeeCode": {
                "PicklistUrl": "TimSlipEmployee",
                "PicklistDisplayText": "Code,Name",
                "PicklistSearchFields": "Code,Name",
                "Multiple": false,
                "PicklistSelection": "Id",
                "PicklistTitle": "Code",
                "Label": "Code*",
                "Width": 160,
                "AddNew": true,
                "SLno": 1,
                "MaxLength": 10,
                "PlaceHolder": "Enter Code",
                "ColumnWidth": "200",
                "ColumnType": "string,string",
                "PicklistCriteria": "ProcurmentInchargeName",
                "isKeyField": true
            },
            "EmployeeName": {
                "PicklistUrl": "TimSlipEmployee",
                "PicklistDisplayText": "Code,Name",
                "PicklistSearchFields": "Code,Name",
                "Multiple": false,
                "PicklistSelection": "Id",
                "PicklistTitle": "Name",
                "Label": "Name*",
                "Width": 360,
                "AddNew": true,
                "PlaceHolder": "Enter Name",
                "MaxLength": 10,
                "ColumnWidth": "200",
                "PicklistCriteria": "ProcurmentInchargeName",
                "ColumnType": "string,string",
                "isKeyField": true
            }
        },
        {
            "Name": "EmployeeId",
            "Type": "number",
            "Required": false,
            "ValidRegEx": "",
            "PostData": true,
            "DefaultValue": -1,
            "Width": 100
        },
        {
            "Name": "EmployeeCode",
            "Type": "string",
            "Label": "Code*",
            "Required": true,
            "ValidRegEx": "",
            "DefaultValue": "",
            "PostData": true
        },
        {
            "Name": "EmployeeName",
            "Type": "string",
            "Label": "Name*",
            "Required": true,
            "ValidRegEx": "",
            "PostData": true
        },
        {
            "Name": "EmployeeSkillId",
            "Type": "number",
            "Required": true,
            "ValidRegEx": "",
            "PostData": true,
            "DefaultValue": 0,
            "Width": 100
        },
        {
            "Name": "EmployeeSkillArray",
            "Type": "string",
            "Label": "",
            "Tooltip": "",
            "SLNOField": "EmployeeSkillSlno",
            "Placeholder": "",
            "IsFieldRequired": false,
            "PostData": true,
            "Required": true,
            "Grid": [
                {
                    "Label": "#",
                    "value": "EmployeeSkillSlno",
                    "width": 50,
                    "Type": "SNo",
                    "IsVisible": true,
                    "PostData": true,
                    "SNo": 1,
                    "sticky": true,
                    "left": 0
                },
                {
                    "Label": "SkillId",
                    "value": "SkillId",
                    "Type": "number",
                    "Required": false,
                    "PostData": true,
                    "ValidRegEx": "",
                    "IsVisible": false,
                    "DefaultValue": -1,
                    "Width": 100
                },
                {
                    "Label": "Skill",
                    "value": "SkillName",
                    "width": 220,
                    "Type": "Picklist",
                    "sticky": false,
                    "left": 50,
                    "PicklistDetail": {
                        "PicklistUrl": "SkillMaster",
                        "PicklistDisplayText": "Code,Name",
                        "PicklistSearchFields": "Code,Name",
                        "Multiple": false,
                        "AddNew": false,
                        "PlaceHolder": "Select Skill",
                        "LinkId": "SkillId,SkillName",
                        "PicklistSelection": "Id",
                        "PicklistTitle": "Name",
                        "Label": "",
                        "Width": 200,
                        "PostData": true,
                        "MaxLength": 20,
                        "ColumnWidth": "150,250",
                        "ColumnType": "string,string"
                    },
                    "IsVisible": true,
                    "SNo": 2
                },
                {
                    "Label": "Level",
                    "value": "EmployeeSkillSkillLevel",
                    "Type": "number",
                    "Required": false,
                    "ValidRegEx": "",
                    "IsVisible": true,
                    "PostData": true,
                    "SNo": 3,
                    "MaxLength": 1,
                    "DefaultValue": "",
                    "Placeholder": "Skill Level",
                    "width": 130
                },
                {
                    "Label": "Particulars",
                    "value": "EmployeeSkillParticulars",
                    "Type": "string",
                    "Required": false,
                    "PostData": true,
                    "ValidRegEx": "",
                    "IsVisible": true,
                    "SNo": 4,
                    "MaxLength": 100,
                    "DefaultValue": "",
                    "Placeholder": "Enter Particulars",
                    "width": 390
                }
            ]
        }
    ]
}