{
    "ObjectFields": [
        {
            "EntityCode": {
                "PicklistUrl": "Entity",
                "PicklistDisplayText": "Code,Name",
                "PicklistSearchFields": "Code,Name",
                "Multiple": false,
                "PicklistSelection": "Id",
                "PicklistTitle": "Code",
                "Label": "Code*",
                "SLno":1,
                "PlaceHolder": "Enter Code",
                "Width": 160,
                "AddNew": true,
                "MaxLength": 35,
                "ColumnWidth": "200,300",
                "ColumnType": "string,string",
                "isKeyField": true
            },
            "EntityName": {
                "PicklistUrl": "Entity",
                "PicklistDisplayText": "Code,Name",
                "PicklistSearchFields": "Code,Name",
                "Multiple": false,
                "PicklistSelection": "Id",
                "PicklistTitle": "Name",
                "Label": "Name*",
                "PlaceHolder": "Enter Name",
                "Width": 360,
                "AddNew": true,
                "MaxLength": 70,
                "ColumnWidth": "200,300",
                "ColumnType": "string,string",
                "isKeyField": true
            },
            "ProgramAssemblyName": {
                "PicklistUrl": "ProgramAssembly",
                "PicklistDisplayText": "Name",
                "PicklistSearchFields": "Name",
                "Multiple": false,
                "PicklistSelection": "Id",
                "PicklistTitle": "Name",
                "Label": "Assembly*",
                "LabelWidth":124,
                "PlaceHolder": "Select Assembly",
                "Width": 360,
                "AddNew": false,
                "MaxLength": 35,
                "ColumnWidth": "200",
                "ColumnType": "string,string",
                "LinkId": "ProgramAssemblyId"
            },
            "ProjectName": {
                "PicklistUrl": "Project",
                "PicklistDisplayText": "Code,Name",
                "PicklistSearchFields": "Code,Name",
                "Multiple": false,
                "PicklistSelection": "Id",
                "PicklistTitle": "Name",
                "Label": "Project*",
                "LabelWidth":124,
                "PlaceHolder": "Select Project",
                "Width": 360,
                "AddNew": false,
                "MaxLength": 35,
                "ColumnWidth": "200",
                "ColumnType": "string,string",
                "LinkId": "ProjectId"
            },
            "ModuleName": {
                "PicklistUrl": "Module",
                "PicklistDisplayText": "Name",
                "PicklistSearchFields": "Name",
                "Multiple": false,
                "PicklistSelection": "Id",
                "PicklistTitle": "Name",
                "Label": "Module*",
                "LabelWidth":124,
                "PlaceHolder": "Select Module",
                "Width": 360,
                "AddNew": false,
                "MaxLength": 35,
                "ColumnWidth": "200",
                "ColumnType": "string,string",
                "LinkId": "ModuleId"
            },
            "DbObjectName": {
                "PicklistUrl": "DBObject",
                "PicklistDisplayText": "Name",
                "PicklistSearchFields": "Name",
                "Multiple": false,
                "PicklistSelection": "Id",
                "PicklistTitle": "Name",
                "Label": "DB Object*",
                "PlaceHolder": "Select DB Object",
                "Width": 360,
                "LabelWidth":124,
                "AddNew": false,
                "MaxLength": 35,
                "ColumnWidth": "200",
                "ColumnType": "string,string",
                "LinkId": "DbObjectId"
            },
            "AddOnDbObjectName": {
                "PicklistUrl": "DBObject",
                "PicklistDisplayText": "Name",
                "PicklistSearchFields": "Name",
                "Multiple": false,
                "PicklistSelection": "Id",
                "PicklistTitle": "Name",
                "Label": "ADDOnDBObject*",
                "PlaceHolder": "Select DB Object",
                "Width": 360,
                "AddNew": false,
                "MaxLength": 35,
                "ColumnWidth": "200",
                "ColumnType": "string,string",
                "LinkId": "AddOnDbObjectId"
            },
            "EntityMemberName": {
                "PicklistUrl": "EntityMember",
                "PicklistDisplayText": "MemberName",
                "PicklistSearchFields": "MemberName",
                "Multiple": false,
                "PicklistSelection": "Id",
                "PicklistTitle": "MemberName",
                "Label": "Used for MultiCategory*",
                "PlaceHolder": "Select Entity Member",
                "Width": 360,
                "AddNew": false,
                "MaxLength": 35,
                "ColumnWidth": "200",
                "ColumnType": "string,string",
                "LinkId": "EntityMemberId"
            },
            "EntityPocoPicklistName": {
                "PicklistUrl": "Enum",
                "PicklistDisplayText": "Name",
                "PicklistSearchFields": "Name",
                "Multiple": false,
                "PicklistSelection": "Id",
                "PicklistTitle": "Name",
                "Label": "PocoToPicklistDTO*",
                "PlaceHolder": "Select Picklist DTO",
                "Width": 360,
                "AddNew": false,
                "MaxLength": 35,
                "ColumnWidth": "200",
                "ColumnType": "string,string",
                "LinkId": "EntityPocoToPicklistLinkId"
            },
            "EntityPocoToDTOLinkName": {
                "PicklistUrl": "Enum",
                "PicklistDisplayText": "Name",
                "PicklistSearchFields": "Name",
                "Multiple": false,
                "PicklistSelection": "Id",
                "PicklistTitle": "Name",
                "Label": "PocoToDTO Link*",
                "PlaceHolder": "Select DTO Name",
                "Width": 360,
                "AddNew": false,
                "MaxLength": 35,
                "ColumnWidth": "200",
                "ColumnType": "string,string",
                "LinkId": "EntityPocoToDTOLinkId"
            }
        },
        {
            "Name": "EntityCode",
            "Type": "string",
            "Label": "Code*",
            "Required": true,
            "ValidRegEx": "",
            "PostData": true
        },
        {
            "Name": "EntityName",
            "Type": "string",
            "Label": "Name*",
            "Required": true,
            "ValidRegEx": "",
            "PostData": true
        },
        {
            "Name": "ProjectName",
            "Type": "string",
            "Label": "Project*",
            "Required": true,
            "ValidRegEx": "",
            "PostData": true
        },
        {
            "Name": "ProgramAssemblyName",
            "Type": "string",
            "Label": "Assembly*",
            "Required": true,
            "ValidRegEx": "",
            "PostData": true
        },
        {
            "Name": "ModuleName",
            "Type": "string",
            "Label": "Module*",
            "Required": true,
            "ValidRegEx": "",
            "PostData": true
        },
        {
            "Name": "DbObjectName",
            "Type": "string",
            "Label": "Db Object*",
            "Required": true,
            "ValidRegEx": "",
            "PostData": true
        },
        {
            "Name": "AddOnDbObjectName",
            "Type": "string",
            "Label": "ADDOnDBObject*",
            "Required": true,
            "ValidRegEx": "",
            "PostData": false
        },
        {
            "Name": "EntityMemberName",
            "Type": "string",
            "Label": "Used for MultiCategory*",
            "Required": false,
            "ValidRegEx": "",
            "PostData": false
        },
        {
            "Name": "EntityPocoPicklistName",
            "Type": "string",
            "Label": "PocoToPicklistDTO*",
            "Required": false,
            "ValidRegEx": "",
            "PostData": false
        },
        {
            "Name": "EntityPocoToDTOLinkName",
            "Type": "string",
            "Label": "PocoToDTO Link*",
            "Required": false,
            "ValidRegEx": "",
            "PostData": false
        },
        {
            "Name": "EntityId",
            "Type": "number",
            "Required": true,
            "ValidRegEx": "",
            "PostData": true,
            "DefaultValue": 0
        },
        {
            "Name": "EntitySecurityLevel",
            "Type": "number",
            "Required": false,
            "ValidRegEx": "",
            "PostData": true,
            "DefaultValue": 0
        },
        {
            "Name": "EntityIsReferal",
            "Type": "number",
            "Required": false,
            "ValidRegEx": "",
            "PostData": true,
            "DefaultValue": 1
        },
        {
            "Name": "EntityScope",
            "Type": "number",
            "Required": false,
            "ValidRegEx": "",
            "PostData": true,
            "DefaultValue": 0
        },
        {
            "Name": "EntityImplementationType",
            "Type": "number",
            "Required": false,
            "ValidRegEx": "",
            "PostData": true,
            "DefaultValue": 0
        },
        {
            "Name": "EntityISPersist",
            "Type": "number",
            "Required": true,
            "ValidRegEx": "",
            "PostData": true,
            "DefaultValue": 0
        },
        {
            "Name": "BaseClassId",
            "Type": "number",
            "Required": false,
            "ValidRegEx": "",
            "PostData": true,
            "DefaultValue": 0
        },
        {
            "Name": "BaseClassValue",
            "Type": "number",
            "Required": false,
            "ValidRegEx": "",
            "PostData": true,
            "DefaultValue": 0,
            "width": "400px",
            "Label": "Base Class",
            "PickLists": [
               
                {
                    "key": 0,
                    "value": "StandardFrame"
                },
                {
                    "key": 1,
                    "value": "GB4Master"
                },
                {
                    "key":2,
                    "value": "GB4Transaction"
                },
                {
                    "key": 3,
                    "value": "NONE"
                }
            ]
        },
        {
            "Name": "EntityNature",
            "Type": "number",
            "Required": false,
            "ValidRegEx": "",
            "PostData": true,
            "DefaultValue": 0,
            "LabelWidth":124,
            "width": "400px",
            "Label": "Nature",
            "PickLists": [
              
                {
                    "key": 0,
                    "value": "FRAMEWORK"
                },
                {
                    "key": 1,
                    "value": "DEVADMIN"
                },
                {
                    "key": 2,
                    "value": "IMPADMIN"
                },
                {
                    "key": 3,
                    "value": "ADMIN"
                },
                {
                    "key": 4,
                    "value": "USER"
                }
            ]
        },
        {
            "Name": "EntityType",
            "Type": "number",
            "Required": false,
            "ValidRegEx": "",
            "PostData": true,
            "DefaultValue": 0,
            "width": "400px",
            "LabelWidth":124,
            "Label": "Entity Type",
            "PickLists": [
              
                {
                    "key": 0,
                    "value": "MASTER"
                },
                {
                    "key": 1,
                    "value": "TRANSACTION"
                },
                {
                    "key": 2,
                    "value": "UTILITIES"
                },
                {
                    "key": 3,
                    "value": "REPORTS"
                },
                {
                    "key": 4,
                    "value": "OTHERS"
                }
            ]
        },
        {
            "Name": "EntityEntityCategory",
            "Type": "number",
            "Required": false,
            "ValidRegEx": "",
            "PostData": true,
            "DefaultValue": 0,
            "LabelWidth":124,
            "width": "400px",
            "Label": "Entity Category*",
            "PickLists": [
             
                {
                    "key": 0,
                    "value": "POCO"
                },
                {
                    "key": 1,
                    "value": "DTO"
                },
                {
                    "key":2,
                    "value": "PICKLISTDTO"
                }
            ]
        },
        {
            "Name": "EntityIsIceMapRequired",
            "Type": "number",
            "Required": true,
            "ValidRegEx": "",
            "PostData": true,
            "DefaultValue": 0,
            "LabelWidth":90,
            "width": "400px",
            "Label": "Is ICE MAP",
            "PickLists": [
                {
                    "key": 0,
                    "value": "Yes"
                },
                {
                    "key": 1,
                    "value": "No"
                }
            ]
        },
        {
            "Name": "EntitySection",
            "Type": "string",
            "Required": true,
            "ValidRegEx": "",
            "PostData": true,
            "DefaultValue": "",
            "width": "400px",
            "MaxLength": 35,
            "LabelWidth":251,
            "Label": "Section*",
            "Placeholder": "Entity Section"
        },
        {
            "Name": "EntityDefinedIN",
            "Type": "string",
            "Required": true,
            "ValidRegEx": "",
            "PostData": true,
            "DefaultValue": "",
            "width": "400px",
            "MaxLength": 200,
     "LabelWidth":124,
            "Label": "Entity DefineIn* ",
            "Placeholder": "Object Name Space Path"
        },
        {
            "Name": "EntityIsMultiTenant",
            "Type": "number",
            "Required": false,
            "ValidRegEx": "",
            "PostData": true,
            "DefaultValue": 1,
            "Width": 200,
            "LabelWidth":90,
            "Label": "IS Multitenant"
        },
        {
            "Name": "EntityIsCodeApplicable",
            "Type": "number",
            "Required": false,
            "ValidRegEx": "",
            "PostData": true,
            "DefaultValue": 1,
            "width": 200,
            "Label": "Code Applicable? "
        },
        {
            "Name": "EntityMaxCodeSize",
            "Type": "number",
            "Required": true,
            "ValidRegEx": "",
            "PostData": true,
            "DefaultValue": "",
            "Width": 200,
            "MaxLength": 2,
            "Label": "Max Code Size*  ",
            "Placeholder": "Max Length Of Code Size "
        },
        {
            "Name": "EntityDefaultSize",
            "Type": "number",
            "Required": true,
            "ValidRegEx": "",
            "PostData": true,
            "DefaultValue": "",
            "Width": 200,
            "LabelWidth":130,
            "MaxLength": 2,
            "Label": "Default Code Size ",
            "Placeholder": "Default Length Of Code Size*  "
        },
        {
            "Name": "EntityIsMultiCategory",
            "Type": "number",
            "Required": false,
            "ValidRegEx": "",
            "PostData": true,
            "DefaultValue": 1,
            "width": 200,
            "Label": "MultiCategory Applicable?"
        },
        {
            "Name": "EntityIsAuto",
            "Type": "number",
            "Required": false,
            "ValidRegEx": "",
            "PostData": true,
            "DefaultValue": 1,
            "width": 200,
            "Label": "Auto Code Generation? "
        },
        {
            "Name": "EntityIsManual",
            "Type": "number",
            "Required": false,
            "ValidRegEx": "",
            "PostData": true,
            "DefaultValue": 1,
            "width": 200,
            "Label": "Manual Code Entry? "
        },
        {
            "Name": "EntityIsFormula",
            "Type": "number",
            "Required": false,
            "ValidRegEx": "",
            "PostData": true,
            "DefaultValue": 1,
            "width": 200,
            "Label": "Formula Based Code? "
        },
        {
            "Name": "EntityOrganizationUnitType",
            "Type": "number",
            "Required": false,
            "ValidRegEx": "",
            "PostData": true,
            "DefaultValue": "",
            "width": "400px",
            "Label": "OU Type* ",
            "PickLists": [
                {
                    "key": "",
                    "value": "--Please Select--"
                },
                {
                    "key": 1,
                    "value": "NONE"
                },
                {
                    "key": 2,
                    "value": "GENERAL"
                },
                {
                    "key": 3,
                    "value": "COMPANY WISE"
                },
                {
                    "key": 3,
                    "value": "COMPANY BRANCH WISE"
                }
            ]
        },
        {
            "Name": "EntityIsAddress",
            "Type": "number",
            "Required": false,
            "ValidRegEx": "",
            "PostData": true,
            "DefaultValue": 1,
            "width": 200,
            "Label": "Address Applicable?"
        },
        {
            "Name": "EntityIsContact",
            "Type": "number",
            "Required": false,
            "ValidRegEx": "",
            "PostData": true,
            "DefaultValue": 1,
            "width": 200,
            "Label": "Contact Applicable?"
        },
        {
            "Name": "EntityIsSearch",
            "Type": "number",
            "Required": false,
            "ValidRegEx": "",
            "PostData": true,
            "DefaultValue": 1,
            "width": 200,
            "Label": "Search Applicable?"
        },
        {
            "Name": "EntityRemarks",
            "Type": "string",
            "Required": false,
            "ValidRegEx": "",
            "PostData": true,
            "DefaultValue": "",
            "Width": 200,
            "MaxLength": 200,
            "Label": "Remarks ",
            "Placeholder": "Enter The Remarks For Entity "
        },
        {
            "Name": "EntityStatus",
            "Type": "number",
            "Required": false,
            "ValidRegEx": "",
            "PostData": true,
            "DefaultValue": "",
            "width": "400px",
            "Label": "Status",
            "PickLists": [
                {
                    "key": "",
                    "value": "--Please Select--"
                },
                {
                    "key": 0,
                    "value": "Pending"
                },
                {
                    "key": 1,
                    "value": "Active"
                },
                {
                    "key": 2,
                    "value": "Deleted"
                },
                {
                    "key": 3,
                    "value": "Amended"
                },
                {
                    "key": 4,
                    "value": "Inactive"
                },
                {
                    "key": 5,
                    "value": "Archived"
                }
            ]
        },
        {
            "Name": "EntityCreatedOn",
            "Type": "string",
            "Required": false,
            "ValidRegEx": "",
            "PostData": true,
            "DefaultValue": "/Date(1712053020000)/",
            "width": "400px"
        },
        {
            "Name": "EntityModifiedOn",
            "Type": "string",
            "Required": false,
            "ValidRegEx": "",
            "PostData": true,
            "DefaultValue": "/Date(1712049600000)/",
            "width": "400px"
        },
        {
            "Name": "EntityModifiedByName",
            "Type": "string",
            "Required": false,
            "ValidRegEx": "",
            "PostData": true,
            "DefaultValue": "DEMO",
            "width": "400px"
        },
        {
            "Name": "EntitySourceType",
            "Type": "number",
            "Required": false,
            "ValidRegEx": "",
            "PostData": true,
            "DefaultValue": 5,
            "width": "400px"
        },
        {
            "Name": "EntityDeleteDeploymentId",
            "Type": "string",
            "Required": false,
            "ValidRegEx": "",
            "PostData": true,
            "DefaultValue": "NONE",
            "width": "400px"
        },
        {
            "Name": "EntitySaveDeploymentId",
            "Type": "string",
            "Required": false,
            "ValidRegEx": "",
            "PostData": true,
            "DefaultValue": "NONE",
            "width": "400px"
        },
        {
            "Name": "AddOnDbObjectId",
            "Type": "string",
            "Required": false,
            "ValidRegEx": "",
            "PostData": true,
            "DefaultValue": "-1 ",
            "width": "400px"
        },
        {
            "Name": "EntityCategoryMemberId",
            "Type": "string",
            "Required": false,
            "ValidRegEx": "",
            "PostData": true,
            "DefaultValue": "-1 ",
            "width": "400px"
        },
        {
            "Name": "DbObjectId",
            "Type": "string",
            "Required": false,
            "ValidRegEx": "",
            "PostData": true,
            "DefaultValue": "-1 ",
            "width": "400px"
        },
        {
            "Name": "ModuleId",
            "Type": "string",
            "Required": false,
            "ValidRegEx": "",
            "PostData": true,
            "DefaultValue": "-1 ",
            "width": "400px"
        },
        {
            "Name": "ProjectId",
            "Type": "string",
            "Required": false,
            "ValidRegEx": "",
            "PostData": true,
            "DefaultValue": "-1 ",
            "width": "400px"
        },
        {
            "Name": "ProgramAssemblyId",
            "Type": "string",
            "Required": false,
            "ValidRegEx": "",
            "PostData": true,
            "DefaultValue": "-1 ",
            "width": "400px"
        },
        {
            "Name": "EntityMembersArray",
            "Type": "string",
            "Required": false,
            "ValidRegEx": "",
            "PostData": true,
            "DefaultValue": [],
            "width": "400px"
        },
        {
            "Name": "EntityRelationsArray",
            "Type": "string",
            "Required": false,
            "ValidRegEx": "",
            "PostData": true,
            "DefaultValue": [],
            "width": "400px"
        },
        {
            "Name": "EntityVersion",
            "Type": "number",
            "Required": false,
            "ValidRegEx": "",
            "PostData": true,
            "DefaultValue": 1,
            "width": "400px"
        },
        {
            "Name": "EntityPocoToDTOLinkId",
            "Type": "string",
            "Required": false,
            "ValidRegEx": "",
            "PostData": true,
            "DefaultValue": "-1 ",
            "width": "400px"
        },
        {
            "Name": "EntityPocoToPicklistLinkId",
            "Type": "string",
            "Required": false,
            "ValidRegEx": "",
            "PostData": true,
            "DefaultValue": "-1 ",
            "width": "400px"
        }
    ]
}