{
    "ObjectFields": [

{
    "EmployeeCode": {
        "PicklistUrl": "GenerateEmptyDeclaration",
        "PicklistDisplayText": "Code,Name",
        "PicklistSearchFields": "Code,Name",
        "Multiple": false,
        "PicklistSelection": "Id",
        "PicklistTitle": "Code",
        "Label": "Employee Code*",
        "Width": 160,
        "LabelWidth": 92,
        "AddNew": false,
        "PlaceHolder": "Select Code",
        "MaxLength": 35,
        "ColumnWidth": "200,300",
        "LinkId": "EmployeeId",
        "ColumnType": "string,string"
      },
      "PeriodName": {
        "PicklistUrl": "Period",
        "PicklistDisplayText": "Code,Name",
        "PicklistSearchFields": "Code,Name",
        "Multiple": false,
        "PicklistSelection": "Id",
        "PicklistTitle": "Name",
        "Label": "Period*",
        "Width": 360,
        "AddNew": false,
        "MaxLength": 50,
        "PlaceHolder": "Select Period",
        "ColumnWidth": "200,300",
        "ColumnType": "string,string",
       "LabelWidth":120,
        "LinkId":"PeriodId"
      }
},
{
    "Name": "GenerateId",
    "Type": "number",
    "Required": true,
    "ValidRegEx": "",
    "PostData": true,
    "DefaultValue": 0,
    "width": "400px"
  },
  {
    "Name": "EmployeeCode",
    "Type": "string",
    "Required": true,
    "ValidRegEx": "",
    "PostData": true,
    "DefaultValue": "",
    "width": "400px",
    "Label": "Employee Code*"
  },
  {
    "Name": "PeriodName",
    "Type": "string",
    "Required": false,
    "ValidRegEx": "",
    "PostData": true,
    "LabelWidth": 92,
    "DefaultValue": "",
    "Label": "Period*"
  },
  {
    "Name": "SingleEmployee",
    "Type": "number",
    "Required": false,
    "ValidRegEx": "",
    "PostData": true,
    "LabelWidth": 92,
    "DefaultValue": 0,
    "Label": "",
    "PickLists": [
      {
        "key": 0,
        "value": "Single Employee"
      },
      {
        "key": 1,
        "value": "MultipleEmployee"
      }
    ]
  },

  
  {
    "Name": "PeriodId",
    "Type": "number",
    "Required": false,
    "ValidRegEx": "",
    "PostData": true,
    "DefaultValue": -1,
    "width": "400px"
  },
  {
    "Name": "EmployeeId",
    "Type": "number",
    "Required": false,
    "ValidRegEx": "",
    "PostData": true,
    "DefaultValue": -1,
    "width": "400px"
  }

    ]
}