{
    "ObjectFields": [
        {
            "HierarchyName": {
                "PicklistUrl": "Hierarchy",
                "PicklistDisplayText": "Name",
                "PicklistSearchFields": "Name",
                "Multiple": false,
                "SLno":1,
                "PlaceHolder": "Enter Name",
                "PicklistSelection": "Id",
                "PicklistTitle": "Name",
                "Label": "Name",
                "Width": 360,
                "AddNew": true,
                "MaxLength": 35,
                "ColumnWidth": "200,300",
                "ColumnType": "string,string", 
                "isKeyField": true
            },
            "HierarchyDimensionName": {
                "PicklistUrl": "Dimension",
                "PicklistDisplayText": "Code,Name",
                "PicklistSearchFields": "Code,Name",
                "Multiple": false,
                "PlaceHolder": "Select Dimension",
                "PicklistSelection": "Id",
                "PicklistTitle": "Name",
                "Label": "Dimension",
                "Width": 360,
                "LabelWidth":82,
                "LinkId":"HierarchyDimensionId",
                "AddNew": false,
                "ColumnWidth": "200,300",
                "ColumnType": "string,string"
            },
            "DBObjectName": {
                "PicklistUrl": "DBJoinFromTo",
                "PicklistDisplayText": "Name",
                "PicklistSearchFields": "Name",
                "Multiple": false,
                "PlaceHolder": "Select  DB Object",
                "PicklistSelection": "Id",
                "PicklistTitle": "Name",
                "Label": " DB Object",
                "LabelWidth":82,
                "Width": 360,
                "LinkId":"DBObjectId",
                "AddNew": false,
                "ColumnWidth": "200,300",
                "ColumnType": "string,string"
            }
        },
        {
            "Name": "HierarchyId",
            "Type": "number",
            "Required": false,
            "PostData": true,
            "ValidRegEx": "",
            "DefaultValue": 0
        },
        {
            "Name": "HierarchyName",
            "Type": "string",
            "Required": true,
            "PostData": true,
            "Label":"Name",
            "ValidRegEx": "",
            "DefaultValue": ""
        },
        {
            "Name": "HierarchyDimensionId",
            "Type": "number",
            "Required": false,
            "PostData": true,
            "ValidRegEx": "",
            "DefaultValue": -1
        },
        {
            "Name": "HierarchyDimensionName",
            "Type": "string",
            "Required": true,
            "PostData": true,
            "Label":"Dimension",
            "ValidRegEx": "",
            "DefaultValue": ""
        },
        {
            "Name": "DBObjectId",
            "Type": "number",
            "Required": false,
            "PostData": true,
            "ValidRegEx": "",
            "DefaultValue": -1
        },
        {
            "Name": "DBObjectName",
            "Type": "string",
            "Required": true,
            "PostData": true,
            "Label":"DB Object",
            "ValidRegEx": "",
            "DefaultValue": ""
        },
        {
            "Name": "HierarchyType",
            "Type": "number",
            "Label": "Type",
            "Required": false,
            "Placeholder": "",
            "LabelWidth":82,
            "PostData": true,
            "ValidRegEx": "",
            "DefaultValue": 0,
            "Width": 360,
            "PickLists": [
              {
                "key": 0,
                "value": "DateTime"
              },
              {
                "key": 1,
                "value": "Non DateTime"
              }
            ]
        },
        {
            "Name": "HierarchyStatus",
            "Type": "number",
            "Required": false,
            "PostData": true,
            "ValidRegEx": "",
            "DefaultValue": 1
        },
        
            {
                "Name": "HierarchyDetailArray",
                "Type": "string",
                "Label": "HierarchyDetailArray",
                "SLNOField": "HierarchyDetailSlNo",
                "Required": true,
                "Grid": [
                    {
                        "Label": "#",
                        "value": "HierarchyDetailSlNo",
                        "width": 50,
                        "Type": "SNo",
                        "IsVisible": true,
                        "SNo": 1,
                        "sticky": false,
                        "left": 0
                    },
                    {
                        "Label": "DBObjectField",
                        "value": "DBObjectFieldsId",
                        "Type": "number",
                        "Required": false,
                        "ValidRegEx": "",
                        "IsVisible": false,
                        "DefaultValue": -1
                    },
                    
                    {
                        "Label": "DBObjectField",
                        "value": "DBObjectFieldsName",
                        "width": 230,
                        "Type": "Picklist",
                        "sticky": false,
                        "Required": true,
                        "left": 50,
                        "PicklistDetail": {
                            "PicklistUrl": "DbObjectField",
                            "PicklistDisplayText": "Name",
                            "PicklistSearchFields": "Name",
                            "Multiple": false,
                            "AddNew": false,
                            "LinkId": "DBObjectFieldsId,DBObjectFieldsName",
                            "PlaceHolder":"Select  DB Object Field",
                            "PicklistSelection": "Id",
                            "PicklistTitle": "Name",
                            "Required": false,
                            "Label": "",
                            "Width": 200,
                            "ColumnWidth": "150,250",
                            "ColumnType": "string,string",
                            "PicklistCriteria":"DbObjectField"
                          
                        },
                        "IsVisible": true,
                        "SNo": 2
                    },
                    {
                        "Label": "Order",
                        "value": "HierarchyDetailHierarchyOrder",
                        "Type": "number",
                        "Required": true,
                        "ValidRegEx": "",
                        "Placeholder":"Enter Order",
                        "IsVisible": true,
                        "PostData":true,
                        "DefaultValue": 0,
                        "MaxLength":5,
                        "Width": 130,
                        "SNo": 3
                    },
                    {
                        "Label": "Picklist",
                        "value": "PicklistId",
                        "Type": "number",
                        "Required": false,
                        "ValidRegEx": "",
                        "IsVisible": false,
                        "DefaultValue": -1
                    },
                    
                    {
                        "Label": "Picklist",
                        "value": "PicklistName",
                        "width": 230,
                        "Type": "Picklist",
                        "sticky": false,
                        "Required": true,
                        "left": 50,
                        "PicklistDetail": {
                            "PicklistUrl": "Picklist",
                            "PicklistDisplayText": "Code,Name",
                            "PicklistSearchFields": "Code,Name",
                            "Multiple": false,
                            "AddNew": false,
                            "LinkId": "PicklistId,PicklistName",
                            "PlaceHolder":"Select Picklist",
                            "PicklistSelection": "Id",
                            "PicklistTitle": "Name",
                            "Required": false,
                            "Label": "",
                            "Width": 200,
                            "MaxLength": 35,
                            "ColumnWidth": "150,250",
                            "ColumnType": "string,string"
                        },
                        "IsVisible": true,
                        "SNo": 4
                    },
                    {
                        "Label": "Display Field Name",
                        "value": "DisplayFieldNames",
                        "Type": "string",
                        "Required": true,
                        "ValidRegEx": "",
                        "Placeholder":"Enter Display Field Name",
                        "IsVisible": true,
                        "PostData":true,
                        "MaxLength": 400, 
                        "DefaultValue": "",
                        "width": 230,
                        "SNo": 5
                    }

                ]
        }
    ]

}