{
    "ObjectFields": [
        {
            "LovTypeName": {
                "PicklistUrl": "LovType",
                "PicklistDisplayText": "Code,Name",
                "PicklistSearchFields": "Code,Name",
                "Multiple": false,
                "PicklistSelection": "Id",
                "PicklistTitle": "Name",
                "Label": "Lov Type*",
                "Width": 360,
                "PlaceHolder":"Select Lov Type",
                "SLno":1,
                "AddNew": false,
                "LabelWidth":42,
                "ColumnWidth": "200,200",
                "ColumnType": "string,string",
                "LinkId": "LovTypeId"
            },
            "LovCode": {
                "PicklistUrl": "LOV",
                "PicklistDisplayText": "Code,Name",
                "PicklistSearchFields": "Code",
                "Multiple": false,
                "PicklistSelection": "Id",
                "PicklistTitle": "Code",
                "Label": "Code*",
                "Width": 160,
                "AddNew": true,
                "LabelWidth":52,
                "isKeyField":true,
                "PlaceHolder":"Enter Code",
                "MaxLength": 10,
                "ColumnWidth": "200,200",
                "ColumnType": "string,string",
                "PicklistCriteria":"LovCode"
            },
            "LovName": {
                "PicklistUrl": "LOV",
                "PicklistDisplayText": "Code,Name",
                "PicklistSearchFields": "Name",
                "Multiple": false,
                "PicklistSelection": "Id",
                "PicklistTitle": "Name",
                "Label": "Name*",
                "Width": 360,
                "AddNew": true,
                "LabelWidth":52,

                "PlaceHolder":"Enter Name",
                "MaxLength": 35,
                "isKeyField":true,
                "ColumnWidth": "200",
                "ColumnType": "string,string"
            }
        },
        {
            "Name": "LovId",
            "Type": "number",
            "Required": false,
            "ValidRegEx": "",
            "PostData": true,
            "DefaultValue": 0
        },
        {
            "Name": "LovTypeName",
            "Type": "string",
            "Required": true,
            "ValidRegEx": "",
            "PostData": true,
            "Label":"Lov Type*",
            "DefaultValue": ""
        },
        {
            "Name": "LovCode",
            "Type": "string",
            "Required": true,
            "ValidRegEx": "",
            "PostData": true,
            "Label":"Code*",
            "DefaultValue": ""
            
        },
        {
            "Name": "LovName",
            "Type": "string",
            "Required": true,
            "ValidRegEx": "",
            "PostData": true,
            "Label":"Name*",
            "DefaultValue": ""
        },
        {
            "Name": "LovScore",
            "Type": "number",
            "Label": "Score*",
            "Placeholder": "Enter Score",
            "Required": true,
            "PostData": true,
            "ValidRegEx": "",
            "LabelWidth":52,
            "DefaultValue": 0,
            "Width": 120,
            "MaxLength": 3
        },
        {
            "Name": "LovTypeId",
            "Type": "number",
            "DefaultValue": -1,
            "Required": false,
            "PostData": true,
            "ValidRegEx": ""
        },
        {
            "Name": "CodeDefineId",
            "Type": "number",
            "DefaultValue": -1,
            "Placeholder": "",
            "Required": false,
            "DefaultId":true,
            "PostData": true,
            "ValidRegEx": ""
        },
       
        {
            "Name": "LovCreatedOn",
            "Type": "string",
            "Required": false,
            "PostData": true,
            "ValidRegEx": "",
            "DefaultValue": "/Date(1710263400000)/"
        },
        {
            "Name": "LovModifiedOn",
            "Type": "string",
            "Required": false,
            "PostData": true,
            "ValidRegEx": "",
            "DefaultValue": "/Date(1710263400000)/"
        },
        {
            "Name": "LovModifiedByName",
            "Type": "string",
            "Required": false,
            "PostData": true,
            "ValidRegEx": "",
            "DefaultValue": "ADMIN"
        },
        {
            "Name": "LovCreatedByName",
            "Type": "string",
            "Required": false,
            "PostData": true,
            "ValidRegEx": "",
            "DefaultValue": "ADMIN"
        },
        {
            "Name": "LovVersion",
            "Type": "number",
            "Required": false,
            "PostData": true,
            "ValidRegEx": "",
            "DefaultValue": 1
        }
    ]
}