{
    "ObjectFields": [
      {
        "LovTypeCode": {
          "PicklistUrl": "MeasureOptionsType",
          "PicklistDisplayText": "Code,Name",
          "PicklistSearchFields": "Code,Name",
          "Multiple": false,
          "PicklistSelection": "Id",
          "PicklistTitle": "Code",
          "Label": "Code*",
          "Width": 160,
          "SLno":1,
          "AddNew": true,
          "MaxLength": 10,
          "PlaceHolder": "Enter Code",
          "ColumnWidth": "200,300",
          "ColumnType": "string,string",
          "isKeyField": true
      },
      "LovTypeName": {
          "PicklistUrl": "MeasureOptionsType",
          "PicklistDisplayText": "Code,Name",
          "PicklistSearchFields": "Code,Name",
          "Multiple": false,
          "PicklistSelection": "Id",
          "PicklistTitle": "Name",
          "Label": "Name*",
          "Width": 360,
          "AddNew": true,
          "PlaceHolder": "Enter Name",
          "MaxLength": 35,
          "ColumnWidth": "200,300",
          "ColumnType": "string,string",
          "isKeyField": true
      },
      "ParentLovTypeName": {
        "PicklistUrl": "MeasureOptionsType",
        "PicklistDisplayText": "Code,Name",
        "PicklistSearchFields": "Name",
        "Multiple": false,
        "PicklistSelection": "Id",
        "PicklistTitle": "Name",
        "Label": "Parent",
        "Width": 360,
        "AddNew": false,
        "PlaceHolder":"Select Parent Lov Type",
        "MaxLength": 35,
        "ColumnWidth": "200,300",
        "ColumnType": "string,string",
        "LabelWidth":125,
        "LinkId":"ParentLovTypeId"
    }
      },
        {
            "Name": "LovTypeId",
            "Type": "number",
            "Required": true,
            "ValidRegEx": "",
            "DefaultValue": 0,
            "width":"400px"
          },
          {
            "Name": "LovTypeCode",
            "Type": "string",
            "Required": true,
            "ValidRegEx": "",
            "DefaultValue": "",
            "Label":"Code*"
       
          },
          {
            "Name": "LovTypeName",
            "Type": "string",
            "Required": true,
            "ValidRegEx": "",
            "DefaultValue": "",
            "Label":"Name*"
          },
    
          {
            "Name": "LovTypeScoreRequired",
            "Type": "number",
            "Required": false,
            "ValidRegEx": "",
            "DefaultValue": 0,
            "LabelWidth":125,
            "Width": 360,
            "Label":"Score Required ",
            "PickLists": [
                {
                    "key": 0,
                    "value": "Yes"
                },
                {
                    "key": 1,
                    "value": "No"
                }
     ] },
      {
        "Name": "LovTypeCreatedOn",
        "Type": "string",
        "Required": false,
        "ValidRegEx": "",
        "DefaultValue": "/Date(1707883219000)/",
        "width":"400px"
      },
      {
        "Name": "LovTypeCreatedByName",
        "Type": "string",
        "Required": false,
        "ValidRegEx": "",
        "DefaultValue": "ADMIN",
        "width":"400px"
      },
      {
        "Name": "LovTypeModifiedOn",
        "Type": "string",
        "Required": false,
        "ValidRegEx": "",
        "DefaultValue":  "/Date(1707883219000)/",
        "width":"400px"
      },
      {
        "Name": "LovTypeModifiedByName",
        "Type": "string",
        "Required": false,
        "ValidRegEx": "",
        "DefaultValue": "ADMIN",
        "width":"400px"
      },
      {
        "Name": "LovTypeStatus",
        "Type": "number",
        "Required": false,
        "ValidRegEx": "",
        "DefaultValue": 1,
        "width":"400px"
      },
      {
        "Name": "LovTypeVersion",
        "Type": "number",
        "Required": false,
        "ValidRegEx": "",
        "DefaultValue": 1,
        "width":"400px"
      },
      {
        "Name": "LovTypeLovNature",
        "Type": "number",
        "Required": false,
        "ValidRegEx": "",
        "DefaultValue": 0,
        "Width": 360,
        "LabelWidth":125 ,
        "Label":"Lov Nature  ",
        "PickLists": [
            {
                "key": 0,
                "value": "Simple"
            },
            {
                "key": 1,
                "value": "Dependent"
            }
 ] },
 {
    "Name": "LovTypeGenerationType",
    "Type": "number",
    "Required": false,
    "ValidRegEx": "",
    "DefaultValue": 0,
    "Width": 360,
    "LabelWidth":125,
    
    "Label":"Code Generation  ",
    "PickLists": [
        {
            "key": 0,
            "value": "Manual"
        },
        {
            "key": 1,
            "value": "Auto"
        }
] },
      {
        "Name": "ParentLovTypeId",
        "Type": "string",
        "Required": false,
        "ValidRegEx": "",
        "DefaultValue": "-1",
        "PostData":true,
        "width":"400px"
      },
      {
        "Name": "ParentLovTypeName",
        "Type": "string",
        "Required": false,
        "ValidRegEx": "",
        "DefaultValue": "",
        "PostData":false,
        "width":"400px",
        "Label":"Parent"
      }

    ]
}