{
    "ObjectFields":[
        {
            "ModelCode":{
                "PicklistUrl": "MODEL",
                "PicklistDisplayText": "Code,Name",
                "PicklistSearchFields": "Code,Name",
                "Multiple": false,
                "PicklistSelection": "Id",
                "PicklistTitle": "Code",
                "PlaceHolder":"Enter Code",
                "Label": "Code*",
                "Width": 160,
                "AddNew": true,
                "MaxLength": 10,
                "ColumnWidth": "200,300",
                "ColumnType": "string,string",
                "isKeyField": true
            },
            "ModelName":{
                "PicklistUrl": "MODEL",
                "PicklistDisplayText": "Code,Name",
                "PicklistSearchFields": "Code,Name",
                "Multiple": false,
                "PicklistSelection": "Id",
                "PicklistTitle": "Name",
                "PlaceHolder":"Enter Name",
                "Label": "Name*",
                "Width": 360,
                "AddNew": true,
                "MaxLength": 50,
                "ColumnWidth": "200,300",
                "ColumnType": "string,string",
                "isKeyField": true
            },
            "ModelShortName":{
                "PicklistUrl": "MODEL",
                "PicklistDisplayText": "Code,Name",
                "PicklistSearchFields": "Code,Name",
                "Multiple": false,
                "PicklistSelection": "Id",
                "PicklistTitle": "ShortName",
                "PlaceHolder":"Enter Short Name",
                "Label": "Short Name*",
                "Width": 160,
                "LabelWidth":100,
                "AddNew": true,
                "MaxLength": 15,
                "ColumnWidth": "200,300",
                "ColumnType": "string,string"
            },
            "ItemCategoryName":{
                "PicklistUrl": "ITEMCATEGORY",
                "PicklistDisplayText": "Code,Name",
                "PicklistSearchFields": "Code,Name",
                "Multiple": false,
                "PicklistSelection": "Id",
                "PicklistTitle": "Name",
                "PlaceHolder":"Select Category",
                "Label": "Category*",
                "LinkId":"ItemCategoryId",
                "Width": 160,
                "LabelWidth":100,
                "AddNew": false,
                "MaxLength": 25,
                "ColumnWidth": "200,300",
                "ColumnType": "string,string"
            },
            "ItemBrandName":{
                "PicklistUrl": "Brand",
                "PicklistDisplayText": "Code,Name",
                "PicklistSearchFields": "Code,Name",
                "Multiple": false,
                "PicklistSelection": "Id",
                "PicklistTitle": "Name",
                "PlaceHolder":"Select Brand",
                "Label": "Brand*",
                "LinkId":"ItemBrandId",
                "Width": 160,
                "LabelWidth":100,
                "AddNew": false,
                "MaxLength": 25,
                "ColumnWidth": "200,300",
                "ColumnType": "string,string"
            }
        },
        {
            "Name": "ModelId",
            "Type": "number",
            "ValidRegEx": "",
            "DefaultValue": 0,
            "width": 100
        },
        {
            "Name": "ModelCode",
            "Type": "string",
            "Label": "Code*",
            "PostData": true,
            "Required": true,
            "ValidRegEx": "",
            "DefaultValue": "",
            "Width": 160
        },
        {
            "Name": "ModelName",
            "Type": "string",
            "Label": "Name*",
            "PostData": true,
            "Required": true,
            "ValidRegEx": "",
            "DefaultValue": "",
            "Width": 360
        },
        {
            "Name": "ModelShortName",
            "Type": "string",
            "Label": "Short Name *",
            "PostData": true,
            "Required": true,
            "ValidRegEx": "",
            "DefaultValue": "",
            "Width": 160
        },
        {
            "Name": "ItemCategoryId",
            "Type": "number",
            "ValidRegEx": "",
            "DefaultValue": -1,
            "width": 100
        },
        {
            "Name": "ItemCategoryName",
            "Type": "string",
            "Label": "Category *",
            "PostData": true,
            "Required": true,
            "ValidRegEx": "",
            "DefaultValue": "",
            "Width": 160
        },
        {
            "Name": "ItemBrandId",
            "Type": "number",
            "ValidRegEx": "",
            "DefaultValue": -1,
            "width": 100
        },
        {
            "Name": "ItemBrandName",
            "Type": "string",
            "Label": "Brand *",
            "PostData": true,
            "Required": true,
            "ValidRegEx": "",
            "DefaultValue": "",
            "Width": 160
        },
        {
            "Name": "ModelIsSelected",
            "Type": "number",
            "Label": "Selected?",
            "PostData": true,
            "LabelWidth":100,
            "Required": false,
            "ValidRegEx": "",
            "DefaultValue": 1,
            "Width": 160
        },
        {
            "Name": "ModelIsAsset",
            "Type": "number",
            "Label": "Is Asset",
            "PostData": true,
            "LabelWidth":100,
            "Required": false,
            "ValidRegEx": "",
            "DefaultValue": 1,
            "Width": 160
        },
        {
            "Name": "ModelIsItem",
            "Type": "number",
            "Label": "Is Item",
            "LabelWidth":100,
            "PostData": true,
            "Required": false,
            "ValidRegEx": "",
            "DefaultValue": 1,
            "Width": 160
        },
        {
            "Name": "ModelCreatedOn",
            "Type": "string",
            "Required": false,
            "ValidRegEx": "",
            "DefaultValue": "/Date(1704475560000)/",
            "width": 100
        },
        {
            "Name": "ModelCreatedByName",
            "Type": "string",
            "Required": false,
            "ValidRegEx": "",
            "DefaultValue": "ADMIN",
            "width": 100
        },
        {
            "Name": "ModelModifiedOn",
            "Type": "string",
            "Required": false,
            "ValidRegEx": "",
            "DefaultValue": "/Date(1704475560000)/",
            "width": 100
        },
        {
            "Name": "ModelModifiedByName",
            "Type": "any",
            "Required": false,
            "ValidRegEx": "",
            "DefaultValue": "ADMIN",
            "width": 100
        },
        {
            "Name": "ModelStatus",
            "Type": "number",
            "Required": false,
            "ValidRegEx": "",
            "DefaultValue": 1,
            "width": 100
        },
        {
            "Name": "ModelVersion",
            "Type": "number",
            "Required": false,
            "ValidRegEx": "",
            "DefaultValue": 1,
            "width": 100
        }
        
    ]
}