{
    "ObjectFields": [
        {
            "MRPCode": {
                "PicklistUrl": "MRPMaster",
                "PicklistDisplayText": "Code,Name",
                "PicklistSearchFields": "Code",
                "Multiple": false,
                "PicklistSelection": "Id",
                "PicklistTitle": "Code",
                "Label": "Code*",
                "PlaceHolder":"Enter Code",
                "Width": 160,
                "AddNew": true,
                "MaxLength": 20,
                "ColumnWidth": "200,300",
                "ColumnType": "string,string",
                "isKeyField":true
            },
            "MRPName": {
                "PicklistUrl": "MRPMaster",
                "PicklistDisplayText": "Code,Name",
                "PicklistSearchFields": "Name",
                "Multiple": false,
                "PicklistSelection": "Id",
                "PicklistTitle": "Name",
                "Label": "Name*",
                "Width": 360,
                "PlaceHolder":"Enter Name",
                "AddNew": true,
                "MaxLength": 50,
                "ColumnWidth": "200,300",
                "ColumnType": "string,string",
                "isKeyField":true
            },
            "MasterScheduleName": {
                "PicklistUrl": "MasterSchedule",
                "PicklistDisplayText": "Code,Name",
                "PicklistSearchFields": "Name",
                "Multiple": false,
                "PicklistSelection": "Id",
                "PicklistTitle": "Name",
                "Label": "Master Schedule*",
                "PlaceHolder":"Select Master Schedule",
                "Width": 360,
                "AddNew": false,
                "MaxLength": 20,
                "LabelWidth":201,
                "ColumnWidth": "200,300",
                "ColumnType": "string,string",
                "LinkId": "MasterScheduleId"
            },
            "OUName": {
                "PicklistUrl": "OrganizationUnit",
                "PicklistDisplayText": "Code,Name",
                "PicklistSearchFields": "Name",
                "Multiple": false,
                "PicklistSelection": "Id",
                "PicklistTitle": "Name",
                "Label": "Organization Unit",
                "PlaceHolder":"Select Organization Unit",
                "Width": 360,
                "AddNew": false,
                "LabelWidth":201,
                "MaxLength": 20,
                "ColumnWidth": "200,300",
                "ColumnType": "string,string",
                "LinkId": "OUId"
            },
            "OUGroupName": {
                "PicklistUrl": "OrganizationGroup",
                "PicklistDisplayText": "Code,Name",
                "PicklistSearchFields": "Name",
                "Multiple": false,
                "PicklistSelection": "Id",
                "PicklistTitle": "Name",
                "Label": "Organization Group",
                "PlaceHolder":"Select Organization Group",
                "Width": 360,
                "LabelWidth":201,
                "AddNew": false,
                "MaxLength": 20,
                "ColumnWidth": "200,300",
                "ColumnType": "string,string",
                "LinkId": "OUGroupId"
            }
        },
        {
            "Name": "MRPId",
            "Type": "number",
            "Required": true,
            "ValidRegEx": "",
            "DefaultValue": 0,
            "width": "400px"
        },
        {
            "Name": "OUGroupId",
            "Type": "number",
            "Required": false,
            "ValidRegEx": "",
            "DefaultValue": -1,
            "width": "400px"
        },
        {
            "Name": "OUId",
            "Type": "number",
            "Required": false,
            "ValidRegEx": "",
            "DefaultValue": -1,
            "width": "400px"
        },

        {
            "Name": "MasterScheduleId",
            "Type": "number",
            "Required": false,
            "ValidRegEx": "",
            "DefaultValue": -1,
            "width": "400px"
        },
        {
            "Name": "MRPCode",
            "Type": "string",
            "Required": true,
            "ValidRegEx": "",
            "DefaultValue": "",
            "PostData": true,
            "width": "400px",
            "Label": "Code*" 
        },
        {
            "Name": "OUName",
            "Type": "string",
            "Required": false,
            "ValidRegEx": "",
            "DefaultValue": "",
            "PostData": true,
            "width": "400px",
            "Label": "Organization Unit" 
        },
        {
            "Name": "MRPName",
            "Type": "string",
            "Required": true,
            "ValidRegEx": "",
            "DefaultValue": "",
            "PostData": true,
            "width": "400px",
            "Label": "Code*"
        },
        {
            "Name": "MasterScheduleName",
            "Type": "string",
            "Required": true,
            "ValidRegEx": "",
            "DefaultValue": "",
            "PostData": true,
            "width": "400px",
            "Label": "Master Schedule*"
        },
        
        {
            "Name": "OUGroupName",
            "Type": "string",
            "Required": false,
            "ValidRegEx": "",
            "DefaultValue": "",
            "PostData": true,
            "width": "400px",
            "Label": "Organization Group"
        },
        {
            "Name": "MRPVersion",
            "Type": "number",
            "Required": false,
            "ValidRegEx": "",
            "DefaultValue":1,
            "PostData": true
         
        },
        {
            "Name": "MRPIsAutoRelease",
            "Type": "number",
            "Required": false,
            "ValidRegEx": "",
            "DefaultValue": 0,
            "LabelWidth":201,
         "Width":510,
            "Label": "Auto release planned order ?",
            "PickLists": [
                {
                    "key": 0,
                    "value": "Yes"
                },
                {
                    "key": 1,
                    "value": "No"
                }
            ]
        },
        {
            "Name": "MRPIsTrackConversion",
            "Type": "number",
            "Required": false,
            "ValidRegEx": "",
            "DefaultValue": 0,
            "LabelWidth":201,
       "Width":510,
            "Label": "Track Conversion",
            "PickLists": [
                {
                    "key": 0,
                    "value": "Yes"
                },
                {
                    "key": 1,
                    "value": "No"
                }
            ]
        },
        {
            "Name": "MRPOverWriteType",
            "Type": "number",
            "Required": false,
            "ValidRegEx": "",
            "DefaultValue": 0,
          "Width":510,
"LabelWidth":201,
            "Label": "Overwrite Type*",
            "PickLists": [
                {
                    "key": 0,
                    "value": "No Overwrite"
                },
                {
                    "key": 1,
                    "value": "Only Outside Plan Time"
                },
                {
                    "key": 2,
                    "value": "Full Overwrite"
                }
            ]
        },
        {
            "Name": "MRPOrganizationType",
            "Type": "number",
            "Required": false,
            "ValidRegEx": "",
            "DefaultValue": 0,
            "LabelWidth":201,
            "width": "400px",
            "Label": "Organization Type*",
            "PickLists": [
                {
                    "key": 0,
                    "value": "Open"
                },
                {
                    "key": 1,
                    "value": "Organization Unit  "
                },
                {
                    "key": 2,
                    "value": "Organization Group  "
                }
            ]
        },

        {
            "Name": "MRPIncludeLeadTime",
            "Type": "number",
            "Required": false,
            "ValidRegEx": "",
            "DefaultValue": 0,
            "LabelWidth":296,
            "width": "400px",
            "Label": "Include Lead Time",
            "PickLists": [
                {
                    "key": 0,
                    "value": "Yes"
                },
                {
                    "key": 1,
                    "value": "No"
                }
            ]
        },
        
        {
            "Name": "MRPIncludeLotSize",
            "Type": "number",
            "Required": false,
            "ValidRegEx": "",
            "DefaultValue": 0,
            "LabelWidth":146,
            "width": "400px",
            "Label": "Include Lot Size",
            "PickLists": [
                {
                    "key": 0,
                    "value": "Yes"
                },
                {
                    "key": 1,
                    "value": "No"
                }
            ]
        }, 
        
        {
            "Name": "MRPIncludeStockInTransit",
            "Type": "number",
            "Required": false,
            "ValidRegEx": "",
            "DefaultValue": 0,
          "Width":160,
            "LabelWidth":146,
            "Label": "Sale Stock in Transit ",
            "PickLists": [
                {
                    "key": 0,
                    "value": "Yes"
                },
                {
                    "key": 1,
                    "value": "No"
                }
            ]
        },
        {
            "Name": "MRPIncludeStock",
            "Type": "number",
            "Required": false,
            "ValidRegEx": "",
            "DefaultValue": 0,
            "width": "400px",
            "LabelWidth":146,
            "Label": "Include Stock",
            "PickLists": [
                {
                    "key": 0,
                    "value": "Yes"
                },
                {
                    "key": 1,
                    "value": "No"
                }
            ]
        },
        
        {
            "Name": "MRPCreatedOn",
            "Type": "string",
            "Required": false,
            "ValidRegEx": "",
            "PostData": true,
            "DefaultValue":"/Date(1714222080000)/",
            "Width": 100
        },
        {
            "Name": "MRPModifiedOn",
            "Type": "string",
            "Required": false,
            "ValidRegEx": "",
            "PostData": true,
            "DefaultValue":"/Date(1714222080000)/",
            "Width": 100
        },
        {
            "Name": "MRPCreatedByName",
            "Type": "string",
            "Required": false,
            "ValidRegEx": "",
            "PostData": true,
            "DefaultValue": "ADMIN",
            "Width": 100
        },
        {
            "Name": "MRPModifiedByName",
            "Type": "string",
            "Required": false,
            "ValidRegEx": "",
            "PostData": true,
            "DefaultValue": "ADMIN",
            "Width": 100
        },
        {
            "Name": "MRPStatus",
            "Type": "number",
            "Required": false,
            "ValidRegEx": "",
            "DefaultValue":1,
            "PostData": true
         
        },
        {
            "Name": "MRPIsPending",
            "Type": "number",
            "Required": false,
            "ValidRegEx": "",
            "DefaultValue":0,
            "PostData": true
         
        }
    ]
}
