{
    "ObjectFields":[
        {
            "NarrationName": {
                "PicklistUrl": "Narration",
                "PicklistDisplayText": "Name",
                "PicklistSearchFields": "Name",
                "Multiple": false,
                "PicklistSelection": "Id",
                "PicklistTitle": "Name",
                "Label": "Name*",
                "PlaceHolder":"Enter Name",
                "SLno":1,
                "Required":true,
                "Width": 360,
                "AddNew": true,
                "MaxLength": 100,
                "ColumnWidth": "200,300",
                "ColumnType": "string,string",
                "isKeyField":true
            },
            "ParameterSetName": {
                "PicklistUrl": "Parameterset",
                "PicklistDisplayText": "Code,Name",
                "PicklistSearchFields": "Code,Name",
                "Multiple": false,
                "PicklistSelection": "Id",
                "LinkId": "ParameterSetId",
                "LabelWidth":105,
                "PicklistTitle": "Name",
                "Label": "Parameter set",
                "PlaceHolder":"Select Parameter Set",
                "Required":false,
                "Width": 200,
                "AddNew": false,
                "MaxLength": 20,
                "ColumnWidth": "200,300",
                "ColumnType": "string,string"
            }
        },
        {
            "Name": "NarrationId",
            "Type": "number",
            "Required": false,
            "ValidRegEx": "",
            "PostData": true,
            "DefaultValue": 0
          },
          {
            "Name": "NarrationName",
            "Type": "string",
            "Required": true,
            "ValidRegEx": "",
            "DefaultValue": "",
            "PostData": true,
            "width": "200",
            "Label": "Name*"
          },
          {
            "Name": "NarrationType",
            "Type": "number",
            "Label": "Type",
            "Placeholder": "",
            "Required": false,
            "ValidRegEx": "",
            "DefaultValue": 0,
            "LabelWidth":105,
            "PostData": true,
            "Width": 200,
            "PickLists": [
                {
                    "key": 0,
                    "value": "FIXED"
                },
                {
                    "key": 1,
                    "value": "TEMPLATED"
                },
                {
                    "key": 2,
                    "value": "DATA SPECIFIC"
                }
            ]
        },
        {
            "Name": "NarrationNarrations",
            "Type": "string",
            "Required": true,
            "ValidRegEx": "",
            "DefaultValue": "",
            "PostData": true,
            "Width": "100",
            "Label": "Narration*"
          },
          {
            "Name": "ParameterSetId",
            "Type": "number",
            "Required": false,
            "ValidRegEx": "",
            "PostData": true,
            "DefaultValue": -1
          },
          {
            "Name": "ParameterSetName",
            "Type": "string",
            "Required": false,
            "ValidRegEx": "",
            "DefaultValue": "",
            "PostData": false,
            "width": "200"
          },
          {
            "Name": "NarrationStatus",
            "Type": "number",
            "Required": false,
            "ValidRegEx": "",
            "PostData": true,
            "DefaultValue": 1
          },
          {
            "Name": "NarrationVersion",
            "Type": "number",
            "Required": false,
            "ValidRegEx": "",
            "PostData": true,
            "DefaultValue": 1
          }
    ]
}