{
    "ObjectFields": [
      {
       "ParameterMapCode":{
          "PicklistUrl": "Parametermap",
          "PicklistDisplayText": "Code",
          "PicklistSearchFields": "Code",
          "PlaceHolder": "Enter Code",
          "Multiple": false,
          "PicklistSelection": "Id",
          "PicklistTitle": "Code",
          "Label": "Code*",
          "Width": 300,
          "AddNew": true,
          "MaxLength": 10,
          "ColumnWidth": "200",
          "ColumnType": "string",
          "isKeyField": true
       }, 
       "ParameterMapName":{
          "PicklistUrl": "Parametermap",
          "PicklistDisplayText": "Code",
          "PicklistSearchFields": "Code",
          "PlaceHolder": "Enter Name",
          "Multiple": false,
          "PicklistSelection": "Id",
          "PicklistTitle": "Name",
          "Label": "Code*",
          "Width": 300,
          "AddNew": true,
          "MaxLength": 35,
          "ColumnWidth": "200",
          "ColumnType": "string",
          "isKeyField": true
     }
      },
        {
          "Name": "ParameterMapId",
          "Type": "number",
          "Required": true,
          "ValidRegEx": "",
          "DefaultValue": 0
      
        },
        {
            "Name": "ParameterMapCode",
            "Type": "string",
            "Required": true,
            "ValidRegEx": "",
            "DefaultValue": "",
            "Label":"Code*"
          },
          {
            "Name": "ParameterMapName",
            "Type": "string",
            "Required": true,
            "ValidRegEx": "",
            "DefaultValue": "",
            "Label":"Name*"
          },
          {
            "Name": "ParameterMapType",
            "Type": "number",
            "Label":"Type*",
            "Required": true,
            "ValidRegEx": "",
            "DefaultValue": 0,
            "Placeholder":"",
            "PickLists":[
                {
                    "key": 0,
                    "value": "Generator"
                }
            ]
          },
          {
            "Name": "ParameterMapStartTimeParameterId",
            "Type": "number",
            "Required": true,
            "ValidRegEx": "",
            "DefaultValue": 0
          },
          {
            "Name": "ParameterMapStartTimeParameterName",
            "Type": "string",
            "Label":"Start Time Parameter*",
            "Required": true,
            "ValidRegEx": "",
            "DefaultValue": ""
          },
          {
            "Name": "ParameterMapEndTimeParameterId",
            "Type": "number",
         
            "Required": true,
            "ValidRegEx": "",
            "DefaultValue": 0
          },
          {
            "Name": "ParameterMapEndTimeParameterName",
            "Type": "string",
            "Label":"End Time Parameter*",
            "Required": true,
            "ValidRegEx": "",
            "DefaultValue": ""
          },
          {
            "Name": "ParameterMapEndFuelParameterId",
            "Type": "number",
        
            "Required": true,
            "ValidRegEx": "",
            "DefaultValue": 0
          },
          {
            "Name": "ParameterMapEndFuelParameterName",
            "Type": "string",
            "Label":"End Fuel Parameter*",
            "Required": true,
            "ValidRegEx": "",
            "DefaultValue": ""
          },
          {
            "Name": "ParameterMapStartFuelParameterId",
            "Type": "number",
   
            "Required": true,
            "ValidRegEx": "",
            "DefaultValue": 0
          },
          {
            "Name": "ParameterMapStartFuelParameterName",
            "Type": "string",
            "Label":"Start Fuel Parameter*",
            "Required": true,
            "ValidRegEx": "",
            "DefaultValue": ""
          },
          {
            "Name": "ParameterMapStartUnitParameterId",
            "Type": "number",
            "Required": true,
            "ValidRegEx": "",
            "DefaultValue": 0
          },
          {
            "Name": "ParameterMapStartUnitParameterName",
            "Type": "string",
           "Label":" Start Unit Parameter*",
            "Required": true,
            "ValidRegEx": "",
            "DefaultValue": ""
          },
          {
            "Name": "ParameterMapEndUnitParameterId",
            "Type": "number",
            "Required": true,
            "ValidRegEx": "",
            "DefaultValue": 0
          },
          {
            "Name": "ParameterMapEndUnitParameterName",
            "Type": "string",
            "Required": true,
            "Label":" End Unit Parameter*",
            "ValidRegEx": "",
            "DefaultValue": ""
          },
          {
            "Name": "ParameterMapStatus",
            "Type": "number",
            "Required": true,
            "ValidRegEx": "",
            "DefaultValue": 1
          },
          {
            "Name": "ParameterMapVersion",
            "Type": "number",
            "Required": true,
            "ValidRegEx": "",
            "DefaultValue": 1

          },
          {
            "Name": "ParameterMapCreatedByName",
            "Type": "string",
            "Required": true,
            "ValidRegEx": "",
            "DefaultValue": "ADMIN"
          },
          {
            "Name": "ParameterMapCreatedOn",
            "Type": "string",
            "Required": true,
            "ValidRegEx": "",
            "DefaultValue": "/Date(1435232280000)/"
          },
          {
            "Name": "ParameterMapModifiedByName",
            "Type": "string",
            "Required": true,
            "ValidRegEx": "",
            "DefaultValue": "ADMIN"
          

          },
          {
            "Name": "ParameterMapModifiedOn",
            "Type": "string",
            "Required": true,
            "ValidRegEx": "",
            "DefaultValue": "/Date(1707476700000)/"
          },
          {
            "Name": "ParameterSetName",
            "Type": "number",
            "Required": true,
            "ValidRegEx": "",
            "Label":"ParameterSet*",
            "DefaultValue": 0
          },
          {
            "Name": "ParameterSetCode",
            "Type": "string",
            "Required": true,
            "ValidRegEx": "",
            "DefaultValue": "",
            "Label":"ParameterSet*"
          }
        ]

}