{
  "ObjectFields": [
    {
      "PaymentTermCode": {
        "PicklistUrl": "PaymentTerm",
        "PicklistDisplayText": "Code,Name",
        "PicklistSearchFields": "Code,Name",
        "Multiple": false,
        "PicklistSelection": "Id",
        "PicklistTitle": "Code",
        "Label": "Code*",
        "SLno":1,
        "PlaceHolder":"Enter Code",
        "MaxLength": 10,
        "Width": 200,
        "AddNew": true,
        "ColumnWidth": "200,200",
        "ColumnType": "string,string",
        "isKeyField": true
      },
      "PaymentTermName": {
        "PicklistUrl": "PaymentTerm",
        "PicklistDisplayText": "Code,Name",
        "PicklistSearchFields": "Code,Name",
        "Multiple": false,
        "PicklistSelection": "Id",
        "PicklistTitle": "Name",
        "Label": "Name*",
        "MaxLength": 30,
        "Width": 360,
        "PlaceHolder":"Enter Name",
        "AddNew": true,
        "ColumnWidth": "200,200",
        "ColumnType": "string,string",
        "isKeyField": true
      }
    },
    {
      "Name": "PaymentTermId",
      "Type": "number",
      "Required": false,
      "ValidRegEx": "",
      "PostData": true,
      "DefaultValue": 0
    },
    {
      "Name": "PaymentTermCode",
      "Type": "string",
      "Required": true,
      "ValidRegEx": "",
      "DefaultValue": "",
      "PostData": true,
      "width": "200",
      "Label": "Code*"
    },
    {
      "Name": "PaymentTermName",
      "Type": "string",
      "Required": true,
      "ValidRegEx": "",
      "DefaultValue": "",
      "PostData": true,
      "width": "200",
      "Label": "Name*"
    },
    {
      "Name": "PaymentTermRemarks",
      "Label": "Remarks",
      "Placeholder": "Enter Remarks",
      "Type": "string",
      "Required": false,
      "PostData": true,
      "MaxLength":100,
      "LabelWidth":52,
      "ValidRegEx": "",
      "Width":360,
      "DefaultValue": ""
    },
    {
      "Name": "PaymentTermDetailArray",
      "Type": "string",
      "Label": "Payment Term Detail Array",
      "IsFieldRequired": true,
      "Required": true,
      "PostData": true,
      "Grid": [
        {
          "Label": "#",
          "value": "PaymentTermDetailSlNo",
          "width": 50,
          "Type": "SNo",
          "IsVisible": true,
          "SNo": 1,
          "sticky": false,
          "Required": false,
          "PostData": true,
          "left": 0
        },
        
        {
          "Label": "Type",
          "value": "PaymentTermDetailPaymentType",
          "width": 150,
          "Type": "ComboBox",
          "IsVisible": true,
          "SNo": 2,
          "sticky": false,
          "Required": false,
          "PostData": true,
          "DefaultValue": 0,
          "left": 250,
          "PickLists": [
            {
              "key": 0,
              "value": "ADVANCE"
            },
            {
              "key": 1,
              "value": "CREDIT"
            }
          ]
        },
        {
          "Label": "Days",
          "value": "PaymentTermDetailNumberOfDays",
          "width": 120,
          "Type": "number",
          "IsVisible": true,
          "Placeholder":"No of Days",
          "SNo": 3,
          "sticky": false,
          "Required": true,
          "PostData": true,
          "left": 0,
          "MaxLength": 4
        },
        {
          "Label": "Date",
          "value": "PaymentTermDetailWEFDateType",
          "width": 180,
          "Type": "Picklist",
          "IsVisible": true,
          "SNo": 4,
          "sticky": false,
          "Required": true,
          "PostData": true,
          "left": 0,
          "PicklistDetail": {
            "PicklistUrl": "GCM",
            "PicklistDisplayText": "Code,Name",
            "PicklistSearchFields": "Name",
            "Multiple": false,
            "PicklistSelection": "Id",
            "PicklistTitle": "Code",
            "Label": "",
            "Width": 150,
            "LinkId": "",
            "AddNew": false,
            "PlaceHolder":"Select Date Type",
            "MaxLength": 35,
            "ColumnWidth": "200,200",
            "ColumnType": "string,string",
            "PicklistCriteria": "Paymentterm"
          }
        },
        {
          "Label": "Percentage",
          "value": "PaymentTermDetailPaymentPercentage",
          "width": 160,
          "Type": "number",
          "IsVisible": true,
          "SNo": 5,
          "Placeholder":"Percentage",
          "sticky": false,
          "Required": true,
          "PostData": true,
          "left": 0,
          "MaxLength": 3
        },
        {
          "Label": "",
          "value": "CashDiscountId",
          "width": 150,
          "Type": "number",
          "IsVisible": false,
          "SNo": 6,
          "sticky": false,
          "Required": false,
          "PostData": true,
          "left": 0,
          "DefaultValue": -1
        }
      ]
    },
    {
      "Name": "PaymentTermStatus",
      "Type": "number",
      "Required": false,
      "ValidRegEx": "",
      "PostData": true,
      "DefaultValue": 1,
      "width": "400px"
    },
    {
      "Name": "PaymentTermVersion",
      "Type": "number",
      "Required": false,
      "ValidRegEx": "",
      "PostData": true,
      "DefaultValue": 1,
      "width": "400px"
    },
    {
      "Name": "PaymentTermCreatedByName",
      "Type": "string",
      "Required": false,
      "ValidRegEx": "",
      "PostData": true,
      "DefaultValue": "EMP00060",
      "width": "400px"
    },
    {
      "Name": "PaymentTermModifiedByName",
      "Type": "string",
      "Required": false,
      "ValidRegEx": "",
      "PostData": true,
      "DefaultValue": "ADMIN",
      "width": "400px"
    },
    {
      "Name": "PaymentTermCreatedOn",
      "Type": "string",
      "Required": false,
      "ValidRegEx": "",
      "PostData": true,
      "DefaultValue": "/Date(1521021600000)/",
      "width": "400px"
    },
    {
      "Name": "PaymentTermModifiedOn",
      "Type": "string",
      "Required": false,
      "ValidRegEx": "",
      "PostData": true,
      "DefaultValue": "/Date(1709307600000)/",
      "width": "400px"
    }
  ]
}