{
    "ObjectFields": [
        {
            "PayTaxTypeCode": {
                "PicklistUrl": "PayTaxType",
                "PicklistDisplayText": "Code,Name",
                "PicklistSearchFields": "Code,Name",
                "Multiple": false,
                "PicklistSelection": "Id",
                "PicklistTitle": "Code",
                "Label": "Code*",
                "Width": 160,
                "AddNew": true,
                "MaxLength": 20,
                "ColumnWidth": "200,450",
                "ColumnType": "string",
                "PlaceHolder": "Enter Code",
                "isKeyField":true
            },
            "PayTaxTypeName": {
                "PicklistUrl": "PayTaxType",
                "PicklistDisplayText": "Code,Name",
                "PicklistSearchFields": "Code,Name",
                "Multiple": false,
                "PlaceHolder": "Enter Name",
                "PicklistSelection": "Id",
                "PicklistTitle": "Name",
                "Label": "Name*",
                "Width": 360,
                "AddNew": true,
                "MaxLength": 50,
                "ColumnWidth": "200,450",
                "ColumnType": "string",
                "isKeyField":true
            }
        },
        {
            "Name": "PayTaxTypeId",
            "Type": "number",
            "Required": false,
            "PostData": true,
            "ValidRegEx": "",
            "DefaultValue": 0
        },
        {
            "Name": "PeriodId",
            "Type": "number",
            "Required": false,
            "PostData": true,
            "ValidRegEx": "",
            "DefaultValue": -1
        },
        {
            "Name": "PayTaxTypeCode",
            "Type": "string",
            "Label": "Code*",
            "Required": true,
            "ValidRegEx": "",
            "PostData": true,
            "DefaultValue": ""
        },
        {
            "Name": "PayTaxTypeName",
            "Type": "string",
            "Label": "Name*",
            "Required": true,
            "ValidRegEx": "",
            "PostData": true,
            "DefaultValue": ""
        },
        {
            "Name": "PayTaxTypeRemarks",
            "Type": "string",
            "Label": "Remarks",
            "Placeholder": "Enter the Remarks",
            "Required": false,
            "PostData": true,
            "ValidRegEx": "",
            "DefaultValue": "",
            "Width": 360,
            "MaxLength": 200,
            "LabelWidth":82
        },
        {
            "Name": "PayTaxTypeSortOrder",
            "Type": "number",
            "Label": "Sort Order",
            "Placeholder":"",
            "Required": false,
            "PostData": true,
            "ValidRegEx": "",
            "DefaultValue":9999,
            "Width": 100,
            "MaxLength": 4,
            "LabelWidth":82
        },
      
        {
            "Name": "PayTaxTypeDetailArray",
            "Type": "string",
            "Label": "PayTaxType",
            "Tooltip": "",
            "Placeholder": "",
            "Required": false,
            "Grid": [
                {
                    "Label": "#",
                    "value": "PayTaxTypeDetailSlNo",
                    "width": 50,
                    "Type": "SNo",
                    "IsVisible": true,
                    "SNo": 1,
                    "sticky": false,
                    "left": 0
                },
                {
                    
                    "value": "PayTaxTypeDetailId",
                    "Type": "number",
                    "Required": false,
                    "IsVisible": false,
                    "DefaultValue": 0,
                    "PostData": true
                },
                {
                    
                    "value": "PeriodId",
                    "Type": "string",
                    "Required": false,
                    "IsVisible": false,
                    "PostData": true,
                    "DefaultValue": ""
                },
                {
                    "Label": "Section",
                    "value": "PayTaxTypeDetailSection",
                    "Type": "string",
                    "IsVisible": true,
                    "SNo": 2,
                    "width": 150,
                    "MaxLength": 30,
                    "Required": true,
                    "sticky": false,
                    "Placeholder":"Enter the Section",
                    "DefaultValue": ""
                },
                {
                    "Label": "Field Name",
                    "value": "PayTaxTypeDetailFieldName",
                    "Type": "string",
                    "IsVisible": true,
                    "SNo": 3,
                    "width": 150,
                    "MaxLength": 50,
                    "Required": true,
                    "sticky": false,
                    "DefaultValue": "",
                    "Placeholder":"Enter the Field name"
                },
                {
                    "Label": "Display Name",
                    "value": "PayTaxTypeDetailDisplayName",
                    "Type": "textarea",
                    "IsVisible": true,
                    "SNo": 4,
                    "width": 250,
                    "MaxLength": 200,
                    "Required": true,
                    "sticky": false,
                    "DefaultValue": "",
                    "Placeholder":"Enter the Display name"
                },
                {
                    "Label": "Field Remarks",
                    "value": "PayTaxTypeDetailFieldRemarks",
                    "Type": "textarea",
                    "IsVisible": true,
                    "SNo": 5,
                    "width": 250,
                    "MaxLength": 200,
                    "Required": true,
                    "sticky": false,
                    "DefaultValue": "",
                    "Placeholder":"Enter the Field Remarks"
                },
                {
                    "Label": "Type",
                    "value": "PayTaxTypeDetailType",
                    "width": 200,
                    "Type": "ComboBox",
                    "IsVisible": true,
                    "SNo": 6,
                    "sticky": false,
                    "left": 250,
                    "PickLists": [
                        {
                            "key": 0,
                            "value": "Overall"
                        },
                        {
                            "key": 1,
                            "value": "Employee-Setting"
                        },
                        {
                            "key": 2,
                            "value": "Employee-Value"
                        },
                        {
                            "key": 3,
                            "value": "EmployeePayPeriod-Setting"
                        }  ,
                        {
                            "key": 4,
                            "value": "EmployeePayPeriod-Value"
                        }  
                    ],
                    "DefaultValue":0
                },
                {
                    "Label": "DataType",
                    "value": "PayTaxTypeDetailDataType",
                    "width": 200,
                    "Type": "ComboBox",
                    "IsVisible": true,
                    "DependentChangeFields":["PayTaxTypeDetailSize","PayTaxTypeDetailEnumValues"],
                    "DependentChangeFieldName":["PayTaxTypeDetailSize","PayTaxTypeDetailSize","PayTaxTypeDetailSize","PayTaxTypeDetailEnumValues"],
                    "DependentChangeFieldValue":["",100,18.4,0],
                    "DependentChangeDefaultValue":[0,0],
                    "SNo": 7,
                    "sticky": false,
                    "left": 250,
                    "PickLists": [
                        {
                            "key": 0,
                            "value": "Date"
                        },
                        {
                            "key": 1,
                            "value": "String"
                        },
                        {
                            "key": 2,
                            "value": "Number"
                        },
                        {
                            "key": 3,
                            "value": "ListOfValues"
                        }  
                    ],
                    "DefaultValue":0
                },
                {
                    "Label": "Size",
                    "value": "PayTaxTypeDetailSize",
                    "Type": "number",
                    "IsVisible": true,
                    "SNo": 8,
                    "width": 150,
                    "MaxLength": 4,
                    "Required": true,
                    "sticky": false,
                    "Disabled":true,
                    "DependendField":"PayTaxTypeDetailDataType",
                    "DependendValue":[3],
                    "DefaultValue": 0
                },
                {
                    "Label": "Enum Value",
                    "value": "PayTaxTypeDetailEnumValues",
                    "Type": "textarea",
                    "IsVisible": true,
                    "SNo": 9,
                    "width": 250,
                    "Required": true,
                    "MaxLength": 500,
                    "Disabled":true,
                    "DependendField":"PayTaxTypeDetailDataType",
                    "DependendValue":[0,1,2],
                    "sticky": false,
                    "DefaultValue": "",
                    "Placeholder":"Enter Enum Value"
                },
                {
                    "Label": "Is Detail",
                    "value": "PayTaxTypeDetailIsDetail",
                    "Type": "Checkbox",
                    "IsVisible": true,
                    "SNo": 10,
                    "width": 150,
                    "Required": true,
                    "sticky": false,
                    "DefaultValue": 0
                },
                {
                    "Label": "Is Attachment",
                    "value": "PayTaxTypeDetailIsAttachment",
                    "Type": "Checkbox",
                    "IsVisible": true,
                    "SNo": 11,
                    "width": 150,
                    "Required": true,
                    "sticky": false,
                    "DefaultValue": 0
                },
                {
                    "Label": "Display Order",
                    "value": "PayTaxTypeDetailDisplayOrder",
                    "Type": "number",
                    "IsVisible": true,
                    "SNo": 12,
                    "width": 150,
                    "MaxLength": 4,
                    "Required": true,
                    "sticky": false,
                    "DefaultValue": 0,
                    "Placeholder":"Enter Display Order"
                },
                {
                    "value": "PayTaxTypeId  ",
                    "Type": "number",
                    "Required": false,
                    "IsVisible": false,
                    "DefaultValue": -1,
                    "DefaultId":true
                }
                
            ]
        },
        {
            "Name": "PayTaxTypeStatus",
            "Type": "number",
            "Required": false,
            "PostData": true,
            "ValidRegEx": "",
            "DefaultValue": 1
        },
        {
            "Name": "PayTaxTypeVersion",
            "Type": "number",
            "Required": false,
            "PostData": true,
            "ValidRegEx": "",
            "DefaultValue": 1
        }
    ]
}