{
    "ObjectFields": [
        {
            "PortletTypeCode":{
                "PicklistUrl": "PortletType",
                "PicklistDisplayText": "Code,Name",
                "PicklistSearchFields": "Code,Name",
                "Multiple": false,
                "Required":true,
                "SLno":1,
                "PicklistSelection": "Id",
                "PlaceHolder":"Enter Code",
                "PicklistTitle": "Code",
                "Label": "Code*",
                "Width": 160,
                "AddNew": true,
                "MaxLength": 10,
                "ColumnWidth": "200,300",
                "ColumnType": "string,string",
                "isKeyField": true
            },
            "PortletTypeName": {
                "PicklistUrl": "PortletType",
                "PicklistDisplayText": "Code,Name",
                "PicklistSearchFields": "Code,Name",
                "Multiple": false,
                "Required":true,
                "PicklistSelection": "Id",
                "PlaceHolder":"Enter Name",
                "PicklistTitle": "Name",
                "Label": "Name*",
                "Width": 360,
                "AddNew": true,
                "MaxLength": 35,
                "ColumnWidth": "200,300",
                "ColumnType": "string,string",
                "isKeyField": true
            }
        },
        {
            "Name": "PortletTypeId",
            "Type": "number",
            "Required": true,
            "ValidRegEx": "",
            "DefaultValue": 0,
            "width": 100
        },
        {
            "Name": "PortletTypeCode",
            "Type": "string",
            "Label": "Code*",
            "PostData": true,
            "Required":true,
            "ValidRegEx": "",
            "DefaultValue": "",
            "Width": 250
        },
        {
            "Name": "PortletTypeName",
            "Type": "string",
            "Label": "Name*",
            "PostData": true,
            "Required":true,
            "ValidRegEx": "",
            "DefaultValue": "",
            "Width": 250
        },
        {
            "Name": "PortletTypeIsMaximize",
            "Type": "number",
            "Required": true,
            "ValidRegEx": "",
            "DefaultValue": 1,
            "LabelWidth":"32",
            "Label": "Maximize Applicable?",
            "Placeholder": "",
            "width": 100
        },
        {
            "Name": "PortletTypeIsResize",
            "Type": "number",
            "Required": true,
            "ValidRegEx": "",
            "DefaultValue": 1,
            "LabelWidth":"32",
            "Label": "Resize Applicable?",
            "Placeholder": "",
            "width": 100
        },
        {
            "Name": "PortletTypeIsPrint",
            "Type": "number",
            "Required": true,
            "ValidRegEx": "",
            "DefaultValue": 1,
            "LabelWidth":"32",
            "Label": "Print Applicable?",
            "Placeholder": "",
            "width": 100
        },
        {
            "Name": "PortletTypeIsExport",
            "Type": "number",
            "Required": true,
            "ValidRegEx": "",
            "DefaultValue": 1,
            "LabelWidth":"32",
            "Label": "Export Applicable?",
            "Placeholder": "",
            "width": 100
        },
        {
            "Name": "PortletTypeIsSettingsId",
            "Type": "number",
            "Required": true,
            "ValidRegEx": "",
            "DefaultValue": 1,
            "LabelWidth":"32",
            "Label": "Settings Changeable?",
            "Placeholder": "",
            "width": 100
        },
        {
            "Name": "PortletTypeIsChangeSettings",
            "Type": "number",
            "Required": false,
            "PostData": true,
            "ValidRegEx": "",
            "DefaultValue": 1,
            "width": 100
        },
        {
            "Name": "PortletTypeStatus",
            "Type": "number",
            "Required": false,
            "PostData": true,
            "ValidRegEx": "",
            "DefaultValue": 1,
            "width": 100
        },
        {
            "Name": "PortletTypeVersion",
            "Type": "number",
            "Required": false,
            "PostData": true,
            "ValidRegEx": "",
            "DefaultValue": 1,
            "width": 100
        },
        {
            "Name": "PortletTypeCreatedOn",
            "Type": "string",
            "Required": false,
            "PostData": true,
            "ValidRegEx": "",
            "DefaultValue": "/Date(1710155100000)/",
            "width": 100
        },
        {
            "Name": "PortletTypeModifiedOn",
            "Type": "string",
            "Required": false,
            "PostData": true,
            "ValidRegEx": "",
            "DefaultValue": "/Date(1710155100000)/",
            "width": 100
        },
        {
            "Name": "PortletTypeCreatedByName",
            "Type": "string",
            "Required": false,
            "PostData": true,
            "ValidRegEx": "",
            "DefaultValue": "ADMIN",
            "width": 100
        },
        {
            "Name": "PortletTypeModifiedByName",
            "Type": "string",
            "Required": false,
            "PostData": true,
            "ValidRegEx": "",
            "DefaultValue": "ADMIN",
            "width": 100
        },
        {
            "Name": "PortletTypeModifiedOn",
            "Type": "number",
            "Required": false,
            "PostData": true,
            "ValidRegEx": "",
            "DefaultValue": 1,
            "width": 100
        },
        {
            "Name": "PortleTypeSourceType",
            "Type": "number",
            "Required": false,
            "PostData": true,
            "ValidRegEx": "",
            "DefaultValue": 5,
            "width": 100
        }
    ]
}