{
    "ObjectFields": [
        {
            "PriceCategoryCode": {
                "PicklistUrl": "PriceCategory",
                "PicklistDisplayText": "Code,Name",
                "PicklistSearchFields": "Code",
                "SLno":1,
                "Multiple": false,
                "PicklistSelection": "Id",
                "PlaceHolder": "Enter Code",
                "PicklistTitle": "Code",
                "Label": "Code*",
                "Width": 160,
                "AddNew": true,
                "MaxLength": 10,
                "ColumnWidth": "170,250",
                "ColumnType": "string,string",
                "isKeyField": true
            },
            "PriceCategoryName": {
                "PicklistUrl": "PriceCategory",
                "PicklistDisplayText": "Code,Name",
                "PicklistSearchFields": "Name",
                "Multiple": false,
                "PlaceHolder": "Enter Name",
                "PicklistSelection": "Id",
                "PicklistTitle": "Name",
                "Label": "Name*",
                "Width": 360,
                "MaxLength": 35,
                "AddNew": true,
                "ColumnWidth": "170,250",
                "ColumnType": "string,string",
                "isKeyField": true
            }
        },
        {
            "Name": "PriceCategoryId",
            "Type": "number",
            "Required": false,
            "ValidRegEx": "",
            "DefaultValue": 0
        },
        {
            "Name": "PriceCategoryCode",
            "Type": "string",
            "Required": true,
            "ValidRegEx": "",
            "Label": "Code *",
            "DefaultValue": ""
        },
        {
            "Name": "PriceCategoryName",
            "Type": "string",
            "Required": true,
            "ValidRegEx": "",
            "Label": "Name *",
            "DefaultValue": ""
        },
        {
            "Name": "PriceCategoryIsSelected",
            "Type": "number",
            "Required": false,
            "ValidRegEx": "",
            "Label": "Selected",
            "LabelWidth":33, 
            "Placeholder": "",
            "Width": 200,
            "DefaultValue": 1
        },
        {
            "Name": "PriceCategoryCreatedOn",
            "Type": "string",
            "Required": false,
            "ValidRegEx": "",
            "DefaultValue": "/Date(1708424940000)/"
        },
        {
            "Name": "PriceCategoryCreatedByName",
            "Type": "string",
            "Required": false,
            "ValidRegEx": "",
            "DefaultValue": "ADMIN"
        },
        {
            "Name": "PriceCategoryModifiedOn",
            "Type": "string",
            "Required": false,
            "ValidRegEx": "",
            "DefaultValue": "/Date(1708424940000)/"
        },
        {
            "Name": "PriceCategoryModifiedByName",
            "Type": "string",
            "Required": false,
            "ValidRegEx": "",
            "DefaultValue": "ADMIN"
        },
        {
            "Name": "PriceCategoryStatus",
            "Type": "number",
            "Required": false,
            "ValidRegEx": "",
            "DefaultValue": 1
        },
        {
            "Name": "PriceCategoryVersion",
            "Type": "number",
            "Required": false,
            "ValidRegEx": "",
            "DefaultValue": 1
        }
    ]
}