{
    "ObjectFields": [
      {
        "SelectionCycleCode": {
          "PicklistUrl": "SelectionCycle",
          "PicklistDisplayText": "Code,Name",
          "PicklistSearchFields": "Code,Name",
          "Multiple": false,
          "PicklistSelection": "Id",
          "PicklistTitle": "Name",
          "PlaceHolder":"Enter Code",
          "SLno":1,
          "Label": "Code*",
          "MaxLength": 10,
          "Width": 160,
          "AddNew": true,
          "ColumnWidth": "200,400",
          "ColumnType": "string,string",
          "isKeyField": true
        },
        "SelectionCycleName": {
          "PicklistUrl": "SelectionCycle",
          "PicklistDisplayText": "Code,Name",
          "PicklistSearchFields": "Code,Name",
          "Multiple": false,
          "PicklistSelection": "Id",
          "PicklistTitle": "Name",
          "Label": "Name*",
          "MaxLength": 50,
          "PlaceHolder":"Enter Name",
          "Width": 360,
          "AddNew": true,
          "ColumnWidth": "200,400",
          "ColumnType": "string,string",
          "isKeyField": true
        }
      },
      {
        "Name": "SelectionCycleId",
        "Type": "number",
        "Required": false,
        "PostData": true,
        "DefaultValue": 0
      },
      {
        "Name": "SelectionCycleName",
        "Type": "string",
        "Required": true,
        "PostData": true,
        "ValidRegEx": "",
        "DefaultValue": "",
        "Label": "Name*"
      },
      {
        "Name": "SelectionCycleCode",
        "Type": "string",
        "Required": true,
        "PostData": true,
        "ValidRegEx": "",
        "DefaultValue": "",
        "Label": "Code*"
      },
      {
        "Name": "SelectionCycleRemarks",
        "Type": "string",
        "Required": false,
        "PostData": true,
        "ValidRegEx": "",
        "DefaultValue": "",
        "Label": "Remarks",
        "Placeholder":"Enter Remarks",
        "Width":360,
        "LabelWidth":73,
        "MaxLength":2000
      },
      {
        "Name": "SelectionCycleDetailArray",
        "Type": "string",
        "Label": "",
        "Tooltip": "",
        "Placeholder": "",
        "IsFieldRequired": true,
        "Required": true,
        "PostData": true,
        "Grid": [
          {
            "Label": "#",
            "value": "SelectionCycleDetailSlNo",
            "width": 50,
            "Type": "DefaultSNo",
            "IsVisible": true,
            "SNo": 1,
            "sticky": false,
            "Required": false,
            "PostData": true,
            "left": 0
          },
          {
            "Label": "Round*",
            "value": "SelectionRoundName",
            "width": 220,
            "Type": "Picklist",
            "IsVisible": true,
            "SNo": 2,
            "sticky": false,
            "Required": true,
            "DefaultValue":"",
            "PostData": true,
            "left": 0,
            "PicklistDetail": {
              "PicklistUrl": "SelectionRound",
              "PicklistDisplayText": "Code,Name",
              "PicklistSearchFields": "Code,Name",
              "Multiple": false,
              "PicklistSelection": "Id",
              "PicklistTitle": "Name",
              "PlaceHolder":"Select Round",
              "Label": "",
              "Width": 200,
              "LinkId": "SelectionRoundId,SelectionRoundName",
              "AddNew": false,
              "MaxLength": 35,
              "ColumnWidth": "200,200",
              "ColumnType": "string,string"
            }
          },
          {
            "Label": "Weightage",
            "value": "SelectionCycleDetailWeightage",
            "width": 150,
            "Type": "number",
            "IsVisible": true,
            "Required": false,
            "Placeholder":"Enter Weightage",
            "PostData": true,
            "SNo": 3,
            "sticky": false,
            "DefaultValue": 0,
            "left": 0,
            "MaxLength":3
          },
          {
            "Label": "",
            "value": "SelectionCycleDetailId",
            "width": 200,
            "Type": "number",
            "IsVisible": false,
            "sticky": false,
            "SNo": 4,
            "left": 0,
            "Required": false,
            "PostData": true,
            "DefaultValue": -1
          },
          {
            "value": "SelectionRoundId",
            "width": 50,
            "Type": "number",
            "IsVisible": false,
            "SNo": 5,
            "sticky": false,
            "left": 0,
            "Required": false,
            "PostData": true,
            "DefaultId": false,
            "DefaultValue": -1
          },
          {
            "value": "undefined",
            "Type": "string",
            "IsVisible": false,
            "SNo": 6,
            "sticky": false,
            "DefaultValue": "",
            "left": 0,
            "Required": false,
            "PostData": true
          }
        ]
      },
     
      {
        "Name": "SelectionCycleStatus",
        "Type": "number",
        "Required": false,
        "PostData": true,
        "ValidRegEx": "",
        "DefaultValue": 1
      },
      {
        "Name": "SelectionCycleVersion",
        "Type": "number",
        "Required": false,
        "PostData": true,
        "ValidRegEx": "",
        "DefaultValue": 1
      }
    ]
    
  }