{
    "ObjectFields": [
        {
            "TDSCategoryCode": {
                "PicklistUrl": "TDSCategoryMaster",
                "PicklistDisplayText": "Code,Name",
                "PicklistSearchFields": "Code,Name",
                "Multiple": false,
                "PicklistSelection": "Id",
                "PicklistTitle": "Code",
                "PlaceHolder":"Enter Code",
                "Label": "Code*",
                "Width": 160,
                "AddNew": true,
                "MaxLength": 10,
                "SLno":1,
                "ColumnWidth": "200,300",
                "ColumnType": "string,string",
                "isKeyField": true
            },
            "TDSCategoryName": {
                "PicklistUrl": "TDSCategoryMaster",
                "PicklistDisplayText": "Code,Name",
                "PicklistSearchFields": "Code,Name",
                "PlaceHolder":"Enter Name",
                "Multiple": false,
                "PicklistSelection": "Id",
                "PicklistTitle": "Name",
                "Label": "Name*",
                "Width": 360,
                "AddNew": true,
                "MaxLength": 30,
                "ColumnWidth": "200,300",
                "ColumnType": "string,string",
                "isKeyField": true
            },
            "TDSCategorySection": {
                "PicklistUrl": "GCM",
                "PicklistDisplayText": "Code,Name",
                "PicklistSearchFields": "Code",
                "Multiple": false,
                "PicklistSelection": "Id",
                "LinkId": "GcmType.Id",
                "PlaceHolder":"Select Section",
                "PicklistTitle": "Name",
                "Label": "Section*",
                "Width": 360,
                "LabelWidth":136,
                "AddNew": false,
                "MaxLength": 10,
                "ColumnWidth": "200,300",
                "ColumnType": "string,string",
                "PicklistCriteria": "GCMSection"
            },
            "DeducationAccountName": {
                "PicklistUrl": "Account",
                "PicklistDisplayText": "Code,Name",
                "PicklistSearchFields": "Name",
                "Multiple": false,
                "LinkId": "DeducationAccountId",
                "PicklistSelection": "Id",
                "PlaceHolder":"Select Deducation Account",
                "PicklistTitle": "Name",
                "Label": "Deducation Account*",
                "Width": 360,
                "AddNew": false,
                "LabelWidth":236,
                "MaxLength": 20,
                "ColumnWidth": "200,300",
                "ColumnType": "string,string"
            },
            "PaidAccountName": {
                "PicklistUrl": "Account",
                "PicklistDisplayText": "Code,Name",
                "PicklistSearchFields": "Name",
                "Multiple": false,
                "LinkId": "PaidAccountId",
                "PicklistSelection": "Id",
                "PlaceHolder":"Select Paid Account",
                "PicklistTitle": "Name",
                "Label": "Paid Account*",
                "LabelWidth":147,
                "Width": 360,
                "AddNew": false,
                "MaxLength": 20,
                "ColumnWidth": "200,300",
                "ColumnType": "string,string",
                "PicklistCriteria": "TypePA"
            },
            "ClaimAccountName": {
                "PicklistUrl": "Account",
                "PicklistDisplayText": "Code,Name",
                "PicklistSearchFields": "Name",
                "Multiple": false,
                "LinkId": "ClaimAccountId",
                "PlaceHolder":"Select Claim Account",
                "PicklistSelection": "Id",
                "PicklistTitle": "Name",
                "Label": "Claim Account*",
                "Width": 360,
                "AddNew": false,
                "LabelWidth":236,
                "MaxLength": 20,
                "ColumnWidth": "200,300",
                "ColumnType": "string,string"
            },
            "SufferedAccountName": {
                "PicklistUrl": "Account",
                "PicklistDisplayText": "Code,Name",
                "PicklistSearchFields": "Name",
                "Multiple": false,
                "LinkId": "SufferedAccountId",
                "PlaceHolder":"Select Suffered Account",
                "PicklistSelection": "Id",
                "PicklistTitle": "Name",
                "Label": "Suffered Account*",
                "Width": 360,
                "AddNew": false,
                "LabelWidth":236,
                "MaxLength": 20,
                "ColumnWidth": "200,300",
                "ColumnType": "string,string"
            },
            "TDSCategoryReferenceSection": {
                "PicklistUrl": "GCM",
                "PicklistDisplayText": "Code,Name",
                "PicklistSearchFields": "Code",
                "Multiple": false,
                "PicklistSelection": "Id",
                "LinkId": "GcmType.Id",
                "PlaceHolder":"Select Reference",
                "PicklistTitle": "Name",
                "Label": "Reference*",
                "Width": 360,
                "AddNew": false,
                "MaxLength": 20,
                "LabelWidth":136,
                "ColumnWidth": "200,300",
                "ColumnType": "string,string",
                "PicklistCriteria": "GCMReferenceSection"
            },
            "TDSCategoryForm": {
                "PicklistUrl": "GCM",
                "PicklistDisplayText": "Code,Name",
                "PicklistSearchFields": "Code",
                "Multiple": false,
                "LinkId": "GcmType.Id",
                "PicklistSelection": "Id",
                "PicklistTitle": "Name",
                "PlaceHolder":"Select Form",
                "Label": "Form*",
                "Width": 360,
                "LabelWidth":136,
                "AddNew": false,
                "MaxLength": 10,
                "ColumnWidth": "200,300",
                "ColumnType": "string,string",
                "PicklistCriteria": "GCMForm"
            }
            
        
        },
        {
            "Name": "TDSCategoryId",
            "Type": "number",
            "Required": false,
            "PostData": true,
            "ValidRegEx": "",
            "DefaultValue": 0,
            "Width": 200
        },
        {
            "Name": "TDSCategoryCode",
            "Type": "string",
            "Label": "Code*",
            "PostData": true,
            "Required": true,
            "ValidRegEx": "",
            "DefaultValue": "",
            "Width": 200,
            "FormPicklist": {
                "PicklistUrl": "TDSCategoryMaster",
                "PicklistDisplayText": "Code,Name",
                "PicklistSearchFields": "Code,Name",
                "Multiple": false,
                "PicklistSelection": "Id",
                "PicklistTitle": "Code",
                "Label": "Code*",
                "Width": 200,
                "AddNew": true,
                "MaxLength": 10,
                "ColumnWidth": "200,300",
                "ColumnType": "string,string",
                "isKeyField": true
            }
        },
        {
            "Name": "TDSCategoryName",
            "Type": "string",
            "Label": "Name*",
            "PostData": true,
            "Required": true,
            "ValidRegEx": "",
            "DefaultValue": "",
            "Width": 200,
            "FormPicklist": {
                "PicklistUrl": "TDSCategoryMaster",
                "PicklistDisplayText": "Code,Name",
                "PicklistSearchFields": "Code,Name",
                "Multiple": false,
                "PicklistSelection": "Id",
                "PicklistTitle": "Name",
                "Label": "Name*",
                "Width": 200,
                "AddNew": true,
                "MaxLength": 30,
                "ColumnWidth": "200,300",
                "ColumnType": "string,string",
                "isKeyField": true
            }
        },
        {
            "Name": "TDSCategorySection",
            "Type": "string",
            "Label": "Section*",
            "PostData": true,
            "Required": true,
            "ValidRegEx": "",
            "DefaultValue": "",
            "Width": 200,
            "FormPicklist": {
                "PicklistUrl": "GCM",
                "PicklistDisplayText": "Code,Name",
                "PicklistSearchFields": "Code",
                "Multiple": false,
                "PicklistSelection": "Id",
                "LinkId": "GcmType.Id",
                "PicklistTitle": "Name",
                "Label": "Section*",
                "Width": 200,
                "AddNew": false,
                "MaxLength": 10,
                "ColumnWidth": "200,300",
                "ColumnType": "string,string"
            }
        },
        {
            "Name": "TDSCategoryReferenceSection",
            "Type": "string",
            "Label": "Reference Section*",
            "PostData": true,
            "Required": true,
            "ValidRegEx": "",
            "DefaultValue": "",
            "Width": 360,
            "FormPicklist": {
                "PicklistUrl": "GCM",
                "PicklistDisplayText": "Code,Name",
                "PicklistSearchFields": "Code",
                "Multiple": false,
                "PicklistSelection": "Id",
                "LinkId": "GcmType.Id",
                "PicklistTitle": "Name",
                "Label": "Reference Section*",
                "Width": 360,
                "AddNew": false,
                "MaxLength": 20,
                "ColumnWidth": "200,300",
                "ColumnType": "string,string"
            }
        },
        {
            "Name": "TDSCategoryForm",
            "Type": "string",
            "Label": "Form*",
            "PostData": true,
            "Required": true,
            "ValidRegEx": "",
            "DefaultValue": "",
            "Width": 360,
            "FormPicklist": {
                "PicklistUrl": "GCM",
                "PicklistDisplayText": "Code,Name",
                "PicklistSearchFields": "Code",
                "Multiple": false,
                "LinkId": "GcmType.Id",
                "PicklistSelection": "Id",
                "PicklistTitle": "Name",
                "Label": "Form*",
                "LabelWidth":136,
                "Width": 360,
                "AddNew": false,
                "MaxLength": 10,
                "ColumnWidth": "200,300",
                "ColumnType": "string,string"
            }
        },
        {
            "Name": "TDSCategoryTDSPercent",
            "Type": "percentage",
            "Required": true,
            "PostData": true,
            "Label": "TDS %",
            "Placeholder": "Enter TDS%",
            "ValidRegEx": "",
            "LabelWidth":136,
            "MaxLength": 6,
            "DefaultValue": 0,
            "Width": 120
        },
        {
            "Name": "TDSCategorySCPercent",
            "Type": "percentage",
            "Label": "SC %",
            "Placeholder": "Enter SC %",
            "Required": true, 
            "PostData": true,
            "ValidRegEx": "",
            "LabelWidth":136,
            "MaxLength": 6,
            "DefaultValue": 0,
            "Width": 120
        },
        {
            "Name": "TDSCategoryCessPercent",
            "Type": "percentage",
            "Label": "Cess %",
            "Placeholder": "Enter Cess %",
            "Required": true,
            "PostData": true,
            "LabelWidth":136,
            "MaxLength": 6,
            "ValidRegEx": "",
            "DefaultValue": 0,
            "Width": 120
        },
        {
            "Name": "TDSCategoryAmountLimit",
            "Type": "number",
            "Label": "Amount Limit",
            "Placeholder": "Enter Amount Limit",
            "Required": true,
            "LabelWidth":147,
            "PostData": true,
            "MaxLength": 19,
            "Mask":"00000000000000.0000",
            "ValidRegEx": "",
            "DefaultValue": 0,
            "Width": 200
        },
        {
            "Name": "TDSCategoryTransactionLimit",
            "Type": "number",
            "Label": "Transaction Limit",
            "Placeholder": "Enter Transaction Limit",
            "Required": true,
            "PostData": true,
            "LabelWidth":147,
            "MaxLength": 19,
            "Mask":"00000000000000.0000",
            "ValidRegEx": "",
            "DefaultValue": 0,
            "Width": 200
        },
        {
            "Name": "DeducationAccountId",
            "Type": "string",
            "Required": false,
            "PostData": true,
            "ValidRegEx": "",
            "DefaultValue": "",
            "Width": 200
        },
        {
            "Name": "DeducationAccountName",
            "Type": "string",
            "Required": true,
            "PostData": true,
            "Label": "Deducation Account*",
            "ValidRegEx": "",
            "DefaultValue": "",
            "Width": 360,
            "FormPicklist": {
                "PicklistUrl": "Account",
                "PicklistDisplayText": "Code,Name",
                "PicklistSearchFields": "Name",
                "Multiple": false,
                "LinkId": "DeducationAccountId",
                "PicklistSelection": "Id",
                "PicklistTitle": "Name",
                "Label": "Deducation Account*",
                "Width": 360,
                "AddNew": false,
                "MaxLength": 20,
                "ColumnWidth": "200,300",
                "ColumnType": "string,string"
            }
        },
        {
            "Name": "PaidAccountId",
            "Type": "string",
            "Required": false,
            "PostData": true,
            "ValidRegEx": "",
            "DefaultValue": "",
            "Width": 200
        },
        {
            "Name": "PaidAccountName",
            "Type": "string",
            "Required": true,
            "PostData": true,
            "Label": "Paid Account*",
            "ValidRegEx": "",
            "DefaultValue": "",
            "Width": 360,
            "FormPicklist": {
                "PicklistUrl": "Account",
                "PicklistDisplayText": "Code,Name",
                "PicklistSearchFields": "Name",
                "Multiple": false,
                "LinkId": "PaidAccountId",
                "PicklistSelection": "Id",
                "PicklistTitle": "Name",
                "Label": "Paid Account*",
                "Width": 360,
                "LabelWidth":147,
                "AddNew": false,
                "MaxLength": 20,
                "ColumnWidth": "200,300",
                "ColumnType": "string,string"
            }
        },
        {
            "Name": "ClaimAccountId",
            "Type": "string",
            "Required": false,
            "PostData": true,
            "ValidRegEx": "",
            "DefaultValue": "",
            "Width": 200
        },
        {
            "Name": "ClaimAccountName",
            "Type": "string",
            "Required": true,
            "PostData": true,
            "ValidRegEx": "",
            "DefaultValue": "",
            "Label": "Claim Account*",
            "Width": 360,
            "FormPicklist": {
                "PicklistUrl": "Account",
                "PicklistDisplayText": "Code,Name",
                "PicklistSearchFields": "Name",
                "Multiple": false,
                "LinkId": "ClaimAccountId",
                "PicklistSelection": "Id",
                "PicklistTitle": "Name",
                "Label": "Claim Account*",
                "Width": 360,
                "LabelWidth":236,
                "AddNew": false,
                "MaxLength": 20,
                "ColumnWidth": "200,300",
                "ColumnType": "string,string"
            }
        },
        {
            "Name": "SufferedAccountId",
            "Type": "string",
            "Required": false,
            "PostData": true,
            "ValidRegEx": "",
            "DefaultValue": "",
            "Width": 200
        },
        {
            "Name": "SufferedAccountName",
            "Type": "string",
            "Required": true,
            "PostData": true,
            "ValidRegEx": "",
            "DefaultValue": "",
            "Label": "Suffered Account*",
            "Width": 360,
            "FormPicklist": {
                "PicklistUrl": "Account",
                "PicklistDisplayText": "Code,Name",
                "PicklistSearchFields": "Name",
                "Multiple": false,
                "LinkId": "SufferedAccountId",
                "PicklistSelection": "Id",
                "PicklistTitle": "Name",
                "Label": "Suffered Account*",
                "Width": 360,
                "AddNew": false,
                "MaxLength": 20,
                "ColumnWidth": "200,300",
                "ColumnType": "string,string"
            }
        },
        {
            "Name": "TDSCategoryRemarks",
            "Type": "string",
            "Label": "Remarks",
            "Required": false,
            "PostData": true,
            "ValidRegEx": "",
            "LabelWidth":136,
            "DefaultValue": "",
            "MaxLength":200,
            "Width": 360,
            "Placeholder": "Enter Remarks"
        },
        {
            "Name": "TDSCategoryCreatedOn",
            "Type": "string",
            "Required": false,
            "PostData": true,
            "ValidRegEx": "",
            "DefaultValue": "/Date(1708592940000)/",
            "Width": 200
        },
        {
            "Name": "TDSCategoryModifiedOn",
            "Type": "string",
            "Required": false,
            "PostData": true,
            "ValidRegEx": "",
            "DefaultValue": "/Date(1708592940000)/",
            "Width": 200
        },
        {
            "Name": "TDSCategoryIsCompany",
            "Type": "number",
            "Label": "Is Company",
            "Required": false,
            "PostData": true,
            "ValidRegEx": "",
            "DefaultValue":0,
            "LabelWidth":0,
            "Width": 200
        },
        {
            "Name": "TDSCategoryModifiedByName",
            "Type": "string",
            "Required": false,
            "PostData": true,
            "ValidRegEx": "",
            "DefaultValue": "ADMIN",
            "Width": 200
        },
        {
            "Name": "TDSCategoryCreatedByName",
            "Type": "string",
            "Required": false,
            "PostData": true,
            "ValidRegEx": "",
            "DefaultValue": "ADMIN",
            "Width": 200
        },
        {
            "Name": "TDSCategoryStatus",
            "Type": "number",
            "Required": false,
            "PostData": true,
            "ValidRegEx": "",
            "DefaultValue": 1,
            "Width": 200
        },
        {
            "Name": "TDSCategoryVersion",
            "Type": "number",
            "Required": false,
            "PostData": true,
            "ValidRegEx": "",
            "DefaultValue": 1,
            "Width": 200
        }
    ]
}