{
    "ObjectFields": [
        {
            "VehicleNumber": {
                "PicklistUrl": "Vechicle",
                "PicklistDisplayText": "Numbers",
                "PicklistSearchFields": "Numbers",
                "Multiple": false,
                "PicklistSelection": "Id",
                "PicklistTitle": "Numbers",
                "Label": "Vechicle number*",
                "Width": 200,
                "AddNew": true,
                "MaxLength": 35,
                "ColumnWidth": "150,250",
                "ColumnType": "string,string",
                "isKeyField": true
            },
            "VehicleTypeName": {
                "PicklistUrl": "GCM",
                "PicklistDisplayText": "Name",
                "PicklistSearchFields": "Name",
                "Multiple": false,
                "PicklistSelection": "Id",
                "PicklistTitle": "Name",
                "Label": "Vehicle Type*",
                "Width": 200,
                "AddNew": true,
                "MaxLength": 35,
                "ColumnWidth": "150,250",
                "ColumnType": "string,string",
                "isKeyField": true,
                "PicklistCriteria": "VehicleGCM"
            },
            "DriverDriverName": {
                "PicklistUrl": "Driver",
                "PicklistDisplayText": "DriverName,LicenseNumber",
                "PicklistSearchFields": "DriverName,LicenseNumber",
                "Multiple": false,
                "PicklistSelection": "Id",
                "PicklistTitle": "DriverName",
                "Label": "Driver*",
                "Width": 200,
                "AddNew": true,
                "MaxLength": 35,
                "ColumnWidth": "150,250",
                "ColumnType": "string,string",
                "isKeyField": true
            },
            "VehicleOUIdsName": {
                "PicklistUrl": "OrgUnit",
                "PicklistDisplayText": "Code,Name",
                "PicklistSearchFields": "Code,Name",
                "Multiple": true,
                "PicklistSelection": "Id",
                "PicklistTitle": "Name",
                "Label": "OU",
                "Width": 200,
                "AddNew": true,
                "MaxLength": 35,
                "ColumnWidth": "150,250",
                "ColumnType": "string,string"
            },
            "InsurancePolicyNumber": {
                "PicklistUrl": "InsuranceMaster",
                "PicklistDisplayText": "PolicyNumber",
                "PicklistSearchFields": "PolicyNumber",
                "Multiple": false,
                "PicklistSelection": "Id",
                "PicklistTitle": "PolicyNumber",
                "Label": "Insurance Number",
                "Width": 200,
                "AddNew": true,
                "MaxLength": 35,
                "ColumnWidth": "150,250",
                "ColumnType": "string,string"
            },
            "OwnerContactName": {
                "PicklistUrl": "ReportLinkType",
                "PicklistDisplayText": "Name,MobileNo",
                "PicklistSearchFields": "Name,MobileNo",
                "Multiple": false,
                "PicklistSelection": "Id",
                "PicklistTitle": "Name",
                "Label": "Owner Contact",
                "Width": 200,
                "AddNew": true,
                "MaxLength": 35,
                "ColumnWidth": "150,250",
                "ColumnType": "string,string"
            },
            "MakeCode": {
                "PicklistUrl": "GCM",
                "PicklistDisplayText": "Code,Name",
                "PicklistSearchFields": "Code,Name",
                "Multiple": false,
                "PicklistSelection": "Id",
                "PicklistTitle": "Name",
                "Label": "Make",
                "Width": 200,
                "AddNew": true,
                "MaxLength": 35,
                "ColumnWidth": "150,250",
                "ColumnType": "string,string",
                "PicklistCriteria": "MakeGcm"
            },
            "FuelTypeName": {
                "PicklistUrl": "Item",
                "PicklistDisplayText": "ItemPicklistCode,ItemPicklistName",
                "PicklistSearchFields": "Name",
                "Multiple": false,
                "PicklistSelection": "Id",
                "PicklistTitle": "ItemPicklistName",
                "Label": "Fuel Type",
                "Width": 200,
                "AddNew": true,
                "MaxLength": 35,
                "ColumnWidth": "150,250",
                "ColumnType": "string,string",
                "PicklistCriteria": "Fuel"
            },
            "CapacityRangeCode": {
                "PicklistUrl": "GCM",
                "PicklistDisplayText": "Code,Name",
                "PicklistSearchFields": "Code,Name",
                "Multiple": false,
                "PicklistSelection": "Id",
                "PicklistTitle": "Name",
                "Label": "Capacity Range",
                "Width": 200,
                "AddNew": false,
                "MaxLength": 35,
                "ColumnWidth": "150,250",
                "ColumnType": "string,string",
                "PicklistCriteria": "Capacityrange"
            },
            "AssetName": {
                "PicklistUrl": "GCM",
                "PicklistDisplayText": "Code,Name",
                "PicklistSearchFields": "Code,Name",
                "Multiple": false,
                "PicklistSelection": "Id",
                "PicklistTitle": "Name",
                "Label": "Asset*",
                "Width": 200,
                "AddNew": true,
                "MaxLength": 35,
                "ColumnWidth": "150,250",
                "ColumnType": "string,string"
            },
            "TransporterName": {
                "PicklistUrl": "Party",
                "PicklistDisplayText": "Code,Name",
                "PicklistSearchFields": "Name",
                "Multiple": false,
                "PicklistSelection": "Id",
                "PicklistTitle": "Name",
                "Label": "Transporter",
                "Width": 200,
                "AddNew": true,
                "MaxLength": 35,
                "ColumnWidth": "150,250",
                "ColumnType": "string,string",
                "PicklistCriteria": "IsServiceProvider"
            }
        },
        {
            "Name": "VehicleId",
            "Type": "number",
            "Required": true,
            "ValidRegEx": "",
            "DefaultValue": 0,
            "Width": 200,
            "MaxLength": 10
        },
        {
            "Name": "VehicleNumber",
            "Type": "string",
            "Label": "Vehicle Number*",
            "Required": true,
            "ValidRegEx": "",
            "DefaultValue": "",
            "Width": 200,
            "MaxLength": 40,
            "isKeyField": true
        },
        {
            "Name": "VehicleTypeId",
            "Type": "number",
            "Required": false,
            "ValidRegEx": "",
            "DefaultValue": 0,
            "Width": 200,
            "MaxLength": 10
        },
        {
            "Name": "VehicleTypeCode",
            "Type": "string",
            "Required": false,
            "ValidRegEx": "",
            "DefaultValue": "",
            "Width": 200,
            "MaxLength": 100
        },
        {
            "Name": "VehicleTypeName",
            "Type": "string",
            "Label": "Vehicle Type*",
            "Required": true,
            "ValidRegEx": "",
            "DefaultValue": "",
            "Width": 200,
            "MaxLength": 100,
            "isKeyField": true
        },
        {
            "Name": "DriverId",
            "Type": "number",
            "Required": true,
            "ValidRegEx": "",
            "DefaultValue": -1,
            "Width": 200,
            "MaxLength": 10
        },
        {
            "Name": "DriverDriverName",
            "Type": "string",
            "Label": "Driver*",
            "Required": true,
            "ValidRegEx": "",
            "DefaultValue": "",
            "Width": 200,
            "MaxLength": 100
        },
        {
            "Name": "VehicleEmptyWeight",
            "Type": "number",
            "Label": "Empty Weight*",
            "Required": true,
            "ValidRegEx": "",
            "DefaultValue": "",
            "Width": 200,
            "MaxLength": 14
        },
        {
            "Name": "VehicleTonnage",
            "Type": "number",
            "Label": "Tonnage*",
            "Required": true,
            "ValidRegEx": "",
            "DefaultValue": "",
            "Width": 200,
            "MaxLength": 14
        },
        {
            "Name": "VehicleOwnerShipType",
            "Type": "number",
            "Required": false,
            "Label": "OwnerShip Type",
            "ValidRegEx": "",
            "PostData": true,
            "DefaultValue": 0,
            "PickLists": [
                {
                    "key": 0,
                    "value": "--Please Select--"
                },
                {
                    "key": 1,
                    "value": "OWN"
                },
                {
                    "key": 2,
                    "value": "CONTRACT"
                },
                {
                    "key": 3,
                    "value": "TRANSPORTER"
                }
            ]
        },
        {
            "Name": "TransporterId",
            "Type": "number",
            "Required": true,
            "ValidRegEx": "",
            "DefaultValue": -1,
            "Width": 200,
            "MaxLength": 10
        },
        {
            "Name": "TransporterCode",
            "Type": "string",
            "Label": "Vehicle Number*",
            "Required": false,
            "ValidRegEx": "",
            "DefaultValue": "None",
            "PostData": false,
            "Width": 200,
            "MaxLength": 0
        },
        {
            "Name": "TransporterName",
            "Type": "string",
            "Label": "Transporter",
            "Required": false,
            "ValidRegEx": "",
            "DefaultValue": "None",
            "PostData": false,
            "Width": 200,
            "MaxLength": 0
        },
        {
            "Name": "AssetId",
            "Type": "number",
            "Required": true,
            "ValidRegEx": "",
            "DefaultValue": -1,
            "Width": 200,
            "MaxLength": 10
        },
        {
            "Name": "AssetCode",
            "Type": "string",
            "Required": false,
            "ValidRegEx": "",
            "DefaultValue": "None",
            "PostData": false,
            "Width": 200,
            "MaxLength": 0
        },
        {
            "Name": "AssetName",
            "Type": "string",
            "Label": "Asset*",
            "Required": true,
            "ValidRegEx": "",
            "DefaultValue": "None",
            "PostData": true,
            "Width": 200,
            "MaxLength": 2
        },
        {
            "Name": "VehicleOUIds",
            "Type": "number",
            "Required": true,
            "ValidRegEx": "",
            "DefaultValue": -1,
            "Width": 200,
            "MaxLength": 10
        },
        {
            "Name": "VehicleOUIdsName",
            "Type": "string",
            "Label": "OU",
            "Required": false,
            "ValidRegEx": "",
            "DefaultValue": "None",
            "PostData": true,
            "Width": 200,
            "MaxLength": 100
        },
        {
            "Name": "VehicleYOM",
            "Type": "number",
            "Required": false,
            "Label": "YOM *",
            "ValidRegEx": "",
            "PostData": true,
            "DefaultValue": 2024,
            "PickLists": [
                {
                    "key": 2024,
                    "value": "2024"
                },
                {
                    "key": 2023,
                    "value": "2023"
                },
                {
                    "key": 2022,
                    "value": "2022"
                },
                {
                    "key": 2021,
                    "value": "2021"
                },
                {
                    "key": 2020,
                    "value": "2020"
                },
                {
                    "key": 2019,
                    "value": "2019"
                },
                {
                    "key": 2018,
                    "value": "2018"
                },
                {
                    "key": 2017,
                    "value": "2017"
                },
                {
                    "key": 2016,
                    "value": "2016"
                },
                {
                    "key": 2015,
                    "value": "2015"
                },
                {
                    "key": 2014,
                    "value": "2014"
                },
                {
                    "key": 2013,
                    "value": "2013"
                },
                {
                    "key": 2012,
                    "value": "2012"
                },
                {
                    "key": 2011,
                    "value": "2011"
                },
                {
                    "key": 2010,
                    "value": "2010"
                },
                {
                    "key": 2009,
                    "value": "2009"
                },
                {
                    "key": 2008,
                    "value": "2008"
                },
                {
                    "key": 2007,
                    "value": "2007"
                },
                {
                    "key": 2006,
                    "value": "2006"
                },
                {
                    "key": 2005,
                    "value": "2005"
                },
                {
                    "key": 2004,
                    "value": "2004"
                },
                {
                    "key": 2003,
                    "value": "2003"
                },
                {
                    "key": 2002,
                    "value": "2002"
                },
                {
                    "key": 2001,
                    "value": "2001"
                },
                {
                    "key": 2000,
                    "value": "2000"
                },
                {
                    "key": 1999,
                    "value": "1999"
                },
                {
                    "key": 1998,
                    "value": "1998"
                },
                {
                    "key": 1997,
                    "value": "1997"
                },
                {
                    "key": 1996,
                    "value": "1996"
                },
                {
                    "key": 1995,
                    "value": "1995"
                },
                {
                    "key": 1994,
                    "value": "1994"
                },
                {
                    "key": 1993,
                    "value": "1993"
                },
                {
                    "key": 1992,
                    "value": "1992"
                },
                {
                    "key": 1991,
                    "value": "1991"
                },
                {
                    "key": 1990,
                    "value": "1990"
                },
                {
                    "key": 1989,
                    "value": "1989"
                },
                {
                    "key": 1988,
                    "value": "1988"
                },
                {
                    "key": 1987,
                    "value": "1987"
                },
                {
                    "key": 1986,
                    "value": "1986"
                },
                {
                    "key": 1985,
                    "value": "1985"
                },
                {
                    "key": 1984,
                    "value": "1984"
                },
                {
                    "key": 1983,
                    "value": "1983"
                },
                {
                    "key": 1982,
                    "value": "1982"
                },
                {
                    "key": 1981,
                    "value": "1981"
                },
                {
                    "key": 1980,
                    "value": "1980"
                },
                {
                    "key": 1979,
                    "value": "1979"
                },
                {
                    "key": 1978,
                    "value": "1978"
                },
                {
                    "key": 1977,
                    "value": "1977"
                },
                {
                    "key": 1976,
                    "value": "1976"
                },
                {
                    "key": 1975,
                    "value": "1975"
                },
                {
                    "key": 1974,
                    "value": "1974"
                },
                {
                    "key": 1973,
                    "value": "1973"
                },
                {
                    "key": 1972,
                    "value": "1972"
                },
                {
                    "key": 1971,
                    "value": "1971"
                },
                {
                    "key": 1970,
                    "value": "1970"
                },
                {
                    "key": 1969,
                    "value": "1969"
                },
                {
                    "key": 1968,
                    "value": "1968"
                },
                {
                    "key": 1967,
                    "value": "1967"
                },
                {
                    "key": 1966,
                    "value": "1966"
                },
                {
                    "key": 1965,
                    "value": "1965"
                },
                {
                    "key": 1964,
                    "value": "1964"
                },
                {
                    "key": 1963,
                    "value": "1963"
                },
                {
                    "key": 1962,
                    "value": "1962"
                },
                {
                    "key": 1961,
                    "value": "1961"
                },
                {
                    "key": 1960,
                    "value": "1960"
                },
                {
                    "key": 1959,
                    "value": "1959"
                },
                {
                    "key": 1958,
                    "value": "1958"
                },
                {
                    "key": 1957,
                    "value": "1957"
                },
                {
                    "key": 1956,
                    "value": "1956"
                },
                {
                    "key": 1955,
                    "value": "1955"
                },
                {
                    "key": 1954,
                    "value": "1954"
                },
                {
                    "key": 1953,
                    "value": "1953"
                },
                {
                    "key": 1952,
                    "value": "1952"
                },
                {
                    "key": 1951,
                    "value": "1951"
                },
                {
                    "key": 1950,
                    "value": "1950"
                },
                {
                    "key": 1949,
                    "value": "1949"
                },
                {
                    "key": 1948,
                    "value": "1948"
                },
                {
                    "key": 1947,
                    "value": "1947"
                },
                {
                    "key": 1946,
                    "value": "1946"
                },
                {
                    "key": 1945,
                    "value": "1945"
                },
                {
                    "key": 1944,
                    "value": "1944"
                },
                {
                    "key": 1943,
                    "value": "1943"
                },
                {
                    "key": 1942,
                    "value": "1942"
                },
                {
                    "key": 1941,
                    "value": "1941"
                },
                {
                    "key": 1940,
                    "value": "1940"
                },
                {
                    "key": 1939,
                    "value": "1939"
                },
                {
                    "key": 1938,
                    "value": "1938"
                },
                {
                    "key": 1937,
                    "value": "1937"
                },
                {
                    "key": 1936,
                    "value": "1936"
                },
                {
                    "key": 1935,
                    "value": "1935"
                },
                {
                    "key": 1934,
                    "value": "1934"
                },
                {
                    "key": 1933,
                    "value": "1933"
                },
                {
                    "key": 1932,
                    "value": "1932"
                },
                {
                    "key": 1931,
                    "value": "1931"
                },
                {
                    "key": 1930,
                    "value": "1930"
                },
                {
                    "key": 1929,
                    "value": "1929"
                },
                {
                    "key": 1928,
                    "value": "1928"
                },
                {
                    "key": 1927,
                    "value": "1927"
                },
                {
                    "key": 1926,
                    "value": "1926"
                },
                {
                    "key": 1925,
                    "value": "1925"
                },
                {
                    "key": 1924,
                    "value": "1924"
                },
                {
                    "key": 1923,
                    "value": "1923"
                },
                {
                    "key": 1922,
                    "value": "1922"
                },
                {
                    "key": 1921,
                    "value": "1921"
                },
                {
                    "key": 1920,
                    "value": "1920"
                },
                {
                    "key": 1919,
                    "value": "1919"
                },
                {
                    "key": 1918,
                    "value": "1918"
                },
                {
                    "key": 1917,
                    "value": "1917"
                },
                {
                    "key": 1916,
                    "value": "1916"
                },
                {
                    "key": 1915,
                    "value": "1915"
                },
                {
                    "key": 1914,
                    "value": "1914"
                },
                {
                    "key": 1913,
                    "value": "1913"
                },
                {
                    "key": 1912,
                    "value": "1912"
                },
                {
                    "key": 1911,
                    "value": "1911"
                },
                {
                    "key": 1910,
                    "value": "1910"
                },
                {
                    "key": 1909,
                    "value": "1909"
                },
                {
                    "key": 1908,
                    "value": "1908"
                },
                {
                    "key": 1907,
                    "value": "1907"
                },
                {
                    "key": 1906,
                    "value": "1906"
                },
                {
                    "key": 1905,
                    "value": "1905"
                },
                {
                    "key": 1904,
                    "value": "1904"
                },
                {
                    "key": 1903,
                    "value": "1903"
                },
                {
                    "key": 1902,
                    "value": "1902"
                },
                {
                    "key": 1901,
                    "value": "1901"
                }
            ]
        },
        {
            "Name": "VehicleRoadTaxValidity",
            "Type": "string",
            "Label": "Road Tax Validity",
            "Required": false,
            "ValidRegEx": "",
            "DefaultValue": "",
            "PostData": true,
            "Width": 200,
            "MaxLength": 100
        },
        {
            "Name": "VehicleFCDate",
            "Type": "string",
            "Label": "FC Date",
            "Required": false,
            "ValidRegEx": "",
            "DefaultValue": "",
            "PostData": true,
            "Width": 200,
            "MaxLength": 100
        },
        {
            "Name": "VehicleFCExpiryDate",
            "Type": "string",
            "Label": "FC Expiry Date",
            "Required": false,
            "ValidRegEx": "",
            "DefaultValue": "",
            "PostData": true,
            "Width": 200,
            "MaxLength": 100
        },
        {
            "Name": "InsuranceId",
            "Type": "number",
            "Required": false,
            "ValidRegEx": "",
            "DefaultValue": -1,
            "Width": 200,
            "MaxLength": 10
        },
        {
            "Name": "InsurancePolicyNumber",
            "Type": "string",
            "Label": "Insurance Number",
            "Required": false,
            "ValidRegEx": "",
            "DefaultValue": "",
            "PostData": true,
            "Width": 200,
            "MaxLength": 100
        },
        {
            "Name": "InsuranceEndDate",
            "Type": "string",
            "Label": "FC Expiry Date",
            "Required": false,
            "ValidRegEx": "",
            "DefaultValue": "",
            "PostData": true,
            "Width": 200,
            "MaxLength": 100
        },
        {
            "Name": "OwnerContactId",
            "Type": "number",
            "Required": false,
            "ValidRegEx": "",
            "DefaultValue": -1,
            "Width": 200,
            "MaxLength": 10
        },
        {
            "Name": "OwnerContactName",
            "Type": "string",
            "Label": "Owner Contact",
            "Required": false,
            "ValidRegEx": "",
            "DefaultValue": "",
            "PostData": true,
            "Width": 200,
            "MaxLength": 2
        },
        {
            "Name": "MakeId",
            "Type": "number",
            "Required": false,
            "ValidRegEx": "",
            "DefaultValue": -1,
            "Width": 200,
            "MaxLength": 10
        },
        {
            "Name": "MakeCode",
            "Type": "string",
            "Required": false,
            "Label": "Make",
            "ValidRegEx": "",
            "DefaultValue": "",
            "PostData": true,
            "Width": 200,
            "MaxLength": 2
        },
        {
            "Name": "MakeName",
            "Type": "string",
            "Required": false,
            "ValidRegEx": "",
            "DefaultValue": "",
            "PostData": true,
            "Width": 200,
            "MaxLength": 2
        },
        {
            "Name": "FuelTypeId",
            "Type": "number",
            "Required": false,
            "ValidRegEx": "",
            "DefaultValue": -1,
            "Width": 200,
            "MaxLength": 10
        },
        {
            "Name": "FuelTypeCode",
            "Type": "string",
            "Required": false,
            "Label": "Fuel Type",
            "ValidRegEx": "",
            "DefaultValue": "",
            "PostData": true,
            "Width": 200,
            "MaxLength": 2
        },
        {
            "Name": "FuelTypeName",
            "Type": "string",
            "Required": false,
            "Label": "Fuel Type",
            "ValidRegEx": "",
            "DefaultValue": "",
            "PostData": true,
            "Width": 200,
            "MaxLength": 2
        },
        {
            "Name": "CapacityRangeId",
            "Type": "number",
            "Required": false,
            "ValidRegEx": "",
            "DefaultValue": -1,
            "Width": 200,
            "MaxLength": 10
        },
        {
            "Name": "CapacityRangeCode",
            "Type": "string",
            "Required": false,
            "Label": "Capacity Range",
            "ValidRegEx": "",
            "DefaultValue": "",
            "PostData": true,
            "Width": 200,
            "MaxLength": 2
        },
        {
            "Name": "CapacityRangeName",
            "Type": "string",
            "Required": false,
            "ValidRegEx": "",
            "DefaultValue": "",
            "PostData": true,
            "Width": 200,
            "MaxLength": 2
        },
        {
            "Name": "VehicleMinimumTonnage",
            "Type": "number",
            "Label": "Minimum Tonnage*",
            "Required": true,
            "ValidRegEx": "",
            "DefaultValue": "",
            "Width": 200,
            "MaxLength": 14
        },
        {
            "Name": "VehicleCreatedById",
            "Type": "number",
            "Required": false,
            "ValidRegEx": "",
            "DefaultValue": -1,
            "Width": 200,
            "MaxLength": 10
        },
        {
            "Name": "VehicleCreatedOn",
            "Type": "string",
            "Required": false,
            "ValidRegEx": "",
            "DefaultValue": "/Date(1638852863000)/",
            "PostData": true,
            "Width": 200,
            "MaxLength": 2
        },
        {
            "Name": "VehicleModifiedOn",
            "Type": "string",
            "Required": false,
            "ValidRegEx": "",
            "DefaultValue": "/Date(1638852863000)/",
            "PostData": true,
            "Width": 200,
            "MaxLength": 2
        },
        {
            "Name": "VehicleModifiedById",
            "Type": "number",
            "Required": false,
            "ValidRegEx": "",
            "DefaultValue": -1,
            "Width": 200,
            "MaxLength": 10
        },
        {
            "Name": "VehicleSortOrder",
            "Type": "number",
            "Required": false,
            "ValidRegEx": "",
            "DefaultValue": 0,
            "Width": 200,
            "MaxLength": 10
        },
        {
            "Name": "VehicleStatus",
            "Type": "number",
            "Required": false,
            "ValidRegEx": "",
            "DefaultValue": 1,
            "Width": 200,
            "MaxLength": 10
        },
        {
            "Name": "VehicleVersion",
            "Type": "number",
            "Required": false,
            "ValidRegEx": "",
            "DefaultValue": 7,
            "Width": 200,
            "MaxLength": 10
        }
    ]
}