[
    {
      "headerName": "Code",
      "field": "ItemBrandCode"
    },
    {
      "headerName": "Name",
      "field": "ItemBrandName"
    },
    {
      "headerName": "Remarks",
      "field": "ItemBrandRemarks"
    },
    {
      "headerName": "Selected",
      "field": "ItemBrandIsSelected"
    }
  ]
  