[
{
"chartType" : "area-chart",
"show" : true,
"chartTheme" :"dark",   
"view" :  [700, 400],
"showXAxis" : true,
"showYAxis" : true,
"gradient" : true,
"showLegend" : true,
"legendTitle" : "Years",
"showXAxisLabel" : true,
"showYAxisLabel" : true,
"xAxisLabel" : "Number",
"yAxisLabel" : "data",
"timeline" : true,
"showLabels": true,
"animations": true,
"xAxis" :true,
"yAxis" : true,
"legend": true,
"legendPosition": "below",
"isDoughnut" :  false,
"schemeType": "linear",
"xScaleMin" : true,
"xScaleMax" : true,
"yScaleMin" : 70,
"yScaleMax" : 85,
"minRadius" : 20,
"maxRadius" : 5,
"colorScheme": 
 {
  "domain": [ "#5AA454", "#E44D25", "#CFC0BB", "#7aa3e5", "#a8385d", "#aae3f5" ]
 }
}
    
]



