[
    {
        "headerName": "Code",
        "field": "CheckingCode"
    },
    {
        "headerName": "Name",
        "field": "CheckingName"
    },
    {
        "headerName": "Display Name",
        "field": "CheckingDisplayText"
    },
    {
        "headerName": "Type",
        "field": "CheckingType"
    }
    
]