[
    { "headerName": "Athlete",
      "field": "Athlete",
      "sortable": true,
      "checkboxSelection": true,
      "resizable": true,
      "editable": true,
      "pinned": "left",
      "flex": 1,
      "minWidth": 100,
      "enableRowGroup": true,
      "enablePivot": true,
      "enableValue": true,
      "paginationAutoPageSize": true,
      "pagination":true
    },
    {
      "headerName": "Age",
      "field": "Age",
      "sortable": true, 
      "filter": "agNumberColumnFilter",
      "resizable": true,
      "editable": true
    },
    {
      "headerName": "Country",
      "field": "Country",
      "sortable": true, 
      "filter": "agTextColumnFilter",
      "resizable": true,
      "editable": true,
      "cellEditor": "agSelectCellEditor",
      "cellEditorParams": {
        "values":["United States","Russia","Australia","Sweden",
          "Ukraine","Japan","Germany"]
      }
    },
    {
      "headerName": "Year",
      "field": "Year",
      "sortable": true, 
      "filter": "agNumberColumnFilter",
      "resizable": true,
      "editable": true
    },
   
    {
      "headerName": "Date",
      "field": "Date",
      "sortable": true, 
      "filter": "agDateColumnFilter",
      "resizable": true,
      "editable": true
    },
    {
      "headerName": "Sport",
      "field": "Sport",
      "sortable": true, 
      "filter": "agTextColumnFilter",
      "resizable": true,
      "editable": true
    }

]