[
    {
        "Id": -1500000000,
        "Code": "BMW",
        "Name": "BMW"
    },
    {
        "Id": "",
        "Code": "BMW",
        "Name": "BMW"
    },
    {
        "Id": "",
        "Code": "",
        "Name": "BMW"
    },
    {
        "Id": "",
        "Code": "",
        "Name": ""
    }
]