{
    "ID": "SC0013",
    "Name": "Gbabout",
    "ObjectFields": [
      {
        "Name": "MenuCode",
        "Type": "string",
        "Label": "MenuCode",
        "Required": true,
        "ValidRegEx": "",
        "DefaultValue": "0"
      },
      {
        "Name": "MenuName",
        "Type": "string",
        "Label": "MenuName",
        "Required": true,
        "ValidRegEx": "",
        "DefaultValue": 1
      },
      {
        "Name": "MenuDescription",
        "Type": "string",
        "Label": "MenuDescription",
        "Required": true,
        "ValidRegEx": "",
        "DefaultValue": 1
      },
      {
        "Name": "MenuSection",
        "Type": "string",
        "Label": "MenuSection",
        "Tooltip": "",
        "Placeholder": "--Select--",
        "Required": false,
        "ValidRegEx": ""
      },
      {
        "Name": "WebFormName",
        "Type": "string",
        "Label": "WebFormName",
        "Required": true,
        "ValidRegEx": "",
        "DefaultValue": 1
      },
      {
        "Name": "WebFormURL",
        "Type": "string",
        "Label": "WebFormURL",
        "Required": true,
        "ValidRegEx": "",
        "DefaultValue": 1
      },
      {
        "Name": "SaveWebServiceName",
        "Type": "string",
        "Label": "SaveWebServiceName",
        "Required": true,
        "ValidRegEx": "",
        "DefaultValue": 1
      },
      {
        "Name": "GetWebServiceName",
        "Type": "string",
        "Label": "GetWebServiceName",
        "Required": true,
        "ValidRegEx": "",
        "DefaultValue": 1
      },
      {
        "Name": "DeleteWebServiceName",
        "Type": "string",
        "Label": "DeleteWebServiceName",
        "Required": true,
        "ValidRegEx": "",
        "DefaultValue": 1
      }
    ]
  }