{
    "ID": "SC0012",
    "Name": "GbLog",
    "EntityID": {
      "ID": "-1899997741"
    },
    "ObjectFields": [
      {
        "Name": "UserName",
        "Type": "string",
        "Label": "UserName",
        "Required": true,
        "ValidRegEx": "",
        "DefaultValue": "0"
      },
      {
        "Name": "UserCode",
        "Type": "string",
        "Label": "UserCode",
        "Required": true,
        "ValidRegEx": "",
        "DefaultValue": 1
      },
      {
        "Name": "EventLogLink",
        "Type": "string",
        "Label": "EventLogLink",
        "Required": true,
        "ValidRegEx": "",
        "DefaultValue": 1
      },
      {
        "Name": "EventLogTimeStamp",
        "Type": "string",
        "Label": "EventLogTimeStamp",
        "Tooltip": "",
        "Placeholder": "--Select--",
        "Required": false,
        "ValidRegEx": ""
      }
    ]
  }