{
    "ID": "SC0011",
    "Name": "PackSet",
    "EntityID": {
      "ID": "-11979897"
    },
    "ObjectFields": [
      {
        "Name": "PackSetId",
        "Type": "string",
        "Required": true,
        "ValidRegEx": "",
        "DefaultValue": "0"
      },
      {
        "Name": "PackSetStatus",
        "Type": "string",
        "Required": true,
        "ValidRegEx": "",
        "DefaultValue": 1
      },
      {
        "Name": "PackSetVersion",
        "Type": "string",
        "Required": true,
        "ValidRegEx": "",
        "DefaultValue": 1
      },
      {
        "Name": "PackSetCode",
        "Type": "string",
        "Label": "Code",
        "Tooltip": "",
        "Placeholder": "--Select--",
        "Required": false,
        "ValidRegEx": "",
        "PickLists": [
          "Test1",
          "Test2",
          "Test3"
        ]
      },
      {
        "Name": "PackSetName",
        "Type": "string",
        "Label": "Name",
        "Tooltip": "",
        "Placeholder": "--Select--",
        "Required": false,
        "ValidRegEx": "",
        "PickLists": [
          "Test1",
          "Test2",
          "Test3"
        ]
      },
      {
        "Name": "PackSetDetailConversionType",
        "Type": "string",
        "Label": "Type",
        "Tooltip": "",
        "Placeholder": "--Select--",
        "Required": false,
        "ValidRegEx": "",
        "PickLists": [
          {
            "key": 1,
            "value": "Fixed"
          },
          {
            "key": 2,
            "value": "varying"
          },
          {
            "key": 0,
            "value": "NoConversion"
          }
        ]
      },
      {
        "Name": "PackSetDetailConversionFactor",
        "Type": "number",
        "Label": "Factor",
        "Tooltip": "",
        "Placeholder": "ConFactor",
        "Required": false
      },
      {
        "Name": "PackSetDetailArray",
        "Type": "string",
        "Label": "Packset",
        "Tooltip": "",
        "Placeholder": "",
        "Required": false
      }
    ]
  }