[
    {
        "Id": -1900000000,
        "Code": "NOS",
        "Name": "NOS"
    },
    {
        "Id": "",
        "Code": "NOS",
        "Name": "NOS"
    },
    {
        "Id": "",
        "Code": "",
        "Name": "NOS"
    },
    {
        "Id": "",
        "Code": "",
        "Name": ""
    }
]