[
    {
        "headerName": "Number",
        "field": "Number"
    },
    {
        "headerName": "Date",
        "field": "Date"
    },
    {
        "headerName": "Ref.No",
        "field": "RefNo"
    },
    {
        "headerName": "Ref.Date",
        "field": "RefDate"
    },
    {
        "headerName": "Name",
        "field": "Name"
    },
    {
        "headerName": "Code",
        "field": "Code"
    },
    {
        "headerName": "Qty",
        "field": "Qty"
    },
    {
        "headerName": "Sch.Date",
        "field": "SchDate"
    },
    {
        "headerName": "Person",
        "field": "Person"
    },
    {
        "headerName": "Status",
        "field": "Status"
    }
]


