[ 
    {
        "#": "10",
        "contract ref":"contract 1",
        "code":"56789020",
        "Product name":"Product number 1",
        "Particulars":"ABC corporation",
        "Qty":"2",
        "UOM":"UOM",
        "Rate":"134",
        "Value":"8,457",
        "tax(+)":"15",
        "disc(-)":"10%",
        "value":"134",
        "sch.date":"12/08/2021"
     }, 
     {
        "#": "20",
        "contract ref":"contract 2",
        "code":"874210098",
        "Product name":"Product number 2",
        "Particulars":"BBC corporation",
        "Qty":"10",
        "UOM":"UOM",
        "Rate":"564",
        "Value":"6,240",
        "tax(+)":"12",
        "disc(-)":"5%",
        "value":"6,240",
        "sch.date":"10/08/2021"

      },
      {
        "#": "30",
        "contract ref":"contract 3",
        "code":"024587901",
        "Product name":"Product number 3",
        "Particulars":"ACON pvt ltd",
        "Qty":"254",
        "UOM":"UOM",
        "Rate":"851",
        "Value":"18,512",
        "tax(+)":"13",
        "disc(-)":"2%",
        "value":"18,512",
        "sch.date":"08/08/2021"

     } 
 ]