{
    "Pack": "api/fws/Menu.svc/?MenuId=-1499999158",
    "PackSet": "api/fws/Menu.svc/?MenuId=-1499999157",
    "UOM": "api/fws/Menu.svc/?MenuId=-2147483583",
    "Model": "api/fws/Menu.svc/?MenuId=-1499999112",
    "Brand": "api/fws/Menu.svc/?MenuId=-1499999113",
    "ItemCategory": "api/fws/Menu.svc/?MenuId=-1499999115",
    "ItemSubCategory": "api/fws/Menu.svc/?MenuId=-1499999114"
}
