{
"DetailArray":[
    {
        "WorkOrderCurrent":45,
        "WorkOrderPrevious":36,
        "ItemCurrent":12,
        "ItemPrevious":36,
        "ProcessCurrent":7,
        "ProcessPrevious":36,
        "OrderQuantityCurrent":3400,
        "OrderQuantityPrevious":36,
        "InProcessOrderCurrent":22,
        "InProcessOrderPrevious":36,
        "PlannedOrderCurrent":100,
        "PlannedOrderPrevious":36,
        "FirmPlannedOrderCurrent":40,
        "FirmPlannedOrderPrevious":36,
        "FirmReadyOrderCurrent":7,
        "FirmReadyOrderPrevious":36,        
        "ReleaseOrderCurrent":45,
        "ReleaseOrderPrevious":36
    }
],
"WorkOrderDetailArray":[
    {
        "WONo": "JC/12345",
        "WODate": "12-Mar-22",
        "Code": "I00292",
        "Name": "Component-A",
        "Status": "Completed",
        "Material": "Stainless Steel",
        "Duration": "120 Hours",
        "SchStart": "12-Mar-2023 02:20 AM",
        "SchEnd": "27-Mar-2023 02:20 AM",
        "OrderQuantity": 1000,
        "Produced": 200,
        "Rejected": 13,
        "WIP": 777,
        "Pending": 10,
        "P1":90,
        "P2":0,
        "P3":100,
        "P4":300,
        "P5":87
    },
    {
        "WONo": "JC/12346",
        "WODate": "13-Mar-22",
        "Code": "I00293",
        "Name": "Component-B",
        "Status": "Completed",
        "Material": "Stainless Steel",
        "Duration": "120 Hours",
        "SchStart": "12-Mar-2023 02:20 AM",
        "SchEnd": "27-Mar-2023 02:20 AM",
        "OrderQuantity": 1000,
        "Produced": 200,
        "Rejected": 13,
        "WIP": 777,
        "Pending": 10,
        "P1":90,
        "P2":0,
        "P3":100,
        "P4":300,
        "P5":87
    },
    {
        "WONo": "JC/12347",
        "WODate": "14-Mar-22",
        "Code": "I00294",
        "Name": "Component-C",
        "Status": "Completed",
        "Material": "Stainless Steel",
        "Duration": "150 Hours",
        "SchStart": "12-Mar-2023 02:20 AM",
        "SchEnd": "27-Mar-2023 02:20 AM",
        "OrderQuantity": 1000,
        "Produced": 200,
        "Rejected": 13,
        "WIP": 777,
        "Pending": 10,
        "P1":90,
        "P2":0,
        "P3":100,
        "P4":300,
        "P5":87
    },
    {
        "WONo": "JC/12348",
        "WODate": "15-Mar-22",
        "Code": "I00295",
        "Name": "Component-D",
        "Status": "Completed",
        "Material": "Stainless Alminium",
        "Duration": "110 Hours",
        "SchStart": "12-Mar-2023 02:20 AM",
        "SchEnd": "27-Mar-2023 02:20 AM",
        "OrderQuantity": 1000,
        "Produced": 200,
        "Rejected": 13,
        "WIP": 777,
        "Pending": 10,
        "P1":90,
        "P2":0,
        "P3":100,
        "P4":300,
        "P5":87
    },
    {
        "WONo": "JC/123459",
        "WODate": "16-Mar-22",
        "Code": "I00296",
        "Name": "Component-E",
        "Status": "Pending",
        "Material": "Iron",
        "Duration": "100 Hours",
        "SchStart": "12-Mar-2023 02:20 AM",
        "SchEnd": "27-Mar-2023 02:20 AM",
        "OrderQuantity": 1000,
        "Produced": 200,
        "Rejected": 13,
        "WIP": 777,
        "Pending": 10,
        "P1":90,
        "P2":0,
        "P3":100,
        "P4":300,
        "P5":87
    }
],
"ItemDetailArray":[
    {
        "Code":"ITEM00292",
        "Name":"Item-1",
        "NoofOrder":"JC/12345",
        "OrderQuantity": 100,
        "Produced": 20,
        "Rejected": 13,
        "WIP": 77,
        "Pending": 10,
        "P1":90,
        "P2":0,
        "P3":100,
        "P4":300,
        "P5":87
    },
    {
        "Code":"ITEM00293",
        "Name":"Item-2",
        "NoofOrder":"JC/12346",
        "OrderQuantity": 100,
        "Produced": 20,
        "Rejected": 13,
        "WIP": 77,
        "Pending": 10,
        "P1":90,
        "P2":0,
        "P3":100,
        "P4":300,
        "P5":87
    },
    {
        "Code":"ITEM00293",
        "Name":"Item-3",
        "NoofOrder":"JC/12347",
        "OrderQuantity": 100,
        "Produced": 20,
        "Rejected": 13,
        "WIP": 77,
        "Pending": 10,
        "P1":90,
        "P2":0,
        "P3":100,
        "P4":300,
        "P5":87
    },
    {
        "Code":"ITEM00294",
        "Name":"Item-4",
        "NoofOrder":"JC/12348",
        "OrderQuantity": 100,
        "Produced": 20,
        "Rejected": 13,
        "WIP": 77,
        "Pending": 10,
        "P1":90,
        "P2":0,
        "P3":100,
        "P4":300,
        "P5":87
    }
],
"ProcessDetailAray":[
    {
        "PrCode":"I00101",
        "ProcessName":"Powder Coating",
        "NoofOrder": "JC/12345",
        "Type": "Lorem Ipsum",
        "Code": "I00292",
        "Name": "Component-A",
        "OrderQuantity": 1000,
        "Produced": 200,
        "Rejected": 13,
        "WIP": 777,
        "Pending": 10,
        "Heading":"No. of Process",
        "P1":90,
        "P2":0,
        "P3":100,
        "P4":300,
        "P5":87
    },
    {
        "PrCode":"I00101",
        "ProcessName":"Powder Coating",
        "NoofOrder": "JC/12345",
        "Type": "Lorem Ipsum",
        "Code": "I00292",
        "Name": "Component-B",
        "OrderQuantity": 1000,
        "Produced": 200,
        "Rejected": 13,
        "WIP": 777,
        "Pending": 10,
        "P1":90,
        "P2":0,
        "P3":100,
        "P4":300,
        "P5":87
    },
    {
        "PrCode":"I00101",
        "ProcessName":"Powder Coating",
        "NoofOrder": "JC/12345",
        "Type": "Lorem Ipsum",
        "Code": "I00292",
        "Name": "Component-C",
        "OrderQuantity": 1000,
        "Produced": 200,
        "Rejected": 13,
        "WIP": 777,
        "Pending": 10,
        "P1":90,
        "P2":0,
        "P3":100,
        "P4":300,
        "P5":87
    },
    {
        "PrCode":"I00101",
        "ProcessName":"Powder Coating",
        "NoofOrder": "JC/12345",
        "Type": "Lorem Ipsum",
        "Code": "I00292",
        "Name": "Component-D",
        "OrderQuantity": 1000,
        "Produced": 200,
        "Rejected": 13,
        "WIP": 777,
        "Pending": 10,
        "P1":90,
        "P2":0,
        "P3":100,
        "P4":300,
        "P5":87
    },
    {
        "PrCode":"I00101",
        "ProcessName":"Powder Coating",
        "NoofOrder": "JC/12345",
        "Type": "Lorem Ipsum",
        "Code": "I00292",
        "Name": "Component-E",
        "OrderQuantity": 1000,
        "Produced": 200,
        "Rejected": 13,
        "WIP": 777,
        "Pending": 10,
        "P1":90,
        "P2":0,
        "P3":100,
        "P4":300,
        "P5":87
    }
]
}